<?xml version="1.0" encoding="UTF-8" standalone="no"?>
<!-- Created with Inkscape (http://www.inkscape.org/) -->

<svg
   xmlns:dc="http://purl.org/dc/elements/1.1/"
   xmlns:cc="http://creativecommons.org/ns#"
   xmlns:rdf="http://www.w3.org/1999/02/22-rdf-syntax-ns#"
   xmlns:svg="http://www.w3.org/2000/svg"
   xmlns="http://www.w3.org/2000/svg"
   xmlns:sodipodi="http://sodipodi.sourceforge.net/DTD/sodipodi-0.dtd"
   xmlns:inkscape="http://www.inkscape.org/namespaces/inkscape"
   width="62mm"
   height="88mm"
   viewBox="0 0 219.68504 311.81102"
   id="svg2"
   version="1.1"
   inkscape:version="0.91 r13725"
   sodipodi:docname="o_box.svg">
  <defs
     id="defs4">
    <inkscape:perspective
       sodipodi:type="inkscape:persp3d"
       inkscape:vp_x="0 : 155.90551 : 1"
       inkscape:vp_y="0 : 1000 : 0"
       inkscape:vp_z="219.68504 : 155.90551 : 1"
       inkscape:persp3d-origin="109.84252 : 103.93701 : 1"
       id="perspective6315" />
    <clipPath
       clipPathUnits="userSpaceOnUse"
       id="clipPath8648">
      <path
         style="fill:#ff0000;fill-opacity:1;fill-rule:evenodd;stroke:none;stroke-width:1px;stroke-linecap:butt;stroke-linejoin:miter;stroke-opacity:1"
         d="m 48.7971,144.54832 -4.54568,-1.2627 -4.04062,0.50508 -4.79822,3.40927 -5.93465,4.29314 -2.0203,2.90419 0.12627,2.65165 2.65165,2.14658 -1.01015,1.76776 -3.283,1.26269 -3.40926,8.08123 6.31345,9.34391 10.35406,-0.75762 46.21448,3.91434 25.50635,-7.19733 9.47018,-5.05077 0.12627,-10.10152 -2.65165,-1.13642 0.88389,-15.15229 10.35406,-6.9448 3.28299,-3.91434 6.566,-7.82868 0.50507,-4.54569 -4.54568,-1.89404 -2.14658,1.01016 -4.16688,1.13642 -5.93464,-2.90419 -2.77792,-1.76777 -5.80838,2.39911 -2.90419,3.03046 -3.40926,4.9245 -7.07107,0.3788 -8.96511,5.80838 -2.90418,2.14657 -3.66181,0.12627 -5.55584,-0.3788 -17.29886,2.65165 z"
         id="path8650"
         inkscape:connector-curvature="0" />
    </clipPath>
    <mask
       maskUnits="userSpaceOnUse"
       id="mask8666">
      <rect
         rx="1.7260212"
         ry="2.8714814"
         y="98.924339"
         x="22.885082"
         height="109.83415"
         width="100.10923"
         id="rect8668"
         style="opacity:1;fill:#ffffff;fill-opacity:1;stroke:none;stroke-width:2.01114893;stroke-linecap:round;stroke-linejoin:bevel;stroke-miterlimit:4;stroke-dasharray:none;stroke-dashoffset:0;stroke-opacity:1" />
    </mask>
    <clipPath
       clipPathUnits="userSpaceOnUse"
       id="clipPath9647">
      <path
         style="fill:#ff0000;fill-opacity:1;fill-rule:evenodd;stroke:none;stroke-width:1px;stroke-linecap:butt;stroke-linejoin:miter;stroke-opacity:1"
         d="m 24.29467,289.85466 12.14286,-9.28572 41.42857,-15.71428 40,-5 20,5 2.85715,7.14285 9.28571,6.42858 10,1.42857 -3.57143,13.57143 -15.71428,10 -27.85715,5.71428 -74.28571,1.42857 z"
         id="path9649"
         inkscape:connector-curvature="0" />
    </clipPath>
  </defs>
  <sodipodi:namedview
     id="base"
     pagecolor="#ffffff"
     bordercolor="#666666"
     borderopacity="1.0"
     inkscape:pageopacity="0.0"
     inkscape:pageshadow="2"
     inkscape:zoom="1.4"
     inkscape:cx="43.874724"
     inkscape:cy="204.98587"
     inkscape:document-units="px"
     inkscape:current-layer="layer1"
     showgrid="false"
     inkscape:window-width="1920"
     inkscape:window-height="1026"
     inkscape:window-x="-2"
     inkscape:window-y="31"
     inkscape:window-maximized="1" />
  <metadata
     id="metadata7">
    <rdf:RDF>
      <cc:Work
         rdf:about="">
        <dc:format>image/svg+xml</dc:format>
        <dc:type
           rdf:resource="http://purl.org/dc/dcmitype/StillImage" />
        <dc:title></dc:title>
      </cc:Work>
    </rdf:RDF>
  </metadata>
  <g
     inkscape:label="Layer 1"
     inkscape:groupmode="layer"
     id="layer1"
     transform="translate(0,-740.55118)">
    <text
       xml:space="preserve"
       style="font-style:normal;font-weight:normal;font-size:22.05662727px;line-height:125%;font-family:Sans;letter-spacing:0px;word-spacing:0px;fill:#000000;fill-opacity:1;stroke:none;stroke-width:1px;stroke-linecap:butt;stroke-linejoin:miter;stroke-opacity:1"
       x="103.71159"
       y="766.04486"
       id="text6305"
       sodipodi:linespacing="125%"><tspan
         sodipodi:role="line"
         id="tspan6307"
         x="103.71159"
         y="766.04486"
         style="font-style:normal;font-variant:normal;font-weight:normal;font-stretch:normal;font-size:15px;font-family:'Ubuntu Condensed';-inkscape-font-specification:'Ubuntu Condensed, '">A C1 C2 D T</tspan></text>
    <text
       xml:space="preserve"
       style="font-style:normal;font-weight:normal;font-size:24.13778114px;line-height:125%;font-family:Sans;letter-spacing:0px;word-spacing:0px;fill:#000000;fill-opacity:1;stroke:none;stroke-width:1px;stroke-linecap:butt;stroke-linejoin:miter;stroke-opacity:1"
       x="55.082767"
       y="973.02319"
       id="text6309"
       sodipodi:linespacing="125%"><tspan
         sodipodi:role="line"
         id="tspan6311"
         x="55.082767"
         y="973.02319"
         style="font-style:normal;font-variant:normal;font-weight:500;font-stretch:normal;font-size:22.5px;font-family:Essays1743;-inkscape-font-specification:'Essays1743 Medium'">Locked box</tspan></text>
    <text
       xml:space="preserve"
       style="font-style:normal;font-weight:normal;font-size:19.57834816px;line-height:125%;font-family:Sans;letter-spacing:0px;word-spacing:0px;fill:#000000;fill-opacity:1;stroke:none;stroke-width:1px;stroke-linecap:butt;stroke-linejoin:miter;stroke-opacity:1"
       x="14.324148"
       y="763.8302"
       id="text6317"
       sodipodi:linespacing="125%"><tspan
         sodipodi:role="line"
         id="tspan6319"
         x="14.324148"
         y="763.8302"
         style="font-style:normal;font-variant:normal;font-weight:500;font-stretch:normal;font-family:Essays1743;-inkscape-font-specification:'Essays1743 Medium'">G</tspan></text>
    <g
       transform="matrix(0.64415052,0,0,0.64415052,8.4330024,818.58419)"
       id="crates_xA0_Image">
      <path
         inkscape:connector-curvature="0"
         style="clip-rule:evenodd;fill-rule:evenodd"
         d="m 246.53,4.517 c -0.208,1.523 -1.487,1.974 -3.458,1.73 0.21,-1.519 1.49,-1.97 3.46,-1.73 z"
         id="path5" />
      <path
         inkscape:connector-curvature="0"
         style="clip-rule:evenodd;fill-rule:evenodd"
         d="m 244.8,9.708 c 0.608,2.802 -19.349,1.373 -8.652,0.864 2.12,-0.989 6.2,-2.882 8.65,-0.864 z"
         id="path7" />
      <path
         inkscape:connector-curvature="0"
         style="clip-rule:evenodd;fill-rule:evenodd"
         d="m 185.98,17.494 c 4.23,-0.283 -6.87,0.456 0,0 z"
         id="path9" />
      <path
         inkscape:connector-curvature="0"
         style="clip-rule:evenodd;fill-rule:evenodd"
         d="m 170.41,20.089 c -3.701,2.645 -10.607,2.079 -15.57,3.458 3.51,-2.832 10.14,-2.547 15.57,-3.458 z"
         id="path11" />
      <path
         inkscape:connector-curvature="0"
         style="clip-rule:evenodd;fill-rule:evenodd"
         d="m 142.73,25.278 c -0.146,-1.876 3.068,-0.391 4.325,-0.864 0.14,1.876 -3.08,0.39 -4.33,0.864 z"
         id="path13" />
      <path
         inkscape:connector-curvature="0"
         style="clip-rule:evenodd;fill-rule:evenodd"
         d="m 173,24.414 c -2.584,1.741 -6.105,2.544 -10.38,2.595 2.64,-1.686 5.78,-2.878 10.38,-2.595 z"
         id="path15" />
      <path
         inkscape:connector-curvature="0"
         style="clip-rule:evenodd;fill-rule:evenodd"
         d="m 199.82,24.414 c 0.872,2.602 -1.928,1.533 -3.461,1.73 0.2,-1.522 1.49,-1.973 3.46,-1.73 z"
         id="path17" />
      <path
         inkscape:connector-curvature="0"
         style="clip-rule:evenodd;fill-rule:evenodd"
         d="m 119.37,27.008 c -2.921,1.693 -7.118,2.108 -11.244,2.594 2.78,-1.828 6.54,-2.686 11.24,-2.594 z"
         id="path19" />
      <path
         inkscape:connector-curvature="0"
         style="clip-rule:evenodd;fill-rule:evenodd"
         d="m 132.35,27.008 c -1.599,1.285 -4.109,1.658 -6.92,1.73 1.38,-1.5 3.89,-1.873 6.92,-1.73 z"
         id="path21" />
      <path
         inkscape:connector-curvature="0"
         style="clip-rule:evenodd;fill-rule:evenodd"
         d="m 189.44,27.008 c -4.678,2.82 -13.736,1.257 -18.166,4.325 -1.686,-1.7 7.237,-3.914 10.38,-4.325 2.75,-0.358 5.49,0.273 7.79,0 z"
         id="path23" />
      <path
         inkscape:connector-curvature="0"
         style="clip-rule:evenodd;fill-rule:evenodd"
         d="m 156.57,32.199 c 0.373,-1.936 4.265,-0.351 6.056,-0.866 -0.38,1.936 -4.27,0.351 -6.06,0.866 z"
         id="path25" />
      <path
         inkscape:connector-curvature="0"
         style="clip-rule:evenodd;fill-rule:evenodd"
         d="m 108.13,32.199 c -1.9,2.642 -5.54,-0.999 0,0 z"
         id="path27" />
      <path
         inkscape:connector-curvature="0"
         style="clip-rule:evenodd;fill-rule:evenodd"
         d="m 131.48,32.199 c -1.806,1.365 -4.55,1.793 -7.785,1.73 0.95,-2.215 4.64,-1.7 7.78,-1.73 z"
         id="path29" />
      <path
         inkscape:connector-curvature="0"
         style="clip-rule:evenodd;fill-rule:evenodd"
         d="m 141,34.794 c -0.342,2.83 -4.238,2.104 -6.919,2.594 1.65,-1.515 4.51,-1.833 6.92,-2.594 z"
         id="path31" />
      <path
         inkscape:connector-curvature="0"
         style="clip-rule:evenodd;fill-rule:evenodd"
         d="m 166.08,37.388 -7.783,0 c 0.83,-1.177 7.65,-3.674 7.78,0 z"
         id="path33" />
      <path
         inkscape:connector-curvature="0"
         style="clip-rule:evenodd;fill-rule:evenodd"
         d="m 133.21,37.388 c -1.9,2.642 -5.54,-0.999 0,0 z"
         id="path35" />
      <path
         inkscape:connector-curvature="0"
         style="clip-rule:evenodd;fill-rule:evenodd"
         d="m 110.72,39.983 c -1.9,2.642 -5.54,-0.997 0,0 z"
         id="path37" />
      <path
         inkscape:connector-curvature="0"
         style="clip-rule:evenodd;fill-rule:evenodd"
         d="m 146.19,39.983 c -2.785,1.831 -6.539,2.689 -11.245,2.597 3.21,-1.408 6.35,-2.878 11.25,-2.597 z"
         id="path39" />
      <path
         inkscape:connector-curvature="0"
         style="clip-rule:evenodd;fill-rule:evenodd"
         d="m 259.51,41.713 c -0.736,1.285 -2.179,1.86 -4.325,1.73 0.73,-1.281 2.18,-1.86 4.33,-1.73 z"
         id="path41" />
      <path
         inkscape:connector-curvature="0"
         style="clip-rule:evenodd;fill-rule:evenodd"
         d="m 131.48,42.58 c -0.12,2.474 -3.608,1.581 -6.055,1.728 0.84,-1.761 3.33,-1.869 6.06,-1.728 z"
         id="path43" />
      <path
         inkscape:connector-curvature="0"
         style="clip-rule:evenodd;fill-rule:evenodd"
         d="m 26.814,46.038 c -1.899,2.642 -5.539,-0.996 0,0 z"
         id="path45" />
      <path
         inkscape:connector-curvature="0"
         style="clip-rule:evenodd;fill-rule:evenodd"
         d="m 278.54,49.499 c 16.206,0.271 -0.162,0.884 -5.19,1.73 0.14,-1.014 1.577,-0.731 2.597,-0.867 -0.025,-0.841 -1.06,-0.671 -1.73,-0.864 0.62,-0.708 4.92,-3.372 4.32,0.001 z"
         id="path47" />
      <path
         inkscape:connector-curvature="0"
         style="clip-rule:evenodd;fill-rule:evenodd"
         d="m 255.18,49.499 c -0.546,2.915 -4.668,2.254 -7.786,2.594 1.68,-1.785 5.27,-1.65 7.79,-2.594 z"
         id="path49" />
      <path
         inkscape:connector-curvature="0"
         style="clip-rule:evenodd;fill-rule:evenodd"
         d="m 57.09,51.229 c 0.109,-1.911 3.67,-0.368 5.191,-0.867 -0.109,1.912 -3.67,0.369 -5.191,0.867 z"
         id="path51" />
      <path
         inkscape:connector-curvature="0"
         style="clip-rule:evenodd;fill-rule:evenodd"
         d="m 51.901,51.229 1.729,0 0,1.73 -1.729,0 0,-1.73 z"
         id="path53" />
      <path
         inkscape:connector-curvature="0"
         style="clip-rule:evenodd;fill-rule:evenodd"
         d="m 75.256,52.96 c -3.531,1.658 -7.565,2.815 -12.975,2.594 2.728,-2.461 8.009,-2.371 12.975,-2.594 z"
         id="path55" />
      <path
         inkscape:connector-curvature="0"
         style="clip-rule:evenodd;fill-rule:evenodd"
         d="m 276.8,54.688 c -5.531,2.544 -13.59,2.557 -19.896,4.327 4.88,-5.031 10.87,-3.596 19.9,-4.327 z"
         id="path57" />
      <path
         inkscape:connector-curvature="0"
         style="clip-rule:evenodd;fill-rule:evenodd"
         d="m 284.59,54.688 1.73,0 c 0.403,1.848 -1.237,1.648 -2.597,1.73 0.17,-0.698 0.87,-0.861 0.87,-1.73 z"
         id="path59" />
      <path
         inkscape:connector-curvature="0"
         style="clip-rule:evenodd;fill-rule:evenodd"
         d="m 268.16,59.015 c -1.189,2.507 -11.54,-0.333 -3.461,0 2.36,0.078 1.74,-1.442 3.46,0 z"
         id="path61" />
      <path
         inkscape:connector-curvature="0"
         style="clip-rule:evenodd;fill-rule:evenodd"
         d="m 38.06,59.015 c -0.795,1.51 -2.705,1.908 -5.19,1.728 0.796,-1.51 2.705,-1.908 5.19,-1.728 z"
         id="path63" />
      <path
         inkscape:connector-curvature="0"
         style="clip-rule:evenodd;fill-rule:evenodd"
         d="m 185.98,61.61 c -2.98,-2.236 4.45,-2.091 0,0 z"
         id="path65" />
      <path
         inkscape:connector-curvature="0"
         style="clip-rule:evenodd;fill-rule:evenodd"
         d="m 260.37,59.879 c -1.066,1.239 -2.975,1.638 -5.188,1.73 0.8,-1.509 2.7,-1.91 5.19,-1.73 z"
         id="path67" />
      <path
         inkscape:connector-curvature="0"
         style="clip-rule:evenodd;fill-rule:evenodd"
         d="m 291.51,60.743 c 2.469,4.227 -1.518,9.418 -0.864,14.705 -2.8,-4.552 0.62,-10.312 0.86,-14.705 z"
         id="path69" />
      <path
         inkscape:connector-curvature="0"
         style="clip-rule:evenodd;fill-rule:evenodd"
         d="m 189.44,61.61 c -1.066,1.239 -2.975,1.638 -5.191,1.73 0.79,-1.512 2.7,-1.911 5.19,-1.73 z"
         id="path71" />
      <path
         inkscape:connector-curvature="0"
         style="clip-rule:evenodd;fill-rule:evenodd"
         d="m 295.84,62.474 c 0.997,-2.797 0.979,2.324 0.864,3.461 -1,2.797 -0.98,-2.325 -0.86,-3.461 z"
         id="path73" />
      <path
         inkscape:connector-curvature="0"
         style="clip-rule:evenodd;fill-rule:evenodd"
         d="m 169.54,63.34 c -0.146,-1.876 3.07,-0.394 4.327,-0.867 0.15,1.877 -3.07,0.394 -4.33,0.867 z"
         id="path75" />
      <path
         inkscape:connector-curvature="0"
         style="clip-rule:evenodd;fill-rule:evenodd"
         d="m 208.47,62.474 c -1.9,2.642 -5.54,-0.997 0,0 z"
         id="path77" />
      <path
         inkscape:connector-curvature="0"
         style="clip-rule:evenodd;fill-rule:evenodd"
         d="m 200.68,63.34 c -1.9,2.642 -5.54,-0.999 0,0 z"
         id="path79" />
      <path
         inkscape:connector-curvature="0"
         style="clip-rule:evenodd;fill-rule:evenodd"
         d="m 286.32,63.34 c 2.262,0.786 0.879,4.936 0.864,7.783 -0.04,7.052 -0.36,15.854 -1.73,21.627 -1.43,-9.984 0.65,-18.639 0.87,-29.41 z"
         id="path81" />
      <path
         inkscape:connector-curvature="0"
         style="clip-rule:evenodd;fill-rule:evenodd"
         d="m 177.33,65.068 c -0.195,1.247 -2.582,0.303 -2.595,1.73 -2.79,-0.976 0.83,-2.469 2.59,-1.73 z"
         id="path83" />
      <path
         inkscape:connector-curvature="0"
         style="clip-rule:evenodd;fill-rule:evenodd"
         d="m 299.3,66.798 c 0.328,-1.645 1.1,0.554 0.864,1.73 -0.33,1.649 -1.1,-0.55 -0.86,-1.73 z"
         id="path85" />
      <path
         inkscape:connector-curvature="0"
         style="clip-rule:evenodd;fill-rule:evenodd"
         d="m 181.65,66.798 c -1.598,1.285 -4.109,1.658 -6.919,1.73 0.89,-1.997 3.98,-1.787 6.92,-1.73 z"
         id="path87" />
      <path
         inkscape:connector-curvature="0"
         style="clip-rule:evenodd;fill-rule:evenodd"
         d="m 193.76,68.529 c -0.937,1.946 -5.438,0.331 -4.325,4.325 -4.07,-1.63 0.62,-5.194 4.32,-4.325 z"
         id="path89" />
      <path
         inkscape:connector-curvature="0"
         style="clip-rule:evenodd;fill-rule:evenodd"
         d="m 110.72,69.396 c -0.735,1.282 -2.176,1.858 -4.325,1.728 0.12,-1.891 2.18,-1.856 4.32,-1.728 z"
         id="path91" />
      <path
         inkscape:connector-curvature="0"
         style="clip-rule:evenodd;fill-rule:evenodd"
         d="m 254.31,69.396 c 3.291,2.86 0.506,11.134 0,15.569 -2.63,-4.396 0.67,-10.265 0,-15.569 z"
         id="path93" />
      <path
         inkscape:connector-curvature="0"
         style="clip-rule:evenodd;fill-rule:evenodd"
         d="m 269.89,69.396 c 1.112,1.455 -0.007,12.624 -0.866,12.108 l 0,-9.514 c 1.01,-0.14 0.73,-1.578 0.87,-2.594 z"
         id="path95" />
      <path
         inkscape:connector-curvature="0"
         style="clip-rule:evenodd;fill-rule:evenodd"
         d="m 276.8,71.124 c 0.564,-2.439 1.005,1.993 0.864,2.597 -0.39,1.735 -1.61,0.696 -0.86,-2.597 z"
         id="path97" />
      <path
         inkscape:connector-curvature="0"
         style="clip-rule:evenodd;fill-rule:evenodd"
         d="m 281.13,70.259 c 1.849,13.786 0.764,26.771 -0.864,39.791 -1.71,-11.955 -0.14,-26.202 0.86,-39.791 z"
         id="path99" />
      <path
         inkscape:connector-curvature="0"
         style="clip-rule:evenodd;fill-rule:evenodd"
         d="m 298.43,70.259 c 1.596,1.656 -0.218,11.828 -0.864,11.245 l 0,-8.65 c 1.01,-0.14 0.73,-1.575 0.86,-2.595 z"
         id="path101" />
      <path
         inkscape:connector-curvature="0"
         style="clip-rule:evenodd;fill-rule:evenodd"
         d="m 123.7,71.99 c 2.498,1.999 -3.777,2.507 -6.055,2.595 0.85,-2.037 4.99,-0.774 6.06,-2.595 z"
         id="path103" />
      <path
         inkscape:connector-curvature="0"
         style="clip-rule:evenodd;fill-rule:evenodd"
         d="m 257.78,72.854 c 0.328,-1.646 1.1,0.553 0.863,1.73 -0.33,1.648 -1.1,-0.551 -0.86,-1.73 z"
         id="path105" />
      <path
         inkscape:connector-curvature="0"
         style="clip-rule:evenodd;fill-rule:evenodd"
         d="m 108.99,72.854 c -1.9,2.642 -5.54,-1 0,0 z"
         id="path107" />
      <path
         inkscape:connector-curvature="0"
         style="clip-rule:evenodd;fill-rule:evenodd"
         d="m 84.771,73.72 c 0.049,3.218 -3.849,2.495 -6.92,2.595 0.474,-2.7 5.017,-1.328 6.92,-2.595 z"
         id="path109" />
      <path
         inkscape:connector-curvature="0"
         style="clip-rule:evenodd;fill-rule:evenodd"
         d="m 94.286,76.315 c -0.028,1.25 -5.439,1.312 -2.595,2.594 -1.266,2.309 -4.747,-0.36 -4.325,-2.594 2.619,-1.19 3.091,0.411 6.92,0 z"
         id="path111" />
      <path
         inkscape:connector-curvature="0"
         style="clip-rule:evenodd;fill-rule:evenodd"
         d="m 113.32,75.448 c -1.9,2.645 -5.54,-0.996 0,0 z"
         id="path113" />
      <path
         inkscape:connector-curvature="0"
         style="clip-rule:evenodd;fill-rule:evenodd"
         d="m 163.49,77.179 c 0.016,1.267 -3.646,2.742 0,2.597 -1.973,4.413 -5.236,-0.583 -8.648,0 1.78,-1.971 4.51,-2.988 8.65,-2.597 z"
         id="path115" />
      <path
         inkscape:connector-curvature="0"
         style="clip-rule:evenodd;fill-rule:evenodd"
         d="m 260.37,78.045 c 1.796,-0.892 0.449,8.748 0.864,12.11 -1.79,0.892 -0.45,-8.749 -0.86,-12.11 z"
         id="path117" />
      <path
         inkscape:connector-curvature="0"
         style="clip-rule:evenodd;fill-rule:evenodd"
         d="m 117.64,78.045 c -1.9,2.643 -5.54,-0.999 0,0 z"
         id="path119" />
      <path
         inkscape:connector-curvature="0"
         style="clip-rule:evenodd;fill-rule:evenodd"
         d="m 171.27,78.909 c -1.9,2.642 -5.54,-0.999 0,0 z"
         id="path121" />
      <path
         inkscape:connector-curvature="0"
         style="clip-rule:evenodd;fill-rule:evenodd"
         d="m 256.91,79.776 c 2.154,0.13 0.254,2.927 0,3.458 -2.15,-0.13 -0.25,-2.93 0,-3.458 z"
         id="path123" />
      <path
         inkscape:connector-curvature="0"
         style="clip-rule:evenodd;fill-rule:evenodd"
         d="m 85.636,80.64 c -0.195,1.245 -2.582,0.303 -2.594,1.73 -2.78,-0.976 0.833,-2.469 2.594,-1.73 z"
         id="path125" />
      <path
         inkscape:connector-curvature="0"
         style="clip-rule:evenodd;fill-rule:evenodd"
         d="m 147.92,80.64 c -0.53,3.543 -2.376,1.733 -5.19,1.73 0.79,-1.51 2.7,-1.911 5.19,-1.73 z"
         id="path127" />
      <path
         inkscape:connector-curvature="0"
         style="clip-rule:evenodd;fill-rule:evenodd"
         d="m 118.51,81.504 c -1.9,2.642 -5.54,-0.997 0,0 z"
         id="path129" />
      <path
         inkscape:connector-curvature="0"
         style="clip-rule:evenodd;fill-rule:evenodd"
         d="m 139.27,82.37 c -0.835,1.761 -3.322,1.868 -6.055,1.73 1.3,-1.287 3.79,-1.394 6.05,-1.73 z"
         id="path131" />
      <path
         inkscape:connector-curvature="0"
         style="clip-rule:evenodd;fill-rule:evenodd"
         d="m 147.92,83.234 1.73,0 c 0.403,1.845 -1.236,1.647 -2.596,1.73 0.17,-0.701 0.87,-0.861 0.87,-1.73 z"
         id="path133" />
      <path
         inkscape:connector-curvature="0"
         style="clip-rule:evenodd;fill-rule:evenodd"
         d="m 272.48,83.234 c 2.166,3.749 -0.251,5.94 0,9.516 -2.57,-2.346 0.49,-6.383 0,-9.516 z"
         id="path135" />
      <path
         inkscape:connector-curvature="0"
         style="clip-rule:evenodd;fill-rule:evenodd"
         d="m 97.747,84.965 c -0.146,-1.876 3.067,-0.391 4.325,-0.864 0.15,1.876 -3.066,0.39 -4.323,0.864 z"
         id="path137" />
      <path
         inkscape:connector-curvature="0"
         style="clip-rule:evenodd;fill-rule:evenodd"
         d="m 36.331,85.829 c -2.041,2.784 -3.498,-3.041 0,0 z"
         id="path139" />
      <path
         inkscape:connector-curvature="0"
         style="clip-rule:evenodd;fill-rule:evenodd"
         d="m 113.32,84.965 c -2.506,1.532 -6.623,1.45 -9.515,2.594 1,-3.033 5.88,-2.194 9.52,-2.594 z"
         id="path141" />
      <path
         inkscape:connector-curvature="0"
         style="clip-rule:evenodd;fill-rule:evenodd"
         d="m 92.557,85.829 c -4.583,2.649 -8.309,-1.077 0,0 z"
         id="path143" />
      <path
         inkscape:connector-curvature="0"
         style="clip-rule:evenodd;fill-rule:evenodd"
         d="m 288.92,85.829 c 1.583,2.489 1.234,10.433 0,12.977 -2.64,-3.226 -0.74,-8.537 0,-12.977 z"
         id="path145" />
      <path
         inkscape:connector-curvature="0"
         style="clip-rule:evenodd;fill-rule:evenodd"
         d="m 104.67,89.29 c 1.581,-2.407 12.801,-3.596 12.976,-1.73 l -2.596,0 c -1.767,0.829 -3.422,1.768 -5.19,2.597 -2.04,0.016 -2.55,-1.491 -5.19,-0.867 z"
         id="path147" />
      <path
         inkscape:connector-curvature="0"
         style="clip-rule:evenodd;fill-rule:evenodd"
         d="m 253.45,87.559 c 1.769,1.65 1.735,3.756 0.864,6.055 -1.93,-0.373 -0.35,-4.262 -0.86,-6.055 z"
         id="path149" />
      <path
         inkscape:connector-curvature="0"
         style="clip-rule:evenodd;fill-rule:evenodd"
         d="m 268.16,88.425 c 1.934,-1.207 0.474,7.533 0,9.514 -2.34,-2.111 1.22,-5.639 0,-9.514 z"
         id="path151" />
      <path
         inkscape:connector-curvature="0"
         style="clip-rule:evenodd;fill-rule:evenodd"
         d="m 201.55,89.29 c 1.338,-2.645 0.762,3.751 0.864,5.191 -1.33,2.644 -0.76,-3.754 -0.86,-5.191 z"
         id="path153" />
      <path
         inkscape:connector-curvature="0"
         style="clip-rule:evenodd;fill-rule:evenodd"
         d="m 164.35,90.156 c 0.561,-2.439 1.004,1.991 0.866,2.595 -0.4,1.737 -1.63,0.698 -0.87,-2.595 z"
         id="path155" />
      <path
         inkscape:connector-curvature="0"
         style="clip-rule:evenodd;fill-rule:evenodd"
         d="m 209.34,90.156 c 1.282,0.734 1.858,2.176 1.728,4.325 -2.91,0.886 -1.35,-2.692 -1.73,-4.325 z"
         id="path157" />
      <path
         inkscape:connector-curvature="0"
         style="clip-rule:evenodd;fill-rule:evenodd"
         d="m 80.446,91.02 c -1.899,2.642 -5.541,-0.999 0,0 z"
         id="path159" />
      <path
         inkscape:connector-curvature="0"
         style="clip-rule:evenodd;fill-rule:evenodd"
         d="m 300.16,91.884 c 1.798,-0.892 0.448,8.75 0.866,12.11 -1.8,0.9 -0.45,-8.743 -0.87,-12.106 z"
         id="path161" />
      <path
         inkscape:connector-curvature="0"
         style="clip-rule:evenodd;fill-rule:evenodd"
         d="m 160.03,93.614 c 0.563,-2.439 1.004,1.994 0.864,2.595 -0.4,1.737 -1.62,0.698 -0.86,-2.595 z"
         id="path163" />
      <path
         inkscape:connector-curvature="0"
         style="clip-rule:evenodd;fill-rule:evenodd"
         d="m 182.52,93.614 c 0.328,-1.645 1.099,0.554 0.863,1.73 -0.32,1.648 -1.1,-0.55 -0.86,-1.73 z"
         id="path165" />
      <path
         inkscape:connector-curvature="0"
         style="clip-rule:evenodd;fill-rule:evenodd"
         d="m 275.94,92.75 c 3.2,2.623 -2.63,2.913 0,0 z"
         id="path167" />
      <path
         inkscape:connector-curvature="0"
         style="clip-rule:evenodd;fill-rule:evenodd"
         d="m 296.7,95.345 c 1.926,0.363 0.679,4.591 0,5.191 -2.36,-0.8 1.21,-2.709 0,-5.195 z"
         id="path169" />
      <path
         inkscape:connector-curvature="0"
         style="clip-rule:evenodd;fill-rule:evenodd"
         d="m 84.771,97.075 c -1.899,2.643 -5.541,-0.999 0,0 z"
         id="path171" />
      <path
         inkscape:connector-curvature="0"
         style="clip-rule:evenodd;fill-rule:evenodd"
         d="m 288.92,99.67 c 2.587,5.491 -1.228,12.022 -0.866,18.166 -2.06,-4.97 0.17,-13.08 0.87,-18.17 z"
         id="path173" />
      <path
         inkscape:connector-curvature="0"
         style="clip-rule:evenodd;fill-rule:evenodd"
         d="m 255.18,101.4 c 0.562,-2.439 1.005,1.993 0.864,2.594 -0.4,1.74 -1.62,0.7 -0.86,-2.59 z"
         id="path175" />
      <path
         inkscape:connector-curvature="0"
         style="clip-rule:evenodd;fill-rule:evenodd"
         d="m 222.31,103.13 c 2.52,3.834 -0.022,14.059 0.864,21.624 0.115,1.137 0.13,6.259 -0.864,3.461 l 0,-6.056 c -0.554,-3.195 1.119,-8.617 -0.866,-10.38 0.9,-2.27 1.04,-5.3 0.87,-8.64 z"
         id="path177" />
      <path
         inkscape:connector-curvature="0"
         style="clip-rule:evenodd;fill-rule:evenodd"
         d="m 109.86,105.72 c 0.329,-1.647 1.101,0.554 0.865,1.73 -0.33,1.65 -1.1,-0.55 -0.86,-1.73 z"
         id="path179" />
      <path
         inkscape:connector-curvature="0"
         style="clip-rule:evenodd;fill-rule:evenodd"
         d="m 214.52,105.72 c 1.448,-2.491 0.689,4.421 0.864,6.056 -1.44,2.49 -0.68,-4.42 -0.86,-6.06 z"
         id="path181" />
      <path
         inkscape:connector-curvature="0"
         style="clip-rule:evenodd;fill-rule:evenodd"
         d="m 217.98,105.72 c 0.328,-1.647 1.1,0.554 0.864,1.73 -0.32,1.65 -1.09,-0.55 -0.86,-1.73 z"
         id="path183" />
      <path
         inkscape:connector-curvature="0"
         style="clip-rule:evenodd;fill-rule:evenodd"
         d="m 169.54,106.59 c 0.331,-1.646 1.102,0.554 0.866,1.73 -0.33,1.65 -1.1,-0.55 -0.87,-1.73 z"
         id="path185" />
      <path
         inkscape:connector-curvature="0"
         style="clip-rule:evenodd;fill-rule:evenodd"
         d="m 80.446,109.19 c 0.329,-1.647 1.101,0.552 0.865,1.73 -0.329,1.64 -1.1,-0.56 -0.865,-1.73 z"
         id="path187" />
      <path
         inkscape:connector-curvature="0"
         style="clip-rule:evenodd;fill-rule:evenodd"
         d="m 169.54,110.92 c 1.272,1.393 1.59,12.046 1.73,17.3 -2.1,-4.24 -1.72,-10.96 -1.73,-17.3 z"
         id="path189" />
      <path
         inkscape:connector-curvature="0"
         style="clip-rule:evenodd;fill-rule:evenodd"
         d="m 299.3,110.05 c 2.577,1.806 -1.149,4.551 0,7.786 -2.49,-1.72 0.29,-5.4 0,-7.79 z"
         id="path191" />
      <path
         inkscape:connector-curvature="0"
         style="clip-rule:evenodd;fill-rule:evenodd"
         d="m 81.312,114.38 c 3.543,5.394 2.26,15.616 4.325,22.491 -3.622,-7.19 -3.572,-12.7 -4.325,-22.49 z"
         id="path193" />
      <path
         inkscape:connector-curvature="0"
         style="clip-rule:evenodd;fill-rule:evenodd"
         d="m 98.611,115.24 c 1.118,-0.781 1.413,6.624 1.73,9.514 -2.047,-1.69 -1.759,-5.73 -1.729,-9.51 z"
         id="path195" />
      <path
         inkscape:connector-curvature="0"
         style="clip-rule:evenodd;fill-rule:evenodd"
         d="m 160.89,115.24 c 0.33,-1.647 1.102,0.551 0.866,1.729 -0.33,1.65 -1.1,-0.55 -0.87,-1.73 z"
         id="path197" />
      <path
         inkscape:connector-curvature="0"
         style="clip-rule:evenodd;fill-rule:evenodd"
         d="m 217.98,114.38 c 3.411,1.98 1.701,13.017 0.864,16.436 -1.99,-3.77 -0.29,-11.24 -0.86,-16.44 z"
         id="path199" />
      <path
         inkscape:connector-curvature="0"
         style="clip-rule:evenodd;fill-rule:evenodd"
         d="m 77.851,115.24 c 1.82,5.459 0.46,11.59 0,4.325 -0.123,-1.95 -1.513,-2.04 0,-4.32 z"
         id="path201" />
      <path
         inkscape:connector-curvature="0"
         style="clip-rule:evenodd;fill-rule:evenodd"
         d="m 94.286,115.24 c 3.277,0.078 2.76,15.401 1.73,6.919 -0.048,-2.83 -2.46,-3.31 -1.73,-6.92 z"
         id="path203" />
      <path
         inkscape:connector-curvature="0"
         style="clip-rule:evenodd;fill-rule:evenodd"
         d="m 143.59,116.97 c 0.996,-2.798 0.979,2.323 0.865,3.46 -1,2.8 -0.98,-2.32 -0.87,-3.46 z"
         id="path205" />
      <path
         inkscape:connector-curvature="0"
         style="clip-rule:evenodd;fill-rule:evenodd"
         d="m 86.501,119.57 c 2.212,1.823 2.964,5.108 2.594,9.514 -1.52,-2.52 -1.97,-6.1 -2.594,-9.51 z"
         id="path207" />
      <path
         inkscape:connector-curvature="0"
         style="clip-rule:evenodd;fill-rule:evenodd"
         d="m 75.256,123.02 c 0.563,-2.439 1.004,1.993 0.865,2.597 -0.4,1.74 -1.625,0.7 -0.865,-2.6 z"
         id="path209" />
      <path
         inkscape:connector-curvature="0"
         style="clip-rule:evenodd;fill-rule:evenodd"
         d="m 94.286,137.73 c -2.54,-2.938 -2.451,-8.504 -2.595,-13.839 0.943,1.1 3.053,8.46 2.595,13.84 z"
         id="path211" />
      <path
         inkscape:connector-curvature="0"
         style="clip-rule:evenodd;fill-rule:evenodd"
         d="m 281.99,123.89 c 1.34,-2.645 0.764,3.752 0.866,5.189 -1.34,2.64 -0.76,-3.75 -0.87,-5.19 z"
         id="path213" />
      <path
         inkscape:connector-curvature="0"
         style="clip-rule:evenodd;fill-rule:evenodd"
         d="m 78.716,124.76 c 1.763,2.564 3.089,5.562 2.596,10.381 -2.168,-2.16 -2.623,-6.03 -2.596,-10.38 z"
         id="path215" />
      <path
         inkscape:connector-curvature="0"
         style="clip-rule:evenodd;fill-rule:evenodd"
         d="m 215.39,125.62 c 0.997,-2.8 0.979,2.322 0.866,3.459 -1,2.8 -0.98,-2.32 -0.87,-3.46 z"
         id="path217" />
      <path
         inkscape:connector-curvature="0"
         style="clip-rule:evenodd;fill-rule:evenodd"
         d="m 72.662,126.48 c 0.329,-1.647 1.099,0.554 0.864,1.73 -0.33,1.65 -1.101,-0.55 -0.864,-1.73 z"
         id="path219" />
      <path
         inkscape:connector-curvature="0"
         style="clip-rule:evenodd;fill-rule:evenodd"
         d="m 96.882,128.22 c 2.861,7.806 3.202,18.134 3.459,28.547 -1.942,-2.422 -0.892,-16.566 -3.459,-21.627 10e-4,-2.31 10e-4,-4.62 10e-4,-6.92 z"
         id="path221" />
      <path
         inkscape:connector-curvature="0"
         style="clip-rule:evenodd;fill-rule:evenodd"
         d="m 171.27,129.95 c 1.58,3.323 1.841,7.961 1.73,12.975 -3.05,-1.85 -1.24,-8.56 -1.73,-12.97 z"
         id="path223" />
      <path
         inkscape:connector-curvature="0"
         style="clip-rule:evenodd;fill-rule:evenodd"
         d="m 218.85,131.68 c 0.939,0.213 0.586,1.718 1.73,1.729 -0.812,2.006 -1.721,7.795 -1.73,7.785 -1.8,-1.81 1.1,-4.99 0,-9.52 z"
         id="path225" />
      <path
         inkscape:connector-curvature="0"
         style="clip-rule:evenodd;fill-rule:evenodd"
         d="m 29.41,132.54 c 1.686,1.485 1.864,4.479 1.73,7.785 -1.367,-1.8 -1.794,-4.54 -1.73,-7.78 z"
         id="path227" />
      <path
         inkscape:connector-curvature="0"
         style="clip-rule:evenodd;fill-rule:evenodd"
         d="m 144.46,132.54 c 1.246,0.195 0.3,2.582 1.729,2.595 -0.98,2.78 -2.47,-0.84 -1.73,-2.6 z"
         id="path229" />
      <path
         inkscape:connector-curvature="0"
         style="clip-rule:evenodd;fill-rule:evenodd"
         d="m 162.62,134.27 c 1.191,-2.755 0.856,3.055 0.863,4.325 -1.18,2.75 -0.85,-3.06 -0.86,-4.33 z"
         id="path231" />
      <path
         inkscape:connector-curvature="0"
         style="clip-rule:evenodd;fill-rule:evenodd"
         d="m 166.08,135.14 c 0.566,-2.439 1.007,1.993 0.866,2.594 -0.4,1.74 -1.63,0.7 -0.87,-2.59 z"
         id="path233" />
      <path
         inkscape:connector-curvature="0"
         style="clip-rule:evenodd;fill-rule:evenodd"
         d="m 211.06,135.14 c 0.331,-1.646 1.103,0.553 0.867,1.73 -0.33,1.64 -1.1,-0.56 -0.87,-1.73 z"
         id="path235" />
      <path
         inkscape:connector-curvature="0"
         style="clip-rule:evenodd;fill-rule:evenodd"
         d="m 106.4,136.87 c 0.996,-2.801 0.979,2.323 0.865,3.46 -1,2.79 -0.98,-2.33 -0.86,-3.46 z"
         id="path237" />
      <path
         inkscape:connector-curvature="0"
         style="clip-rule:evenodd;fill-rule:evenodd"
         d="m 85.636,138.6 c 1.192,-2.755 0.856,3.055 0.865,4.324 -1.191,2.75 -0.856,-3.06 -0.865,-4.32 z"
         id="path239" />
      <path
         inkscape:connector-curvature="0"
         style="clip-rule:evenodd;fill-rule:evenodd"
         d="m 211.06,138.6 c 2.575,1.174 1.521,5.978 1.73,9.514 -1.38,-2.36 -1.78,-5.71 -1.73,-9.51 z"
         id="path241" />
      <path
         inkscape:connector-curvature="0"
         style="clip-rule:evenodd;fill-rule:evenodd"
         d="m 77.851,141.19 c 2.604,2.184 3.006,8.116 3.461,13.842 -1.859,-3.91 -2.987,-8.55 -3.461,-13.84 z"
         id="path243" />
      <path
         inkscape:connector-curvature="0"
         style="clip-rule:evenodd;fill-rule:evenodd"
         d="m 102.07,141.19 c 2.199,3.568 3.065,8.47 2.594,14.705 -2.02,-3.75 -2.18,-9.35 -2.59,-14.71 z"
         id="path245" />
      <path
         inkscape:connector-curvature="0"
         style="clip-rule:evenodd;fill-rule:evenodd"
         d="m 31.141,142.06 c 3.964,0.57 -0.697,5.23 0,0 z"
         id="path247" />
      <path
         inkscape:connector-curvature="0"
         style="clip-rule:evenodd;fill-rule:evenodd"
         d="m 94.286,142.92 c 2.875,3.181 2.594,9.517 2.596,15.569 0.109,2.141 -1.06,1.473 -0.865,0 0.158,-5.93 -1.708,-9.82 -1.731,-15.57 z"
         id="path249" />
      <path
         inkscape:connector-curvature="0"
         style="clip-rule:evenodd;fill-rule:evenodd"
         d="m 110.72,145.52 c 1.5,1.382 1.873,3.894 1.73,6.922 -1.5,-1.39 -1.87,-3.9 -1.73,-6.92 z"
         id="path251" />
      <path
         inkscape:connector-curvature="0"
         style="clip-rule:evenodd;fill-rule:evenodd"
         d="m 172.14,146.38 c 0.33,-1.647 1.102,0.551 0.866,1.729 -0.34,1.65 -1.11,-0.55 -0.87,-1.73 z"
         id="path253" />
      <path
         inkscape:connector-curvature="0"
         style="clip-rule:evenodd;fill-rule:evenodd"
         d="m 86.501,147.25 c 1.848,3.631 3.042,7.916 2.594,13.841 -2.721,-4.67 -2.039,-7.42 -2.594,-13.84 z"
         id="path255" />
      <path
         inkscape:connector-curvature="0"
         style="clip-rule:evenodd;fill-rule:evenodd"
         d="m 175.6,150.71 c 3.96,0.57 -0.7,5.23 0,0 z"
         id="path257" />
      <path
         inkscape:connector-curvature="0"
         style="clip-rule:evenodd;fill-rule:evenodd"
         d="m 91.691,152.44 c 1.383,2.364 1.781,5.715 1.73,9.514 -2.049,-1.7 -1.759,-5.74 -1.73,-9.51 z"
         id="path259" />
      <path
         inkscape:connector-curvature="0"
         style="clip-rule:evenodd;fill-rule:evenodd"
         d="m 76.986,155.03 c 1.51,0.796 1.908,2.704 1.729,5.188 -1.509,-0.8 -1.907,-2.7 -1.729,-5.19 z"
         id="path261" />
      <path
         inkscape:connector-curvature="0"
         style="clip-rule:evenodd;fill-rule:evenodd"
         d="m 104.67,159.36 c 2.854,3.051 2.455,8.3 1.73,11.244 -1.55,-2.78 -0.81,-7.84 -1.73,-11.24 z"
         id="path263" />
      <path
         inkscape:connector-curvature="0"
         style="clip-rule:evenodd;fill-rule:evenodd"
         d="m 89.096,162.82 c 0.563,-2.438 1.004,1.993 0.865,2.597 -0.4,1.73 -1.625,0.69 -0.865,-2.6 z"
         id="path265" />
      <path
         inkscape:connector-curvature="0"
         style="clip-rule:evenodd;fill-rule:evenodd"
         d="m 101.21,165.41 c 0.33,-1.647 1.101,0.551 0.865,1.73 -0.34,1.65 -1.11,-0.55 -0.87,-1.73 z"
         id="path267" />
      <path
         inkscape:connector-curvature="0"
         style="clip-rule:evenodd;fill-rule:evenodd"
         d="m 76.121,168.87 c 4.429,1.06 -0.155,13.431 0.865,2.598 -0.458,-0.7 -0.903,-1.41 -0.865,-2.6 z"
         id="path269" />
      <path
         inkscape:connector-curvature="0"
         style="clip-rule:evenodd;fill-rule:evenodd"
         d="m 74.391,172.33 c 2.906,-0.889 1.346,2.689 1.73,4.325 -1.892,-0.13 -1.857,-2.18 -1.73,-4.33 z"
         id="path271" />
      <path
         inkscape:connector-curvature="0"
         style="clip-rule:evenodd;fill-rule:evenodd"
         d="m 32.005,150.71 c 0.993,-0.309 2.192,-1.522 0.865,-1.73 1.217,-2.262 2.286,2.822 2.596,4.325 4.29,0.61 4.318,5.484 7.784,6.919 -1.743,-23.055 -9.286,-47.805 -12.975,-71.795 -0.808,0.634 -1.311,1.573 -1.73,2.595 -2.095,-0.501 -1.923,-3.266 -2.594,-5.191 -3.143,0.553 2.007,4.044 -0.865,4.327 -3.001,0.115 -1.385,-4.382 -4.325,-4.327 0.634,-1.54 1.573,-0.123 2.595,0 1.009,-3.892 -4.833,-0.932 -3.46,-5.189 -3.717,0.103 1.454,3.689 -2.595,3.461 -2.577,2.657 -1.11,-2.557 -2.595,-3.461 -2.427,1.382 1.215,3.894 0,6.919 C 11.89,85.189 11.103,80.784 11.245,75.452 2.853,70.005 3.154,55.864 0,45.178 c 9.052,-3.376 20.832,-4.365 32.005,-6.056 8.552,-1.292 17.983,-1.75 23.356,-6.919 24.688,-3.503 48.657,-4.951 72.662,-10.38 1.36,0.656 1.292,2.745 3.459,2.594 -3.401,1.212 -7.632,1.595 -11.246,2.595 0.214,-0.939 1.721,-0.586 1.73,-1.73 -7.902,0.749 -15.478,1.823 -22.491,3.46 0.108,1.911 3.67,0.368 5.19,0.864 -2.708,1.948 -12.972,0.02 -15.57,3.461 2.083,0.541 5.817,0.714 10.38,0.866 2.308,1.533 -5.067,0.629 -6.919,0.864 1.448,4.12 5.326,1.478 8.65,2.594 -0.214,0.939 -1.72,0.588 -1.73,1.73 0.193,2.69 4.306,1.462 6.92,1.73 -1.738,1.763 0.382,1.695 0.865,3.458 8.37,3.166 15.101,7.969 22.49,12.111 2.957,0.651 1.1,-3.514 4.326,-2.595 5.575,-0.385 6.312,4.07 10.38,5.191 28.38,-4.202 54.524,-10.641 82.177,-15.571 0.393,-4.142 -5.885,-1.613 -4.325,-6.919 6.839,-2.099 10.147,7.598 18.163,4.325 -2.221,-3.779 -6.786,-3.436 -10.377,-5.191 -3.238,-1.58 -6.153,-4.5 -9.517,-6.055 -0.951,-0.438 -2.504,0.436 -3.461,0 -8.71,-3.957 -17.059,-10.959 -27.68,-12.108 1.716,-1.996 -0.218,-0.961 -0.864,-2.597 -1.204,1.254 -11.078,1.58 -6.055,3.461 -0.351,2.151 -3.962,0.659 -2.595,-1.73 -2.073,0.523 -3.946,1.245 -6.922,0.866 -0.318,1.47 0.676,1.63 1.73,1.728 -10.104,-0.811 -26.342,1.786 -38.926,5.191 -0.72,-1.683 -0.173,-2.855 -4.325,-1.73 5.383,-4.458 17.966,-4.014 26.816,-6.055 1.124,-0.258 4.618,-0.406 4.325,-2.595 6.658,0.774 19.115,0.173 22.49,-5.191 6.554,0.702 12.187,-2.932 18.166,-3.458 2.923,-0.258 6.296,1.009 9.514,0.864 12.8,-0.579 26.243,-7.475 36.332,-6.055 2.933,0.413 7.586,3.907 12.975,6.055 4.561,1.818 10.216,2.702 13.842,4.325 1.012,0.454 1.561,2.184 2.594,2.597 12.051,4.811 23.186,7.368 34.6,13.839 -0.248,9.268 -1.367,17.663 -0.864,27.68 -2.444,-0.714 -2.241,1.219 -4.324,0.866 -1.355,24.572 -2.472,49.034 -4.325,70.931 0.386,4.327 3.997,4.623 1.73,9.517 -76.999,19.018 -156.54,35.493 -232.69,55.359 -16.039,-12.219 -31.908,-24.607 -45.847,-38.924 0.775,-12.008 -3.43,-27.78 -6.919,-41.521 -1.046,-4.122 -5.367,-10.658 -1.73,-12.977 -2.426,-1.034 -3.798,-3.123 -3.46,-6.919 1.519,2.148 1.583,1.415 2.595,-0.864 3.158,5.492 3.901,13.398 3.46,22.489 0.13,1.6 2.929,0.53 3.46,1.73 -3.194,1.883 0.611,8.279 1.73,11.246 2.151,-0.13 0.253,-2.93 0,-3.461 1.409,-1.908 1.917,4.368 2.594,6.056 0.63,3.789 -1.719,-0.698 -1.73,1.73 1.981,6.66 2.711,14.58 5.192,20.75 z M 185.985,14.03 c -4.447,1.029 -11.156,-0.2 -13.841,2.595 4.06,-1.413 11.36,0.406 13.84,-2.595 z m 108.99,8.65 c -6.181,-2.381 -12.848,-7.242 -19.896,-9.514 -1.954,-0.631 -4.232,-0.148 -6.056,-0.867 -7.255,-2.859 -14.137,-8.727 -21.625,-9.514 -4.604,-0.486 -10.778,0.827 -15.571,1.728 -5.973,1.125 -12.278,2.407 -16.436,4.325 5.465,-0.318 14.262,-1.865 18.166,-0.864 -4.82,2.249 -10.578,2.569 -16.436,1.73 0.226,5.129 5.925,0.015 7.786,2.594 -1.055,0.098 -2.049,0.258 -1.73,1.73 14.367,5.242 27.259,11.956 41.521,17.3 1.303,1.292 0.258,4.931 3.461,4.325 12.396,-3.173 26.343,-4.795 38.927,-7.783 -2.22,-4.521 -7.76,-3.517 -12.1,-5.19 z m -47.57,4.325 C 232.959,20.917 219.811,13.489 205.018,8.838 204.97,8.313 204.89,7.817 204.154,7.974 c -2.566,2.91 -11.054,-0.095 -12.975,3.461 12.984,5.905 27.449,12.762 40.654,19.03 4.522,2.146 10.138,5.812 13.841,6.056 4.601,0.3 9.459,-4.21 14.705,-2.595 -2.48,-4.677 -8.76,-5.143 -12.98,-6.921 z m -51.04,-11.244 c -2.722,0.078 -5.802,-3.937 -7.783,-1.73 2.73,-0.091 5.91,3.821 7.78,1.73 z M 118.515,52.09 C 108.485,46.581 96.898,40.681 87.374,35.654 c -0.51,-0.268 -1.453,-2.472 -1.73,-2.594 -8.577,-3.794 -16.578,0.694 -25.951,0.866 5.413,5.545 13.954,10.426 22.491,15.569 3.419,2.061 7.907,4.518 12.109,6.919 4.123,2.356 9.078,6.441 12.11,6.922 7.289,1.152 14.245,-3.884 22.491,-4.325 -2.79,-2.756 -6.45,-4.759 -10.38,-6.921 z m 5.19,40.657 c 9.683,-2.808 19.929,-5.823 29.411,-7.786 29.852,-6.184 63.837,-12.484 89.095,-18.167 19.013,-4.274 41.619,-9.215 56.227,-12.11 3.298,-0.651 8.685,0.476 10.38,-3.458 -3.433,-0.661 -14.76,7.242 -15.568,-2.595 2.427,-0.746 1.84,-4.505 3.458,-6.055 -1.017,-1.29 -2.171,-2.441 -3.458,-3.461 0.776,-1.818 1.345,-3.846 2.594,-5.189 -6.198,-0.143 -11.913,0.195 -15.569,2.595 1.258,0.473 4.471,-1.012 4.325,0.864 -0.591,1.715 -5.153,-0.538 -4.325,2.595 1.258,0.473 4.471,-1.009 4.325,0.866 -5.003,-0.368 -9.792,4.02 -13.841,1.73 3.17,0.286 4.806,-0.961 6.919,-1.73 0.326,-3.388 -4.45,-2.208 -0.864,-4.325 -14.584,1.603 -23.695,4.583 -37.195,6.055 -0.664,8.289 0.964,7.355 0,14.705 -1.733,0.353 -6.416,2.141 -7.786,0 -0.232,-3.476 0.371,-7.686 -0.864,-12.11 -6.303,0.331 -12.113,1.152 -16.436,3.46 1.521,0.496 5.082,-1.046 5.189,0.864 -1.618,-0.048 -1.831,0.666 -0.864,1.73 -6.456,1.265 -5.895,-0.889 -10.38,-2.595 -2.424,0.458 -4.498,1.27 -6.92,1.728 -4.314,1.46 3.729,0.514 5.189,0 -0.258,1.701 1.169,1.716 1.73,2.597 -3.584,0.516 -6.712,1.43 -2.595,-0.867 -4.943,0.163 -6.466,6.298 -12.975,3.461 3.058,0.463 4.455,-0.733 5.188,-2.594 -7.402,1.535 -14.246,3.629 -22.49,4.325 -0.136,1.017 0.15,2.455 -0.864,2.595 -5.587,-1.06 -13.4,4.202 -15.569,0.864 -3.116,-0.519 -2.55,2.642 -5.191,2.597 -0.048,-1.107 -1.109,-1.2 -0.865,-2.597 1.609,-0.476 7.852,-0.706 6.056,-1.728 -4.352,-0.604 -6.03,1.468 -10.381,0.864 -1.827,3.954 -0.541,9.128 -0.865,13.841 2.215,0.937 4.124,-2.629 5.19,0 -6.185,-0.13 -7.487,4.623 -14.706,3.458 3.317,-4.638 0.778,-9.196 0,-14.705 -13.193,2.667 -26.904,4.813 -38.926,8.65 0.671,0.195 1.707,0.025 1.73,0.866 -1.599,-0.385 -12.122,3.899 -8.65,0 -2.448,-0.906 -5.935,1.428 -6.055,0 4.108,-1.946 10.111,-2 14.705,-3.461 -1.089,-5.254 -8.259,-4.427 -10.38,-8.649 2.602,0.872 1.533,-1.928 1.73,-3.461 -7.37,-0.496 -10.044,-1.297 -16.436,-3.458 -2.001,-6.363 -8.424,-8.299 -15.57,-9.516 -0.225,-3.812 -5.106,-2.968 -6.92,-5.189 -3.604,2.274 -12.603,0.666 -12.975,1.728 1.018,0.135 2.456,-0.148 2.594,0.866 -3.259,-0.666 -4.134,1.054 -6.919,0.864 -0.004,-0.867 0.7,-1.029 0.864,-1.73 -7.894,1.86 -21.948,2.85 -31.141,6.055 4.087,-0.408 1.611,1.079 0.865,2.597 6.522,1.838 7.938,8.785 16.436,8.65 -1.397,3.186 3.944,4.245 7.786,6.919 6.654,4.635 13.383,9.714 19.03,13.841 10.617,-0.058 20.53,-5.415 29.41,-4.325 -3.485,1.415 -8.295,1.508 -11.246,3.458 4.16,0.366 -1.031,0.313 0,2.597 8.303,0.904 3.649,7.305 3.461,11.244 2.308,1.765 1.921,2.188 2.594,4.325 -2.979,1.633 -2.585,6.642 -6.055,7.786 18.101,-3.292 38.052,-9.178 55.372,-10.38 z m 73.52,-41.521 c -4.896,0.581 -9.52,1.44 -12.978,3.458 5.36,-0.127 9.48,-1.487 12.98,-3.458 z m -192.9,-1.73 c 2.721,5.507 13.3,6.296 7.785,12.975 4.905,1.948 1.937,7.733 -1.729,9.516 12.382,6.937 23.615,19.634 35.465,24.219 -3.808,-3.771 0.599,-10.806 -2.596,-15.569 2.56,-3.23 6.58,2.066 7.786,0 C 32.577,73.144 22.708,57.064 4.325,49.496 Z m 237.02,-11.244 c 0.263,-2.284 -1.806,-2.231 -3.461,-2.597 -0.26,2.281 1.8,2.231 3.46,2.597 z M 58.825,37.385 c -3.496,-3.042 -2.039,2.782 0,0 z m 171.28,5.192 1.728,0 0,-1.73 -1.728,0 0,1.73 z m -162.63,0 c -3.496,-3.043 -2.039,2.782 0,0 z m 105.53,13.838 c -5.54,-0.996 -1.9,2.643 0,0 z m 132.35,0 c -3.306,-0.421 -2.707,3.06 -4.325,4.325 -0.197,-1.533 0.872,-4.33 -1.73,-3.458 -2.595,4.297 -9.2,-1.077 -12.11,5.189 0.158,-1.886 -0.709,-2.752 -2.595,-2.594 -2.321,0.851 -0.898,5.444 -2.597,6.919 l 0,-5.188 c -3.349,3.591 -4.828,-1.035 -7.783,3.458 -1.242,-3.584 -3.208,1.542 -6.056,-1.728 -0.112,3.06 -5.469,0.874 -5.191,4.325 l 0,-2.597 c -4.415,1.435 -6.892,2.459 -11.244,2.597 -0.195,9.153 -1.199,16.358 -0.866,27.68 1.295,0.148 3.193,-0.308 3.461,0.864 -0.131,5.233 -0.804,7.951 -3.461,12.11 -0.278,11.254 -0.383,22.684 -1.729,32.871 -3.29,1.272 -0.17,-3.866 -3.461,-2.594 -0.095,2.907 -1.73,4.575 0.864,6.055 1.78,0.398 1.671,-2.604 5.191,-2.597 1.981,-10.128 -0.438,-24.657 1.73,-34.6 3.358,8.462 1.05,22.594 1.73,33.735 8.036,-3.228 14.798,-0.922 22.488,-6.055 7.916,0.513 13.488,-3.536 23.357,-3.459 0.869,-20.638 4.002,-41.716 3.459,-64.012 -1.615,3.286 -1.097,8.705 -3.459,11.244 1.37,-7.591 2.84,-15.051 4.34,-22.494 z m -173,5.192 4.325,0 c -0.479,-1.541 -0.445,-3.594 -1.73,-4.325 -0.226,1.345 -1.897,0.599 -2.595,0 -0.01,1.44 -0.01,2.882 -0.01,4.325 z m 29.41,-2.595 c 2.81,-0.075 5.319,-0.448 6.919,-1.73 -2.94,-0.06 -6.04,-0.271 -6.92,1.73 z M 96.887,60.74 c -1.152,0.13 -2.611,-3.516 -3.46,-0.864 1.149,-0.128 3.218,2.91 3.46,0.864 z m 26.818,2.597 1.729,0 0,-1.73 -1.729,0 0,1.73 z m -20.76,2.595 c 1.221,-2.837 -5.747,-4.149 -3.461,-2.594 1.761,0.252 1.691,2.338 3.461,2.594 z m 9.51,0 1.729,0 0,-1.73 -1.729,0 0,1.73 z m 112.45,11.244 c 0.128,-2.146 0.16,-4.197 -1.73,-4.325 -0.791,2.905 -1.607,0.428 -4.325,0.866 -0.147,1.295 0.308,3.19 -0.864,3.458 -1.489,-0.266 1.122,-3.002 -2.597,-2.594 0.351,5.755 -2.93,-0.774 -4.325,1.73 -0.29,3.746 0.989,9.061 -1.728,10.38 -0.554,-3.195 1.119,-8.617 -0.866,-10.38 -1.02,3.588 -1.879,1.956 -4.325,0.864 -1.705,0.601 0.213,4.828 -1.73,5.191 0.716,-2.444 -1.22,-2.241 -0.864,-4.325 -2.086,-0.356 -1.881,1.58 -4.324,0.864 -0.494,2.8 0.26,4.353 1.728,5.191 -2.198,3.651 -2.577,10.14 -2.595,14.705 -0.06,16.916 4.605,37.8 2.595,55.359 7.551,-0.328 10.488,-0.901 12.978,-5.188 1.465,4.393 10.876,1.508 11.244,-4.325 0.383,1.636 -1.178,5.214 1.73,4.325 2.349,0.618 -0.619,-4.08 1.73,-3.461 1.979,4.475 3.343,0.05 8.649,1.73 3.408,-17.42 -1.668,-48.909 -0.864,-74.392 -1.145,-0.01 -0.791,-1.515 -1.73,-1.73 -3.15,3.917 -6.51,-0.956 -7.8,6.071 z m -169.54,5.191 c 1.751,2.021 8.691,-1.237 6.055,-3.461 -1.114,2.059 -5.617,0.727 -6.055,3.461 z m 136.67,-0.866 c 3.258,19.786 1.452,45.796 3.461,64.878 0.133,1.257 0.165,8.054 2.594,6.92 -0.618,-24.137 -3.23,-46.505 -3.461,-73.526 -0.189,-0.676 -0.724,-1.007 -1.728,-0.867 -0.04,1.109 -1.1,1.202 -0.86,2.597 z m 48.44,-0.864 c -1.252,2.166 -2.093,3.396 -0.863,6.055 4.495,0.458 6.932,-1.142 10.38,-1.73 -0.771,-2.69 -0.889,-6.031 -4.325,-6.056 1.44,3.962 -4.2,2.735 -5.19,1.731 z m -75.25,6.919 c -0.21,-1.52 -1.49,-1.971 -3.461,-1.73 -2.396,1.846 1.598,4.713 -1.73,5.191 l 0,-4.325 c -3.198,0.551 -7.092,0.406 -7.786,3.461 -0.788,-3.288 -3.476,-0.633 -6.056,-0.866 -0.526,2.068 1.086,6.276 -0.865,6.919 -0.964,-3.829 1.264,-5.477 -2.594,-6.053 -0.515,1.791 1.069,5.682 -0.865,6.053 -1.341,-0.206 0.513,-3.216 -1.73,-4.325 -1.7,4.275 0.912,9.449 0,15.571 2.166,-0.107 2.708,-1.649 3.461,0.864 l 0,4.325 c -1.107,-0.048 -1.198,-1.107 -2.596,-0.864 0.412,4.202 -1.534,10.761 2.596,11.244 -3.135,13.786 0.761,30.763 0,44.982 5.445,-2.652 13.538,-2.071 21.627,-4.325 3.927,-1.095 11.817,-6.667 13.839,-3.461 1.54,-24.334 -2.985,-50.734 -3.461,-76.986 -4.81,0.093 -9.12,0.684 -10.38,4.325 z m -110.72,9.516 c 0.348,-4.097 -1.544,-5.953 -0.865,-10.38 -2.493,-1.317 -2.706,0.028 -6.055,-0.866 -0.635,6.691 2.94,9.17 6.92,11.246 z m 124.56,2.595 c 3.676,-1.804 9.551,-1.405 12.975,-3.461 -2.905,0.889 -1.345,-2.69 -1.73,-4.325 -4.207,1.327 -3.256,-2.509 -6.056,-2.594 -2.03,5.021 -5.67,3.062 -5.19,10.38 z m -47.58,0.87 c -1.301,-1.871 -0.963,-5.382 -3.459,-6.055 0.291,6.34 3.163,10.1 7.785,12.108 -0.436,14.031 3.295,26.317 1.73,40.657 -1.36,0.082 -2.999,-0.115 -2.596,1.73 1.294,0.147 3.193,-0.311 3.46,0.864 0.549,8.309 -1.867,17.174 2.595,18.166 0.415,-25.434 -2.609,-51.762 -3.459,-75.256 -0.183,-0.972 -0.96,-1.347 -1.73,-1.73 0.27,3.174 -0.56,8.022 -4.31,9.516 z m -22.49,-1.734 c -0.158,-4.089 -1.38,-0.183 -3.46,0 -2.806,0.245 -6.648,-0.226 -7.784,2.595 -1.765,-0.483 -1.697,-2.603 -3.461,-0.864 -0.526,2.066 1.087,6.275 -0.864,6.919 -0.267,-2.904 1.155,-7.497 -2.596,-6.919 -2.408,-0.391 0.679,4.713 -1.73,4.325 -2.294,0.275 0.811,-4.846 -2.594,-3.461 -2.725,-0.419 -0.647,3.967 -2.596,4.324 0.242,-1.971 -0.208,-3.25 -1.729,-3.461 -5.131,3.188 -9.117,2.625 -18.166,4.325 0.174,5.036 3.279,11.692 0.865,16.436 0.001,-5.479 -0.198,-10.758 -3.46,-12.975 1.71,11.265 2.985,22.965 6.919,32.005 0.346,-5.552 -3.159,-11.808 -1.729,-15.569 1.913,4.43 1.928,10.759 4.325,14.705 1.948,-0.864 -1.871,-4.716 0.865,-6.055 1.362,5.269 0.243,13.02 4.325,15.571 -0.389,-4.247 -3.125,-10.688 -0.865,-14.705 -0.04,5.92 4.277,14.35 0.865,18.163 -0.083,-1.357 0.115,-2.997 -1.73,-2.594 0.173,3.037 3.358,7.548 0.865,10.38 -1.429,-0.013 -0.484,-2.399 -1.73,-2.595 -2.254,2.174 3.68,14.052 -0.864,10.381 l 0,6.919 c -4.319,-1.367 -0.597,3.152 -0.865,6.919 9.631,-2.073 16.626,-1.908 23.355,-6.053 3.626,1.245 9.158,0.107 12.11,-3.461 2.946,3.589 10.08,-1.295 14.705,-1.73 -0.527,-21.845 -3.516,-41.754 -4.325,-60.551 -0.23,-5.337 2.263,-12.356 -2.596,-16.436 -0.82,2.806 -5.13,-0.52 -6.05,3.472 z m -57.954,68.334 c 6.868,4.087 11.508,10.402 18.165,14.705 -3.604,-25.519 -8.648,-49.598 -12.975,-74.393 -5.624,-3.573 -11.627,-9.058 -17.301,-11.246 0.522,23.716 9.283,46.646 12.111,70.936 z m 3.46,-64.01 c 0.397,-4.175 -5.957,-6.116 -7.786,-5.191 2.264,2.061 4.415,4.241 7.786,5.191 z m 66.604,8.65 c 5.074,-0.117 8.61,-1.771 12.976,-2.595 -2.656,-3.688 -6.581,-6.107 -8.651,-10.38 0.31,4.26 -2.97,6.61 -4.33,12.98 z m -62.28,-6.92 c 2.294,-0.016 5.094,0.478 5.19,-1.73 -3.776,1.182 -1.841,-3.351 -5.19,-2.595 -1.622,1.64 0.514,1.56 0,4.32 z m -20.76,11.24 c 1.318,-1.317 -1.331,-4.986 -1.729,-2.595 0.054,-0.31 1.596,2.74 1.729,2.6 z m 200.68,-0.86 c 0.078,3.23 0.97,2.464 0,5.188 4.21,-0.4 9.091,-0.135 10.38,-3.46 -1.347,-0.226 -0.601,-1.896 0,-2.595 -4.32,-0.59 -6.69,0.8 -10.38,0.86 z m -199.82,4.33 c 0.046,-1.487 -0.666,-2.219 -1.73,-2.597 -0.047,1.49 0.666,2.22 1.73,2.6 z m 152.24,1.73 c -0.7,5.23 3.96,0.57 0,0 z m -9.52,4.32 c 0.437,3.604 -2.529,3.814 -1.728,7.784 5.424,-0.629 11.569,-0.536 13.839,-4.325 -4.791,0.348 -2.194,-2.214 -5.189,-4.325 -3.2,-0.62 -3.71,1.47 -6.92,0.86 z m -48.44,10.38 c 2.464,0.117 3.306,-4.383 0.865,-4.325 0.71,2.44 -1.22,2.24 -0.87,4.32 z m -68.334,3.46 c 0.13,-2.148 -0.447,-3.589 -1.73,-4.324 -0.129,2.14 0.446,3.59 1.73,4.32 z m 230.09,-4.32 c -6.94,-0.61 -3.23,3.1 0,0 z m -167.81,1.73 c -0.387,2.496 -3.722,2.046 -4.325,4.324 5.297,-0.338 -1.025,1.343 0.865,5.191 4.97,0.067 6.744,-3.061 12.11,-2.597 0.447,-5.655 -6.698,-8.271 -10.38,-6.919 0.57,0.01 1.15,0.01 1.73,0.01 z m 149.64,2.59 c 2.26,-0.335 4.746,-0.443 6.056,-1.73 -2.14,-0.05 -7.68,0.87 -6.06,1.73 z m -19.89,5.19 c 5.761,-2.025 13.107,-2.464 18.167,-5.191 -6.51,1.67 -15.07,1.66 -18.17,5.19 z m -183.38,13.84 c 0.03,-3.776 0.319,-7.815 -1.729,-9.514 -0.128,3.87 0.093,7.4 1.729,9.51 z m -4.324,-15.57 0,8.65 c 3.537,-1.06 4.783,-7.95 0,-8.65 z m 104.67,20.76 c 25.852,-5.191 58.312,-12.421 82.176,-19.896 l -2.595,0 c -25.69,7.49 -54.61,11.73 -79.59,19.9 z m 16.43,-14.7 c 1.973,0.24 3.253,-0.208 3.461,-1.73 -1.61,0.12 -2.89,0.56 -3.46,1.73 z m -60.55,5.18 c 2.682,-0.085 4.133,1.06 6.056,1.73 0.72,-4.468 -1.503,-5.992 -3.46,-7.785 -2.35,0.54 -1.24,4.54 -2.6,6.06 z m 56.23,2.6 c -1.886,-0.158 -2.752,0.706 -2.595,2.594 2.281,-2.331 8.482,-0.746 10.381,-3.461 -1.48,-3.421 -5.494,-4.31 -8.65,-6.055 0.08,2.13 -3.16,6.02 0.87,6.92 z m -150.51,-0.86 c -1.265,-0.741 -6.509,-4.812 -5.19,-2.594 1.968,0.11 3.35,5.2 5.19,2.59 z m 14.705,13.84 c -2.74,-3.904 -8.347,-9.515 -12.111,-9.517 3.917,3.29 7.578,6.84 12.111,9.52 z m 22.491,-4.33 c -1.154,-1.442 0.314,-5.505 -2.596,-5.191 0.525,1.56 1.837,6.72 2.596,5.19 z m -5.192,-0.86 1.73,0 0,-3.459 -1.73,0 0,3.46 z m 101.21,0 c -7,2.2 5.72,-1.5 0,0 z m -32.01,6.05 c 0.079,-1.362 2.206,-0.676 1.73,-2.594 -1.78,-0.76 -3.88,2.24 -1.73,2.59 z m 2.6,0.87 c -1.257,0.473 -4.471,-1.012 -4.326,0.863 1.3,1.37 3.54,0.64 4.33,-0.86 z m -15.57,4.32 c 3.851,-0.186 7.87,-0.205 8.65,-3.461 -3.57,0.47 -7.59,0.49 -8.65,3.46 z m -12.11,1.73 c -0.91,0.048 -0.681,1.107 0.865,0.864 8.16,-2.67 5.43,-3.04 -0.87,-0.86 z m -42.389,8.65 c -0.363,-2.848 -4.513,-6.394 -6.055,-5.191 2.552,1.2 3.501,4 6.055,5.19 z"
         id="path273" />
      <path
         inkscape:connector-curvature="0"
         style="clip-rule:evenodd;fill-rule:evenodd"
         d="m 177.33,23.547 c 0.195,-1.245 2.582,-0.301 2.597,-1.728 3.032,1.831 14.372,-2.532 10.378,0.864 -3.235,-0.062 -5.978,0.363 -7.783,1.73 -1.03,-0.996 -3.07,-0.978 -5.2,-0.866 z"
         id="path275" />
      <path
         inkscape:connector-curvature="0"
         style="clip-rule:evenodd;fill-rule:evenodd"
         d="m 138.4,29.603 c 1.86,1.362 -3.06,3.228 -6.055,2.597 1.07,-1.821 5.22,-0.559 6.06,-2.597 z"
         id="path277" />
      <path
         inkscape:connector-curvature="0"
         style="clip-rule:evenodd;fill-rule:evenodd"
         d="m 272.48,39.119 c 2.5,0.348 -9.44,2.364 0,0 z"
         id="path279" />
      <path
         inkscape:connector-curvature="0"
         style="clip-rule:evenodd;fill-rule:evenodd"
         d="m 287.19,43.444 c -0.734,1.285 -2.785,1.252 -4.325,1.73 -1.98,-0.674 2.7,-1.818 4.33,-1.73 z"
         id="path281" />
      <path
         inkscape:connector-curvature="0"
         style="clip-rule:evenodd;fill-rule:evenodd"
         d="m 276.8,45.174 c -0.633,0.806 -1.572,1.31 -2.594,1.73 -2.17,-0.37 1.44,-1.862 2.59,-1.73 z"
         id="path283" />
      <path
         inkscape:connector-curvature="0"
         style="clip-rule:evenodd;fill-rule:evenodd"
         d="m 260.37,46.038 c -0.73,1.866 -3.793,1.397 -5.188,2.597 -1.793,-0.516 -5.685,1.067 -6.056,-0.866 4.91,0.576 7.87,-0.79 11.25,-1.731 z"
         id="path285" />
      <path
         inkscape:connector-curvature="0"
         style="clip-rule:evenodd;fill-rule:evenodd"
         d="m 270.75,46.905 c -4.37,1.685 -8.705,3.406 -13.842,4.325 2.96,-3.096 8.95,-3.161 13.84,-4.325 z"
         id="path287" />
      <path
         inkscape:connector-curvature="0"
         style="clip-rule:evenodd;fill-rule:evenodd"
         d="m 218.85,55.554 c -0.14,-1.014 -1.577,-0.731 -2.595,-0.866 4.005,-1.761 8.7,-1.946 12.111,0 -6.128,1.37 -12.52,2.477 -19.03,3.461 0.736,-2.434 2.457,-3.884 6.053,-3.461 -0.163,0.701 -0.866,0.864 -0.864,1.73 2.44,0.717 2.24,-1.219 4.32,-0.864 z"
         id="path289" />
      <path
         inkscape:connector-curvature="0"
         style="clip-rule:evenodd;fill-rule:evenodd"
         d="m 258.64,54.688 c 0.07,-0.08 -0.085,-0.834 0,-0.864 6.12,-2.041 -4.74,4.227 0,0.864 z"
         id="path291" />
      <path
         inkscape:connector-curvature="0"
         style="clip-rule:evenodd;fill-rule:evenodd"
         d="m 45.846,57.285 7.785,0 c -1.198,2.259 -7.34,-0.42 -8.65,1.73 -1.651,-0.744 0.934,-0.515 0.865,-1.73 z"
         id="path293" />
      <path
         inkscape:connector-curvature="0"
         style="clip-rule:evenodd;fill-rule:evenodd"
         d="m 182.52,58.149 c 6.501,-2.307 4.848,1.96 0,0.866 -1.07,-0.243 -0.39,-0.728 0,-0.866 z"
         id="path295" />
      <path
         inkscape:connector-curvature="0"
         style="clip-rule:evenodd;fill-rule:evenodd"
         d="m 69.201,58.149 c -3.963,4.109 -13.468,2.679 -18.165,6.055 1.452,-3.173 11.83,-4.883 18.165,-6.055 z"
         id="path297" />
      <path
         inkscape:connector-curvature="0"
         style="clip-rule:evenodd;fill-rule:evenodd"
         d="m 200.68,59.879 c 5.72,-1.503 -6.99,2.209 0,0 z"
         id="path299" />
      <path
         inkscape:connector-curvature="0"
         style="clip-rule:evenodd;fill-rule:evenodd"
         d="m 211.93,60.743 5.188,0 c -2.14,1.305 -11.24,2.592 -5.19,0 z"
         id="path301" />
      <path
         inkscape:connector-curvature="0"
         style="clip-rule:evenodd;fill-rule:evenodd"
         d="m 246.53,60.743 c -1.382,1.502 -3.892,1.873 -6.919,1.73 1.51,-1.367 4.61,-1.156 6.92,-1.73 z"
         id="path303" />
      <path
         inkscape:connector-curvature="0"
         style="clip-rule:evenodd;fill-rule:evenodd"
         d="m 237.88,62.474 c -3.027,2.74 -9.369,2.166 -12.111,5.191 1.967,-3.756 -6.828,-0.583 -6.919,1.73 -2.8,1.067 -0.661,-2.8 -3.461,-1.73 -0.461,-1.247 3.373,-2.111 0.866,-2.597 -0.618,-2.349 4.08,0.621 3.459,-1.728 3.22,5.78 11.88,-1.472 18.16,-0.866 z"
         id="path305" />
      <path
         inkscape:connector-curvature="0"
         style="clip-rule:evenodd;fill-rule:evenodd"
         d="m 164.35,64.204 c 0.069,-0.08 -0.086,-0.836 0,-0.864 6.13,-2.043 -4.74,4.227 0,0.864 z"
         id="path307" />
      <path
         inkscape:connector-curvature="0"
         style="clip-rule:evenodd;fill-rule:evenodd"
         d="m 128.89,66.798 c -0.626,1.015 -9.947,2.349 -14.707,2.597 4.09,-1.683 9.18,-2.353 14.71,-2.597 z"
         id="path309" />
      <path
         inkscape:connector-curvature="0"
         style="clip-rule:evenodd;fill-rule:evenodd"
         d="m 167.81,66.798 c -1.067,1.242 -2.976,1.641 -5.191,1.73 -1.89,-0.853 3.59,-1.517 5.19,-1.73 z"
         id="path311" />
      <path
         inkscape:connector-curvature="0"
         style="clip-rule:evenodd;fill-rule:evenodd"
         d="m 266.42,67.665 c 0.812,6.529 -3.423,22.688 -0.864,34.599 1.012,-0.138 0.729,-1.575 0.864,-2.594 3.814,1.292 -0.02,5.091 0.864,8.649 -0.656,-0.594 -2.742,-3.644 -2.595,0 -2.13,-12.812 -0.72,-29.561 1.74,-40.655 z"
         id="path313" />
      <path
         inkscape:connector-curvature="0"
         style="clip-rule:evenodd;fill-rule:evenodd"
         d="m 171.27,68.529 c -2.281,1.468 -4.936,2.562 -8.649,2.595 2.04,-1.706 5.46,-2.037 8.65,-2.595 z"
         id="path315" />
      <path
         inkscape:connector-curvature="0"
         style="clip-rule:evenodd;fill-rule:evenodd"
         d="m 208.47,68.529 c -1.042,2.62 -6.311,1.117 -10.381,2.595 -0.43,-1.328 6.99,-2.202 10.38,-2.595 z"
         id="path317" />
      <path
         inkscape:connector-curvature="0"
         style="clip-rule:evenodd;fill-rule:evenodd"
         d="m 159.16,71.124 c -0.733,1.287 -2.786,1.252 -4.326,1.73 -1.97,-0.671 2.7,-1.816 4.33,-1.73 z"
         id="path319" />
      <path
         inkscape:connector-curvature="0"
         style="clip-rule:evenodd;fill-rule:evenodd"
         d="m 274.21,77.179 c -3.877,-1.172 -1.207,-4.287 -0.866,-5.189 0.48,-1.265 0.27,2.154 0.87,5.189 z"
         id="path321" />
      <path
         inkscape:connector-curvature="0"
         style="clip-rule:evenodd;fill-rule:evenodd"
         d="m 75.256,76.315 c -0.195,1.245 -2.582,0.3 -2.594,1.73 -2.172,-0.37 0.83,-2.471 2.594,-1.73 z"
         id="path323" />
      <path
         inkscape:connector-curvature="0"
         style="clip-rule:evenodd;fill-rule:evenodd"
         d="m 96.882,91.02 c -0.73,1.866 -4.46,0.731 -5.19,2.594 -2.692,-1.918 3.411,-2.286 5.19,-2.594 z"
         id="path325" />
      <path
         inkscape:connector-curvature="0"
         style="clip-rule:evenodd;fill-rule:evenodd"
         d="m 113.32,91.02 c -0.635,0.806 -1.574,1.31 -2.596,1.73 -2.17,-0.37 1.44,-1.863 2.6,-1.73 z"
         id="path327" />
      <path
         inkscape:connector-curvature="0"
         style="clip-rule:evenodd;fill-rule:evenodd"
         d="m 79.581,95.345 c -0.61,-2.545 7.896,-1.491 0,0 z"
         id="path329" />
      <path
         inkscape:connector-curvature="0"
         style="clip-rule:evenodd;fill-rule:evenodd"
         d="m 95.151,95.345 c -1.678,0.343 7.229,-1.7 1.73,0 -2.383,0.738 -8.145,1.312 -1.73,0 z"
         id="path331" />
      <path
         inkscape:connector-curvature="0"
         style="clip-rule:evenodd;fill-rule:evenodd"
         d="m 291.51,110.05 c 1.23,-12.381 0,5.78 0,0 z"
         id="path333" />
      <path
         inkscape:connector-curvature="0"
         style="clip-rule:evenodd;fill-rule:evenodd"
         d="m 89.096,110.05 c 1.976,2.928 2.501,7.303 2.596,12.11 -1.78,-3.12 -1.627,-8.18 -2.596,-12.11 z"
         id="path335" />
      <path
         inkscape:connector-curvature="0"
         style="clip-rule:evenodd;fill-rule:evenodd"
         d="m 166.08,129.08 c 2.236,-10.932 -1.482,9.286 -0.861,1.73 0.09,-1.19 0.76,-1.23 0.86,-1.73 z"
         id="path337" />
      <path
         inkscape:connector-curvature="0"
         style="clip-rule:evenodd;fill-rule:evenodd"
         d="m 90.826,144.65 c -1.345,-4.135 -1.375,-9.584 -1.73,-14.705 1.587,3.315 1.172,8.633 2.596,12.108 -1.015,0.14 -0.731,1.58 -0.866,2.6 z"
         id="path339" />
      <path
         inkscape:connector-curvature="0"
         style="clip-rule:evenodd;fill-rule:evenodd"
         d="m 81.312,138.6 c 3.412,7.545 2.319,19.596 6.055,26.815 0.366,1.663 -0.593,3.123 -0.865,1.73 -1.793,-9.19 -5.599,-19.93 -5.19,-28.55 z"
         id="path341" />
      <path
         inkscape:connector-curvature="0"
         style="clip-rule:evenodd;fill-rule:evenodd"
         d="m 107.26,143.78 c -0.278,-1.924 2.462,7.057 1.729,11.247 -1.6,-2.72 -1.85,-6.8 -1.73,-11.25 z"
         id="path343" />
      <path
         inkscape:connector-curvature="0"
         style="clip-rule:evenodd;fill-rule:evenodd"
         d="m 93.422,164.55 c 1.285,0.733 1.251,2.784 1.729,4.324 -0.672,1.98 -1.817,-2.69 -1.729,-4.32 z"
         id="path345" />
    </g>
  </g>
</svg>
