<?xml version="1.0" encoding="UTF-8" standalone="no"?>
<!-- Created with Inkscape (http://www.inkscape.org/) -->

<svg
   xmlns:dc="http://purl.org/dc/elements/1.1/"
   xmlns:cc="http://creativecommons.org/ns#"
   xmlns:rdf="http://www.w3.org/1999/02/22-rdf-syntax-ns#"
   xmlns:svg="http://www.w3.org/2000/svg"
   xmlns="http://www.w3.org/2000/svg"
   xmlns:sodipodi="http://sodipodi.sourceforge.net/DTD/sodipodi-0.dtd"
   xmlns:inkscape="http://www.inkscape.org/namespaces/inkscape"
   width="62mm"
   height="88mm"
   viewBox="0 0 219.68504 311.81102"
   id="svg2"
   version="1.1"
   inkscape:version="0.91 r13725"
   sodipodi:docname="o_vial.svg">
  <defs
     id="defs4">
    <inkscape:perspective
       sodipodi:type="inkscape:persp3d"
       inkscape:vp_x="0 : 155.90551 : 1"
       inkscape:vp_y="0 : 1000 : 0"
       inkscape:vp_z="219.68504 : 155.90551 : 1"
       inkscape:persp3d-origin="109.84252 : 103.93701 : 1"
       id="perspective6315" />
    <clipPath
       clipPathUnits="userSpaceOnUse"
       id="clipPath8648">
      <path
         style="fill:#ff0000;fill-opacity:1;fill-rule:evenodd;stroke:none;stroke-width:1px;stroke-linecap:butt;stroke-linejoin:miter;stroke-opacity:1"
         d="m 48.7971,144.54832 -4.54568,-1.2627 -4.04062,0.50508 -4.79822,3.40927 -5.93465,4.29314 -2.0203,2.90419 0.12627,2.65165 2.65165,2.14658 -1.01015,1.76776 -3.283,1.26269 -3.40926,8.08123 6.31345,9.34391 10.35406,-0.75762 46.21448,3.91434 25.50635,-7.19733 9.47018,-5.05077 0.12627,-10.10152 -2.65165,-1.13642 0.88389,-15.15229 10.35406,-6.9448 3.28299,-3.91434 6.566,-7.82868 0.50507,-4.54569 -4.54568,-1.89404 -2.14658,1.01016 -4.16688,1.13642 -5.93464,-2.90419 -2.77792,-1.76777 -5.80838,2.39911 -2.90419,3.03046 -3.40926,4.9245 -7.07107,0.3788 -8.96511,5.80838 -2.90418,2.14657 -3.66181,0.12627 -5.55584,-0.3788 -17.29886,2.65165 z"
         id="path8650"
         inkscape:connector-curvature="0" />
    </clipPath>
    <mask
       maskUnits="userSpaceOnUse"
       id="mask8666">
      <rect
         rx="1.7260212"
         ry="2.8714814"
         y="98.924339"
         x="22.885082"
         height="109.83415"
         width="100.10923"
         id="rect8668"
         style="opacity:1;fill:#ffffff;fill-opacity:1;stroke:none;stroke-width:2.01114893;stroke-linecap:round;stroke-linejoin:bevel;stroke-miterlimit:4;stroke-dasharray:none;stroke-dashoffset:0;stroke-opacity:1" />
    </mask>
    <clipPath
       clipPathUnits="userSpaceOnUse"
       id="clipPath9647">
      <path
         style="fill:#ff0000;fill-opacity:1;fill-rule:evenodd;stroke:none;stroke-width:1px;stroke-linecap:butt;stroke-linejoin:miter;stroke-opacity:1"
         d="m 24.29467,289.85466 12.14286,-9.28572 41.42857,-15.71428 40,-5 20,5 2.85715,7.14285 9.28571,6.42858 10,1.42857 -3.57143,13.57143 -15.71428,10 -27.85715,5.71428 -74.28571,1.42857 z"
         id="path9649"
         inkscape:connector-curvature="0" />
    </clipPath>
  </defs>
  <sodipodi:namedview
     id="base"
     pagecolor="#ffffff"
     bordercolor="#666666"
     borderopacity="1.0"
     inkscape:pageopacity="0.0"
     inkscape:pageshadow="2"
     inkscape:zoom="1.4"
     inkscape:cx="217.44615"
     inkscape:cy="152.48587"
     inkscape:document-units="px"
     inkscape:current-layer="layer1"
     showgrid="false"
     inkscape:window-width="1920"
     inkscape:window-height="1026"
     inkscape:window-x="-2"
     inkscape:window-y="31"
     inkscape:window-maximized="1" />
  <metadata
     id="metadata7">
    <rdf:RDF>
      <cc:Work
         rdf:about="">
        <dc:format>image/svg+xml</dc:format>
        <dc:type
           rdf:resource="http://purl.org/dc/dcmitype/StillImage" />
        <dc:title></dc:title>
      </cc:Work>
    </rdf:RDF>
  </metadata>
  <g
     inkscape:label="Layer 1"
     inkscape:groupmode="layer"
     id="layer1"
     transform="translate(0,-740.55118)">
    <text
       xml:space="preserve"
       style="font-style:normal;font-weight:normal;font-size:22.05662727px;line-height:125%;font-family:Sans;letter-spacing:0px;word-spacing:0px;fill:#000000;fill-opacity:1;stroke:none;stroke-width:1px;stroke-linecap:butt;stroke-linejoin:miter;stroke-opacity:1"
       x="103.71159"
       y="766.04486"
       id="text6305"
       sodipodi:linespacing="125%"><tspan
         sodipodi:role="line"
         id="tspan6307"
         x="103.71159"
         y="766.04486"
         style="font-style:normal;font-variant:normal;font-weight:normal;font-stretch:normal;font-size:15px;font-family:'Ubuntu Condensed';-inkscape-font-specification:'Ubuntu Condensed, '">A C1 C2 D T</tspan></text>
    <text
       xml:space="preserve"
       style="font-style:normal;font-weight:normal;font-size:24.13778114px;line-height:125%;font-family:Sans;letter-spacing:0px;word-spacing:0px;fill:#000000;fill-opacity:1;stroke:none;stroke-width:1px;stroke-linecap:butt;stroke-linejoin:miter;stroke-opacity:1"
       x="106.83099"
       y="981.45178"
       id="text6309"
       sodipodi:linespacing="125%"><tspan
         sodipodi:role="line"
         id="tspan6311"
         x="106.83099"
         y="981.45178"
         style="font-style:normal;font-variant:normal;font-weight:500;font-stretch:normal;font-size:22.5px;font-family:Essays1743;-inkscape-font-specification:'Essays1743 Medium';text-align:center;text-anchor:middle">Vial of an</tspan><tspan
         sodipodi:role="line"
         x="106.83099"
         y="1009.5768"
         style="font-style:normal;font-variant:normal;font-weight:500;font-stretch:normal;font-size:22.5px;font-family:Essays1743;-inkscape-font-specification:'Essays1743 Medium';text-align:center;text-anchor:middle"
         id="tspan6259">unknown liquid</tspan></text>
    <text
       xml:space="preserve"
       style="font-style:normal;font-weight:normal;font-size:19.57834816px;line-height:125%;font-family:Sans;letter-spacing:0px;word-spacing:0px;fill:#000000;fill-opacity:1;stroke:none;stroke-width:1px;stroke-linecap:butt;stroke-linejoin:miter;stroke-opacity:1"
       x="14.324148"
       y="763.8302"
       id="text6317"
       sodipodi:linespacing="125%"><tspan
         sodipodi:role="line"
         id="tspan6319"
         x="14.324148"
         y="763.8302"
         style="font-style:normal;font-variant:normal;font-weight:500;font-stretch:normal;font-family:Essays1743;-inkscape-font-specification:'Essays1743 Medium'">G</tspan></text>
    <path
       inkscape:connector-curvature="0"
       id="path2525"
       style="fill:#000000"
       d="m 138.68119,950.35171 c -0.78479,-1.6817 -2.30533,-10.60172 -2.30533,-13.51667 0,-2.55057 -2.72085,-3.40544 -8.05324,-2.52955 -2.31513,0.37838 -5.86142,0.67968 -7.88016,0.67268 -2.01803,-0.014 -4.51816,0.18919 -5.55451,0.44845 l -1.8842,0.47648 1.99701,1.31032 c 3.83568,2.51555 3.88613,4.54762 0.16117,6.48157 -2.20583,1.14216 -4.86081,1.42244 -12.14817,1.2893 -2.88692,-0.0491 -3.944989,-0.42043 -5.430489,-1.90593 -2.75378,-2.75379 -2.38941,-4.16221 1.60462,-6.18726 1.898919,-0.96697 3.713749,-2.15117 4.029069,-2.64167 0.31532,-0.49049 0.73574,-6.69877 0.92494,-13.79694 0.25926,-9.44554 0.58859,-12.98411 1.22764,-13.19433 0.48138,-0.16116 0.87588,0.21022 0.87588,0.81983 0,0.60962 0.31532,1.10712 0.70071,1.10712 0.80301,0 0.97398,-3.47551 0.17518,-3.55258 -0.28939,-0.035 -1.0777,-0.16117 -1.75177,-0.2943 -0.67409,-0.12613 -1.23465,0.13313 -1.24866,0.58158 -0.028,0.88991 -2.08111,-1.55557 -2.08111,-2.47349 0,-0.30832 0.44145,-0.56758 0.988,-0.56758 0.74976,0 0.8899,-0.6937 0.58159,-2.96399 -0.51152,-3.84689 -1.22624,-4.47052 -5.815869,-5.08714 -2.09513,-0.28029 -6.16624,-1.25427 -9.039131,-2.15819 -3.587627,-1.12814 -5.381439,-1.40842 -5.703765,-0.88989 -0.259262,0.42043 -0.679687,2.69072 -0.931942,5.0521 -0.252255,2.36139 -1.065076,8.55564 -1.800819,13.7549 -0.742751,5.20626 -1.513529,11.03615 -1.723741,12.96309 -0.525531,4.8489 -1.709728,13.27141 -2.508534,17.812 -0.371375,2.08812 -0.67268,4.33739 -0.67268,4.99606 0,1.24726 0.28729,1.31032 11.736855,2.49452 2.410436,0.25225 4.379427,0.76377 4.379427,1.14215 0,0.44145 -1.976001,0.49751 -5.430489,0.16817 -2.985013,-0.2943 -7.476551,-0.58159 -9.985085,-0.64465 l -4.554601,-0.11211 0.133134,-2.7678 c 0.07007,-1.52053 0.637644,-6.39047 1.261274,-10.82595 0.630637,-4.42847 1.429444,-10.26537 1.779799,-12.96309 0.343347,-2.69773 1.121132,-8.37346 1.716734,-12.61275 0.595601,-4.23928 1.394409,-10.4966 1.772791,-13.90904 0.385389,-3.40544 0.882892,-6.50258 1.114125,-6.87395 0.231234,-0.37138 -0.09109,-1.24026 -0.714722,-1.93396 -0.630637,-0.68669 -0.945956,-1.75877 -0.707715,-2.3754 0.308312,-0.80581 -0.09109,-1.25426 -1.387401,-1.57659 -3.104136,-0.78479 -2.109131,-2.3754 2.578605,-4.14819 3.650687,-1.38039 3.734772,-1.80782 1.303316,-6.32038 -0.805814,-1.49251 -1.135147,-3.93098 -1.135147,-8.4085 -0.007,-5.65471 0.203206,-6.68475 2.032053,-9.98508 1.891912,-3.40545 7.07014,-8.75886 12.283409,-12.68282 5.08012,-3.82586 6.663729,-12.24837 4.89094,-26.06633 -0.51853,-4.02907 -0.95297,-9.9991 -0.96698,-13.2644 -0.028,-5.80887 0.021,-5.97003 1.89891,-6.87395 1.681709,-0.80581 1.926949,-1.32433 1.926949,-4.08512 l 0,-3.16019 -5.248299,0.19619 c -5.4515,0.20321 -7.203273,-0.48349 -6.425484,-2.50853 0.336341,-0.8899 1.667685,-1.10011 6.965034,-1.10011 8.517099,0 9.274569,0.51151 8.723109,5.85091 -0.22493,2.1792 -0.16607,3.959 0.13033,3.959 0.2964,0 0.84365,-7.88296 1.21503,-17.5205 0.67548,-17.5205 1.16528,-20.37939 3.15038,-18.39428 0.87658,0.87658 0.97959,17.78817 0.18149,29.71351 -0.42113,6.29236 -0.35526,6.81789 0.94875,7.51159 1.34746,0.72173 1.40072,1.45747 1.3832,19.16436 -0.021,21.93916 0.0841,22.40163 6.20547,27.4187 2.2787,1.86388 5.39054,4.19724 6.91459,5.17824 3.62826,2.33335 4.89934,3.95899 6.64551,8.47856 1.04125,2.69773 1.44136,5.33939 1.43154,9.45956 -0.0105,4.96801 -0.27607,6.19425 -2.02504,9.36846 l -2.01244,3.65069 2.42516,0.79881 c 1.33344,0.44144 2.58911,1.23324 2.79022,1.75176 0.2011,0.52554 0.96767,1.14916 1.70271,1.38039 1.88841,0.60262 1.66138,1.73076 -0.34685,1.73076 -2.28361,0 -3.22606,2.82385 -2.46088,7.38546 0.32092,1.91293 0.91933,5.68274 1.32854,8.38047 0.40992,2.69772 0.8878,5.38143 1.06157,5.95601 0.17448,0.58159 0.7911,4.23928 1.37059,8.12821 0.58019,3.89594 1.3867,8.62572 1.79311,10.51062 l 0.73925,3.43347 8.52551,0.2032 c 4.68983,0.10511 8.67336,0.34335 8.85274,0.52554 0.81212,0.80581 -0.92213,1.03003 -8.54023,1.07909 -7.47094,0.042 -10.01872,0.56056 -8.2228,1.67468 0.86397,0.53254 6.82069,1.22624 12.30163,1.43646 5.60636,0.21722 5.77032,0.25225 4.5546,1.03705 -0.57809,0.37838 -4.44109,0.68669 -8.58367,0.6937 -5.54751,0.007 -7.53612,0.23823 -7.54382,0.88289 -0.007,0.48348 0.52482,3.966 1.17998,7.74984 l 1.19121,6.87394 2.65849,-0.45546 c 1.46237,-0.24524 3.61425,-0.23824 4.78232,0.021 3.9604,0.86887 1.35518,1.75177 -5.16912,1.75177 -6.05341,0 -6.54741,-0.10511 -7.2313,-1.5766 z m 1.96969,-4.52657 c -0.67338,-1.15617 -0.73084,-1.14215 -0.75046,0.21021 -0.0238,1.61864 0.86538,2.88692 1.24025,1.75878 0.13104,-0.39239 -0.089,-1.2823 -0.48979,-1.96899 z m -66.646424,-0.0701 c -0.01401,-1.01603 -0.105106,-1.03705 -0.6937,-0.13314 -0.882893,1.37338 -0.882893,2.29832 0,1.75177 0.385389,-0.23824 0.6937,-0.96698 0.6937,-1.61863 z m 41.222634,-3.93098 c 1.10502,-1.12114 1.06998,-1.28231 -0.57317,-2.64168 -0.96348,-0.7988 -2.61925,-1.75177 -3.67872,-2.12315 -1.06017,-0.37838 -1.92695,-0.96697 -1.92695,-1.31732 0,-1.21223 -4.16571,-0.61663 -6.539,0.94595 -1.31734,0.86888 -2.985019,1.92695 -3.706749,2.35438 -1.12814,0.66567 -1.17018,0.93194 -0.35035,1.92695 1.49251,1.79382 4.869919,2.52957 10.468569,2.28431 3.68712,-0.16816 5.45922,-0.56757 6.30637,-1.42944 z m -40.521926,-3.49653 c 0.01402,-1.79381 -0.392396,-1.24026 -0.966977,1.33835 -0.343346,1.53455 -0.280283,1.82184 0.245248,1.05106 0.385389,-0.57458 0.714722,-1.65367 0.721729,-2.38941 z m 35.986246,-4.29532 c -0.22843,-0.5956 -0.56547,-0.93194 -0.74905,-0.74975 -0.18359,0.18218 -0.12613,0.67267 0.12753,1.08609 0.69089,1.11413 1.0952,0.89691 0.62152,-0.33634 z m -3.04457,-0.94596 c 0,-0.34334 -0.47299,-0.80581 -1.05107,-1.03003 -0.64045,-0.24525 -1.05106,0 -1.05106,0.62362 0,0.56758 0.47298,1.03005 1.05106,1.03005 0.57808,0 1.05107,-0.28029 1.05107,-0.62364 z m 21.81654,-1.24725 c 1.16177,-0.18219 3.03406,-0.007 4.1615,0.38539 2.04887,0.71472 2.48261,0.41342 1.51353,-1.03705 -0.72453,-1.0861 -4.36611,-1.67469 -4.37942,-0.70772 -0.007,0.51152 -0.18569,0.53254 -0.52554,0.063 -0.58579,-0.81283 -4.34648,-0.86188 -5.62248,-0.0771 -0.46667,0.28728 -0.84785,0.27327 -0.84785,-0.042 0,-0.57458 -9.84074,-0.42042 -10.42584,0.16817 -0.71962,0.71472 0.66848,1.03004 6.27695,1.42243 3.24497,0.22423 6.02258,0.53254 6.17253,0.68669 0.15066,0.14716 0.56407,0.0911 0.91933,-0.12612 0.35526,-0.22423 1.59621,-0.55356 2.75729,-0.73574 z m -17.6123,-0.93195 c 0,-0.38539 -0.47298,-0.7007 -1.05106,-0.7007 -0.57808,0 -1.05106,0.31531 -1.05106,0.7007 0,0.38539 0.47298,0.70071 1.05106,0.70071 0.57808,0 1.05106,-0.31532 1.05106,-0.70071 z m -4.32546,-20.39059 c -0.47509,-0.2943 -1.0882,-0.3994 -1.36288,-0.23124 -0.27468,0.17518 -0.52133,4.5546 -0.54935,9.73984 -0.0428,8.07216 0.10089,9.37547 0.99149,9.03213 0.58089,-0.22423 1.10992,0.021 1.19541,0.54655 0.0848,0.52553 0.25155,-3.43347 0.37068,-8.80089 0.15976,-7.16825 -0.0112,-9.901 -0.64535,-10.28639 z m 29.97418,17.77695 c -0.23334,-0.23123 -0.39871,0.18219 -0.36788,0.92494 0.0329,0.81282 0.199,0.98099 0.42323,0.42043 0.20251,-0.50451 0.17728,-1.10712 -0.0554,-1.34537 z m -61.624454,-1.76578 c -0.189191,-0.48349 -0.350353,-0.0841 -0.350353,0.87589 0,0.96697 0.161162,1.35937 0.350353,0.87588 0.196198,-0.48349 0.196198,-1.26828 0,-1.75177 z M 111.0782,914.79077 c 0.0344,-4.98903 -0.16817,-7.02109 -0.62853,-6.30637 -0.37418,0.58159 -0.64255,5.46553 -0.59701,10.86098 0.063,7.44852 0.21442,8.96906 0.62924,6.30636 0.2999,-1.92694 0.56827,-6.81088 0.5963,-10.86097 z m 1.98371,5.78085 c -0.15136,-1.44346 -0.27468,-0.25927 -0.27468,2.62765 0,2.89392 0.12332,4.07111 0.27468,2.62766 0.15135,-1.44346 0.15135,-3.81186 0,-5.25531 z m 21.4802,5.43048 c -1.31453,-7.04912 -2.53096,-14.38553 -3.83498,-23.12336 -0.83384,-5.58464 -1.62494,-10.27938 -1.75877,-10.43354 -0.13384,-0.14715 -3.08942,0.46247 -6.56844,1.35937 -4.94139,1.27529 -6.32459,1.89892 -6.32459,2.8589 0,0.67267 -0.32093,1.42944 -0.71262,1.66767 -0.39169,0.24526 -0.56056,0.6867 -0.37628,0.98801 0.18499,0.29429 0.37347,6.46052 0.41903,13.70584 0.0456,7.23832 0.23753,13.56571 0.42673,14.0562 0.25856,0.67268 2.66829,0.86888 9.69989,0.78479 l 9.35655,-0.11211 -0.32652,-1.75177 z m -57.966056,-2.97801 c -0.189191,-0.48348 -0.350354,-0.0841 -0.350354,0.87589 0,0.96697 0.161163,1.35937 0.350354,0.87589 0.196198,-0.4835 0.196198,-1.26829 0,-1.75178 z m 59.522316,-2.43846 c -0.23333,-0.23124 -0.3987,0.18218 -0.36786,0.92493 0.0329,0.81282 0.199,0.981 0.42323,0.42043 0.2025,-0.50451 0.17727,-1.10712 -0.0554,-1.34536 z m -0.7007,-3.50354 c -0.23333,-0.23123 -0.3987,0.18219 -0.36787,0.92494 0.0329,0.81282 0.199,0.98098 0.42322,0.42042 0.20251,-0.50451 0.17729,-1.10712 -0.0554,-1.34536 z M 79.610119,903.64251 c 0.01401,-4.03607 -0.385389,-3.48252 -0.966977,1.33835 -0.322325,2.69072 -0.245247,3.53858 0.245248,2.80284 0.392396,-0.57458 0.714722,-2.44547 0.721729,-4.14119 z m 29.438131,0.11913 c 0,-0.53955 0.47298,-1.45748 1.05106,-2.03206 0.57809,-0.58158 1.05106,-0.83385 1.05106,-0.56757 0,0.26627 0.47298,0.0981 1.05106,-0.38539 0.57809,-0.47648 1.02584,-1.70273 0.99571,-2.71174 -0.0308,-1.01603 -0.20881,-1.46448 -0.3959,-1.00201 -0.18708,0.45545 -0.7932,0.65866 -1.34606,0.44845 -0.64325,-0.24525 -1.02583,0.0841 -1.06087,0.91092 -0.0315,0.72873 -0.21021,0.91793 -0.40711,0.43444 -0.25576,-0.63064 -0.71822,-0.67268 -1.69642,-0.14715 -1.71113,0.91092 -1.96057,6.0401 -0.29359,6.0401 0.57809,0 1.05106,-0.44145 1.05106,-0.98799 z M 98.536241,892.36111 c -0.57459,-0.38539 -2.31234,-1.02303 -3.8539,-1.42243 -6.390448,-1.65368 -9.72582,-2.94297 -10.78389,-4.16221 -1.492507,-1.70972 -4.281325,-2.53656 -4.281325,-1.26127 0,1.31733 3.629667,3.37741 9.809908,5.55662 5.262317,1.85687 11.267376,2.70472 9.109207,1.28929 z m 22.023939,0.042 c 1.1835,-0.36437 3.6612,-1.04407 5.50686,-1.49952 3.0614,-0.76377 6.10457,-3.22326 6.10457,-4.93298 0,-1.07909 -2.1834,-0.64466 -4.01365,0.7918 -0.97959,0.77078 -2.36909,1.40141 -3.08802,1.40141 -0.71893,0 -1.30682,0.31532 -1.30682,0.70071 0,0.38539 -0.76588,0.7007 -1.70202,0.7007 -0.93615,0 -2.175,0.47649 -2.75308,1.05106 -0.57809,0.5816 -1.36989,1.05107 -1.76018,1.05107 -0.3903,0 -0.90461,0.31532 -1.14216,0.70071 -0.54725,0.88289 1.35868,0.90391 4.1545,0.035 z m -5.25531,-5.75282 c 4.68984,-1.54156 5.9371,-2.24226 6.09335,-3.42646 0.20882,-1.5836 0.32374,-1.66068 1.03985,-0.66567 0.65307,0.91091 0.70632,0.8969 0.3924,-0.0911 -0.1997,-0.63063 0.14295,-1.89191 0.76167,-2.80282 l 1.12464,-1.66068 -1.63055,1.40141 c -1.84426,1.5836 -1.86948,1.6817 1.27039,-4.73678 1.27459,-2.60664 2.60873,-4.55461 2.96399,-4.33738 1.04405,0.64465 0.74065,-1.09311 -0.38819,-2.22125 -0.77919,-0.77778 -1.37339,-0.84785 -2.40623,-0.30131 -1.72935,0.92494 -2.8652,0.93896 -2.8652,0.035 0,-0.38539 0.63064,-0.70071 1.40142,-0.70071 0.77077,0 1.40142,-0.31531 1.40142,-0.7007 0,-0.38539 0.39379,-0.70071 0.87588,-0.70071 0.48139,-0.007 1.77559,-0.47648 2.8757,-1.05107 1.09942,-0.57458 2.28221,-0.86887 2.62766,-0.65166 0.34475,0.21022 0.62783,-0.11211 0.62783,-0.72172 0,-0.67969 -0.83104,-1.28229 -2.11683,-1.53456 -3.20925,-0.64464 -3.55329,-1.95497 -0.37699,-1.43644 2.5716,0.41341 2.61855,0.38538 2.16799,-1.47149 -0.81842,-3.3634 -3.82026,-7.10518 -8.27956,-10.32142 -10.62273,-7.66575 -11.56728,-9.08118 -12.55388,-18.87007 -0.3896,-3.86791 -0.57879,-9.7959 -0.42042,-13.1663 0.15905,-3.37041 0.0189,-6.13119 -0.31112,-6.13119 -0.32933,0 -0.54936,11.19731 -0.48769,24.88213 0.0855,18.84905 -0.0974,25.1414 -0.75256,25.92619 -1.04266,1.26127 -3.72847,1.35237 -5.81658,0.21021 -0.84786,-0.46246 -2.795829,-1.04405 -4.337379,-1.28929 -2.26329,-0.36437 -2.54357,-0.56058 -1.47149,-1.03005 0.79881,-0.35036 2.19322,-0.22423 3.503539,0.30832 5.43819,2.21423 4.97713,3.62966 5.17964,-15.85002 0.16606,-16.0392 0.0932,-17.27946 -0.94035,-15.99015 -0.77078,0.96697 -1.00903,2.25628 -0.77078,4.11316 0.25225,2.00401 0.14013,2.50853 -0.44145,1.92694 -1.16318,-1.16317 -0.82684,-5.2483 0.61662,-7.44152 0.94596,-1.45047 1.29491,-3.52456 1.40072,-8.3174 0.0771,-3.51756 -0.008,-5.15721 -0.1892,-3.64369 -0.18078,1.52054 -0.77708,3.40545 -1.33063,4.19024 -0.55357,0.78479 -1.00903,2.53656 -1.02305,3.89594 -0.021,2.15117 -0.14013,2.31934 -0.91091,1.30331 -0.74976,-0.98099 -0.91793,-0.18919 -1.01603,4.85591 -0.1962,9.39649 -1.450469,11.82795 -8.702789,16.85903 -3.70674,2.5786 -6.852918,5.93499 -8.849935,9.45255 -2.116138,3.72076 -2.025045,4.8489 0.322326,3.95199 2.018038,-0.76377 9.368459,0.55356 9.368459,1.6817 0,0.33634 -0.86888,0.41342 -1.92694,0.16817 -5.885948,-1.3874 -7.67976,-1.31733 -9.375473,0.38539 l -1.660678,1.65367 2.102124,0.23824 c 1.156168,0.13314 2.256279,0.4975 2.452477,0.81282 0.196199,0.31532 1.457474,0.90392 2.802829,1.31033 l 2.452483,0.73574 -2.459484,-0.11211 c -1.359374,-0.063 -2.872906,0.13313 -3.377415,0.44845 -0.50451,0.30831 -1.121132,0.35736 -1.373388,0.10511 -0.252255,-0.25226 0.007,-0.75676 0.574581,-1.11413 0.784793,-0.49049 0.567573,-0.65166 -0.896906,-0.65867 -1.058069,-0.007 -1.91994,0.063 -1.912933,0.16117 0.05606,0.91092 2.004025,6.26432 2.03906,5.60566 0.0981,-1.77279 1.352367,-0.80581 1.828848,1.40141 0.476481,2.20023 3.125154,7.5186 4.778829,9.5927 0.651653,0.81982 0.560565,0.91792 -0.525535,0.51151 -2.536563,-0.95296 0.203204,1.4785 3.307341,2.93597 4.07111,1.91293 6.36944,2.54357 5.78083,1.5836 -0.33633,-0.53954 0.53255,-0.63064 2.886919,-0.31532 1.84988,0.24525 3.46851,0.71472 3.59464,1.04405 0.13313,0.32233 1.07769,0.56758 2.10562,0.53955 1.70202,-0.042 1.74406,-0.10511 0.46737,-0.70771 -1.04265,-0.4905 -0.72943,-0.56057 1.22624,-0.26628 1.60883,0.23825 2.62766,0.10511 2.62766,-0.34334 0,-0.40641 0.55986,-0.73575 1.24516,-0.73575 0.68529,0 1.9886,-0.51851 2.89602,-1.15616 1.27178,-0.8899 1.5773,-0.93194 1.33065,-0.17518 -0.17658,0.53954 -1.71604,1.67469 -3.42156,2.51554 -3.98703,1.976 -2.99412,2.01104 2.80493,0.10511 z m -16.418279,-2.69072 c 0.23824,-0.38539 1.128139,-0.67968 1.968979,-0.65165 1.47849,0.0491 1.4855,0.0701 0.13314,0.65165 -1.926949,0.82684 -2.613639,0.82684 -2.102119,0 z m 5.605659,0 c -1.33835,-0.57457 -1.33135,-0.6026 0.17517,-0.65165 0.86818,-0.0281 1.578,0.26626 1.578,0.65165 0,0.38539 -0.0792,0.67969 -0.17517,0.65166 -0.0967,-0.028 -0.80582,-0.32233 -1.578,-0.65166 z m 13.8579,0.21723 c -0.64045,-0.23825 -0.57598,-0.74976 0.25575,-2.01805 1.03495,-1.5836 3.07472,-2.36839 3.03898,-1.17719 -0.0329,1.12114 -2.48121,3.49654 -3.29473,3.19524 z m -25.818979,-1.19822 c 1.976,-1.61863 5.37442,-2.05307 12.566489,-1.62564 6.7296,0.40641 8.85555,0.89691 8.85555,2.06009 0,0.38538 -0.54235,0.47647 -1.22624,0.19619 -0.67478,-0.27327 -3.83778,-0.81282 -7.02951,-1.20522 -5.48654,-0.66567 -7.931999,-0.43444 -13.201329,1.25427 -1.261267,0.3994 -1.254266,0.37137 0.035,-0.67969 z m -3.048079,-3.32135 c -1.604618,-1.49251 -4.939989,-7.88997 -4.954004,-9.4946 -0.01401,-2.20022 1.380398,-1.27529 2.347373,1.55558 0.595604,1.74476 2.032055,4.58263 3.195225,6.30637 2.270295,3.3634 2.018035,4.05709 -0.588594,1.63265 z m 6.712779,0.32933 c -0.95998,-0.95997 -0.40641,-2.33336 0.93894,-2.33336 0.77078,0 1.40143,0.28028 1.40143,0.61662 0,0.91793 -1.80784,2.24227 -2.34037,1.71674 z m 12.247669,-0.46247 c -0.55426,-0.67268 -0.53744,-1.14916 0.0603,-1.74476 1.21012,-1.21222 1.94587,-1.00902 1.94587,0.53254 0,1.75878 -1.03285,2.38241 -2.00613,1.21222 z m 6.91108,-1.44345 c 0,-1.19121 1.89472,-2.03206 2.4714,-1.09311 0.22773,0.36437 0.21862,0.98099 -0.0189,1.36638 -0.64746,1.05106 -2.45248,0.84786 -2.45248,-0.27327 z m 6.9237,-3.61566 c 0.71472,-2.45248 1.21783,-3.35639 1.35937,-2.44547 0.26767,1.72374 -1.14495,6.3344 -1.93956,6.3344 -0.30481,0 -0.0441,-1.75177 0.58019,-3.88893 z m -18.13642,0.38539 c 0,-1.5906 1.75807,-1.90592 2.33055,-0.42042 0.43934,1.14916 -0.0771,1.82184 -1.39511,1.82184 -0.51502,0 -0.93544,-0.63064 -0.93544,-1.40142 z m 4.90635,0.0841 c 0,-0.88288 2.05658,-2.46648 2.55548,-1.96198 0.71753,0.71473 -0.35315,2.57861 -1.48269,2.57861 -0.59,0 -1.07279,-0.27328 -1.07279,-0.61663 z m -10.392899,-1.24024 c 0.14015,-0.70072 0.82684,-1.38741 1.527539,-1.52755 0.92494,-0.17518 1.21924,0.11211 1.03705,1.03705 -0.13313,0.70771 -0.81982,1.3944 -1.527539,1.52754 -0.92493,0.18218 -1.21222,-0.10511 -1.03705,-1.03704 z m -6.95102,-0.42043 c 0.44145,-1.32434 2.62766,-1.51353 2.62766,-0.22423 0,0.65166 -0.5956,1.10011 -1.45747,1.10011 -0.85487,0 -1.33835,-0.35736 -1.17019,-0.87588 z m 22.248879,-0.83384 c 0,-1.21924 1.14846,-2.03206 2.07129,-1.46448 0.93265,0.58158 0.0925,2.47349 -1.09521,2.47349 -0.53744,0 -0.97608,-0.45546 -0.97608,-1.00901 z m 6.0436,-0.95297 c -0.19059,-0.3013 -0.0862,-0.97398 0.23054,-1.4855 0.74625,-1.21222 2.19531,-0.32933 1.67819,1.01603 -0.43094,1.12814 -1.36358,1.35236 -1.90873,0.46947 z m -12.34997,-1.1912 c 0,-0.57458 -0.52553,-1.05106 -1.16808,-1.05106 -0.64255,0 -0.981,-0.18919 -0.75186,-0.41342 0.22842,-0.23124 2.62415,-0.46947 5.32258,-0.52553 4.57912,-0.10511 4.83418,-0.0281 3.82656,1.07909 -0.73364,0.81282 -1.70202,1.07208 -3.01865,0.80581 -1.07629,-0.21021 -2.15118,-0.042 -2.41534,0.38539 -0.6909,1.12114 -1.79521,0.94595 -1.79521,-0.28028 z M 91.529161,869.9034 c 0,-1.54156 1.49251,-3.4615 2.69772,-3.4615 0.67968,0 1.84987,0.46247 2.59962,1.03003 0.74976,0.56758 1.91294,1.03705 2.58561,1.05106 1.646669,0.0281 1.583609,2.12316 -0.063,2.12316 -0.71472,0 -1.86388,-0.63065 -2.56459,-1.40142 -0.6937,-0.77078 -1.70973,-1.40142 -2.25628,-1.40142 -0.67268,0 -0.84786,0.45546 -0.54655,1.40142 0.35036,1.0931 0.12612,1.40142 -1.00202,1.40142 -0.7988,0 -1.45046,-0.33634 -1.45046,-0.74275 z m 17.519089,-3.4615 c 0,-0.38539 0.80651,-0.70071 1.79311,-0.70071 1.01673,0 1.60533,0.3013 1.36007,0.70071 -0.23823,0.38539 -1.04545,0.7007 -1.7931,0.7007 -0.74836,0 -1.36008,-0.31531 -1.36008,-0.7007 z m -4.20564,-1.00201 c 0,-1.24026 -2.32636,-2.04607 -4.20425,-1.45047 -0.791799,0.25226 -1.401419,0.12612 -1.401419,-0.28729 0,-1.16318 3.398439,-1.72374 4.568619,-0.74976 0.71472,0.5886 2.1806,0.71472 4.60785,0.3924 2.40834,-0.31532 3.41315,-0.23123 3.10694,0.26627 -0.24946,0.3994 -1.02654,0.72874 -1.72725,0.72874 -0.7007,0 -1.66698,0.47647 -2.14626,1.05106 -1.10782,1.33834 -2.80423,1.36637 -2.80423,0.0491 z m -9.459559,-0.39941 c -0.23824,-0.38539 -1.28229,-0.73574 -2.31934,-0.77778 -1.2823,-0.0561 -1.4785,-0.1892 -0.60261,-0.41342 1.68871,-0.43444 4.67371,0.33634 4.67371,1.20522 0,0.8969 -1.1912,0.88989 -1.75176,-0.014 z m 21.274889,-0.72172 c 1.73075,-1.44347 2.90233,-1.63967 5.52859,-0.93896 2.60803,0.70071 1.77418,1.55557 -1.13585,1.16318 -1.62074,-0.21722 -2.90584,-0.0491 -3.19453,0.42042 -0.26557,0.42744 -1.01532,0.77078 -1.66698,0.75677 -0.96068,-0.021 -0.87168,-0.28729 0.46877,-1.40141 z m -26.789459,-2.18622 c -0.763769,-0.44144 -2.669698,-0.58158 -4.5546,-0.32933 -2.22825,0.2943 -2.914944,0.21021 -2.193215,-0.25926 1.548564,-1.00902 6.390455,-0.80582 8.408495,0.34334 1.01602,0.5816 1.31032,1.00201 0.70071,1.00902 -0.57459,0 -1.639659,-0.34335 -2.36139,-0.76377 z m 30.693099,-0.67268 c -0.3006,-0.48348 -2.02574,-0.66567 -4.59594,-0.48348 -3.95479,0.28729 -5.33168,-0.22423 -3.00674,-1.11413 2.64797,-1.01603 10.10351,0.32233 10.10351,1.81484 0,0.84785 -1.95007,0.67267 -2.50083,-0.21723 z m 1.80012,-4.82788 c -0.77078,-0.77077 -1.40141,-2.17219 -1.40141,-3.11114 0,-0.96697 -0.66778,-2.1792 -1.53456,-2.78881 -1.83795,-1.28931 -1.27458,-2.23526 0.70071,-1.17719 0.76377,0.40641 1.66559,1.93395 2.00543,3.38442 0.3917,1.6817 1.18349,2.89392 2.17499,3.33536 0.85697,0.37839 1.55838,0.93195 1.55838,1.22625 0,1.03704 -2.12174,0.51151 -3.50354,-0.86889 z m -6.30637,-1.70271 c 0,-1.32434 -0.30761,-3.21626 -0.68389,-4.20425 -0.37558,-0.988 -0.41412,-1.80082 -0.0848,-1.80082 0.71472,0 1.90033,2.97801 2.44338,6.13119 0.29569,1.71674 0.13803,2.2773 -0.64115,2.2773 -0.71052,0 -1.03355,-0.74976 -1.03355,-2.40342 z m -31.491206,0.73574 c -0.04204,-1.3874 7.553627,-9.18628 8.261337,-8.48558 0.22424,0.23124 -1.15616,1.89892 -3.069096,3.70675 -1.912929,1.81484 -3.853888,3.92397 -4.316356,4.69474 -0.7918,1.32434 -0.833843,1.33134 -0.875885,0.0841 z m 5.171221,-0.66567 c 0.336341,-1.49251 0.224233,-1.87089 -0.455458,-1.52754 -0.497506,0.25926 -0.168166,-0.18219 0.721731,-0.96699 0.896906,-0.78479 2.739763,-1.63965 4.106143,-1.89891 1.8849,-0.35036 2.69772,-0.98099 3.42646,-2.64868 l 0.94596,-2.18621 0.028,1.8779 c 0.035,2.31934 -1.62564,4.07812 -3.84688,4.07812 -1.14216,0 -2.2703,0.84085 -3.531566,2.62765 -1.758773,2.49453 -1.821841,2.52956 -1.394412,0.64466 z m 11.190295,-10.70681 c 0.063,-2.52955 0.5816,-4.93999 1.34537,-6.22929 l 1.24725,-2.10213 -0.51151,2.10213 c -0.28029,1.15617 -0.54655,3.3634 -0.5886,4.90496 -0.0491,1.54155 -0.42042,3.39843 -0.84085,4.12717 -0.5956,1.05106 -0.73574,0.47647 -0.65166,-2.80284 z m 9.94936,1.42243 c -1.07418,-2.79582 0.3055,-3.3704 1.54926,-0.64464 0.63975,1.40842 0.60752,1.75176 -0.16326,1.75176 -0.52834,0 -1.15267,-0.49749 -1.386,-1.10712 z m -10.06147,41.28572 c -0.48348,-0.1962 -1.268279,-0.1962 -1.751769,0 -0.48349,0.19619 -0.0841,0.35035 0.87589,0.35035 0.966969,0 1.359369,-0.15416 0.875879,-0.35035 z m 29.62243,-19.50771 c 0.48419,-1.40142 0.48419,-1.40142 1.06087,0 0.4982,1.21222 0.58229,1.13514 0.62503,-0.60261 0.0386,-1.54156 -0.2018,-1.89892 -1.05876,-1.57659 -0.60963,0.23823 -1.39792,0.42743 -1.75178,0.42743 -0.35385,0 -0.62223,1.33835 -0.5963,2.97801 0.0477,3.00604 0.33003,2.80282 1.72094,-1.22624 z m -23.76731,-31.69302 c -0.23333,-0.23123 -0.3987,0.18218 -0.36787,0.92493 0.0329,0.81282 0.199,0.981 0.42322,0.42043 0.20251,-0.50451 0.17728,-1.10712 -0.0554,-1.34536 z m 0.0596,-4.91897 c -0.17657,-0.67268 -0.32022,-0.11912 -0.32022,1.22624 0,1.35237 0.14365,1.89892 0.32022,1.22624 0.17588,-0.67268 0.17588,-1.7798 0,-2.45248 z m -5.27002,-12.94908 c -0.62363,-0.62363 -0.80582,-0.24525 -0.77078,1.59761 0.042,2.27029 0.0911,2.31935 0.81983,0.81983 0.56757,-1.1842 0.55356,-1.81483 -0.0491,-2.41744 z m 7.4261,-9.64875 c 0.15906,-0.84084 -0.64886,-1.05106 -4.02276,-1.05106 -2.77271,0 -4.22317,0.28729 -4.22317,0.82684 0,1.81483 7.90398,2.03205 8.24593,0.22422 z m -0.0112,-3.18822 c 0.48139,-0.14715 0.87589,-1.02303 0.87589,-1.93395 0,-1.60463 -0.21232,-1.67469 -5.33379,-1.77279 -5.206259,-0.0981 -5.325379,-0.063 -4.918969,1.47148 0.23123,0.86188 0.42744,1.78681 0.43444,2.05307 0.021,0.99502 5.904159,1.12114 8.942429,0.18219 z m -2.45668,-6.97204 c -0.3994,-2.08811 -1.27038,-2.28431 -1.76298,-0.39239 -0.3924,1.49951 -0.014,2.14416 1.26128,2.14416 0.51502,0 0.70771,-0.67268 0.5017,-1.75177 z m -4.86011,-0.30131 c -0.21021,-0.80581 -0.74976,-1.1982 -1.33835,-0.97398 -1.219229,0.46948 -1.268279,1.39441 -0.10511,1.86388 1.56959,0.63064 1.80082,0.48349 1.44346,-0.8899 z m 1.68871,-6.19425 c -0.16117,-1.05106 -0.28729,-0.021 -0.28729,2.29131 0.007,2.31234 0.13313,3.1742 0.2943,1.91294 0.15415,-1.25427 0.14714,-3.14619 -0.007,-4.20425 z m -0.11212,-4.03608 c -0.74975,-0.56758 -1.69571,-1.01603 -2.10212,-1.00902 -0.40641,0.014 -0.12613,0.49049 0.61662,1.05106 0.74976,0.56757 1.69571,1.02304 2.10212,1.00902 0.41342,-0.014 0.13314,-0.48349 -0.61662,-1.05106 z m -5.472519,-0.81282 c -0.67269,-0.17518 -1.77981,-0.17518 -2.45248,0 -0.67268,0.17517 -0.11912,0.32232 1.22624,0.32232 1.35236,0 1.89892,-0.14715 1.22624,-0.32232 z m 11.332539,-19.31011 c -0.063,-4.97573 -0.39239,-4.70035 -0.83734,0.70071 -0.16677,2.02294 -0.0344,3.67871 0.29429,3.67871 0.32934,0 0.57318,-1.97109 0.54305,-4.37942 z m -7.65383,133.35872 c 0,-0.74275 -0.46947,-1.82184 -1.05106,-2.40342 -0.574579,-0.57459 -1.051069,-1.35938 -1.051069,-1.73776 0,-1.00201 2.109139,-0.53254 2.851889,0.63765 0.85486,1.35937 0.81983,4.8559 -0.0491,4.8559 -0.38539,0 -0.70072,-0.60962 -0.70072,-1.35237 z M 75.763233,790.76688 c -0.50451,-0.81983 2.683711,-0.81983 5.255309,0 1.436451,0.46247 1.156168,0.57459 -1.53455,0.63064 -1.807827,0.042 -3.482518,-0.24525 -3.720759,-0.63064 z m 8.247332,-0.42042 c 0.231234,-0.23123 0.840849,-0.25926 1.345359,-0.0561 0.560563,0.22423 0.392396,0.38539 -0.427432,0.42042 -0.735743,0.035 -1.149161,-0.13313 -0.917927,-0.36436 z m -5.752812,-1.04406 c -5.108161,-1.00201 -4.904955,-1.30331 0.658665,-1.00201 2.893924,0.15415 4.547594,0.11912 3.678717,-0.0771 -2.872903,-0.65166 -1.674692,-1.68871 1.401415,-1.21923 1.639656,0.25225 3.104135,0.56757 3.265301,0.70071 0.33634,0.29429 -4.568617,2.39642 -5.346403,2.2843 -0.301304,-0.042 -1.947968,-0.35035 -3.657695,-0.68669 z m 9.417516,0.063 c 0.238235,-0.38539 0.728732,-0.70071 1.093102,-0.70071 0.36437,0 0.658663,0.31532 0.658663,0.70071 0,0.38539 -0.490497,0.70071 -1.093102,0.70071 -0.595603,0 -0.896906,-0.31532 -0.658663,-0.70071 z m -17.650833,-3.13216 c -1.086097,-0.94596 -1.653671,-1.73776 -1.268282,-1.75177 0.385389,-0.007 1.618635,0.77078 2.739768,1.73075 1.121132,0.96697 1.688706,1.75176 1.261275,1.75176 -0.420425,0 -1.653671,-0.77778 -2.732761,-1.73074 z m 6.97905,0.60961 c 0.231234,-0.23123 0.84085,-0.25926 1.345359,-0.0561 0.560566,0.22424 0.392397,0.38539 -0.427431,0.42043 -0.735744,0.0351 -1.149162,-0.13313 -0.917928,-0.36437 z m 3.664702,-1.49251 c -0.770778,-0.19619 -2.032053,-0.82683 -2.802832,-1.40842 -1.401415,-1.05106 -1.401415,-1.05106 0,-0.53954 0.770779,0.28029 2.424449,0.80581 3.678717,1.17018 3.531567,1.01603 2.767796,1.69572 -0.875885,0.77778 z m 6.033097,-1.14916 c -0.441447,-0.52552 -2.228253,-1.50652 -3.980023,-2.17219 -1.75177,-0.67268 -3.020051,-1.3874 -2.816845,-1.59061 0.35736,-0.35736 3.384418,0.60962 6.509576,2.08812 1.555569,0.74275 2.767797,2.63466 1.674695,2.63466 -0.32233,0 -0.952964,-0.42743 -1.387403,-0.95998 z m -15.121278,-0.40641 c -0.231234,-0.37137 -0.875885,-0.49749 -1.443458,-0.28028 -0.567574,0.21722 -1.030041,0.0281 -1.030041,-0.42043 0,-0.44845 -0.315318,-0.62362 -0.700708,-0.38538 -0.385389,0.23824 -0.700707,-0.0561 -0.700707,-0.65867 0,-0.6026 0.336339,-1.0931 0.74275,-1.0931 0.40641,0 0.546552,-0.31532 0.308311,-0.70071 -0.23824,-0.38539 -0.133134,-0.7007 0.231233,-0.7007 0.357362,0 0.833843,0.67267 1.051062,1.4925 0.280284,1.07909 0.777786,1.39441 1.779799,1.13515 1.051062,-0.27328 1.36638,-0.0351 1.296309,0.95296 -0.105106,1.42243 -0.861871,1.74476 -1.53455,0.65866 z m 5.934995,-2.83786 c -0.630637,-0.40641 -0.714721,-0.67969 -0.217219,-0.68669 0.462467,-0.007 1.030041,0.3013 1.268281,0.68669 0.539546,0.86888 0.294298,0.86888 -1.051062,0 z m -0.658665,-2.0741 c -0.532538,-0.32933 -1.352366,-0.44775 -1.835855,-0.26627 -0.476481,0.18219 -1.072082,0 -1.324337,-0.4036 -0.483489,-0.7883 3.510546,-0.59911 4.31636,0.2039 0.74275,0.74626 -0.133134,1.09661 -1.156168,0.46597 z" />
  </g>
</svg>
