<?xml version="1.0" encoding="UTF-8" standalone="no"?>
<!-- Created with Inkscape (http://www.inkscape.org/) -->

<svg
   xmlns:dc="http://purl.org/dc/elements/1.1/"
   xmlns:cc="http://creativecommons.org/ns#"
   xmlns:rdf="http://www.w3.org/1999/02/22-rdf-syntax-ns#"
   xmlns:svg="http://www.w3.org/2000/svg"
   xmlns="http://www.w3.org/2000/svg"
   xmlns:sodipodi="http://sodipodi.sourceforge.net/DTD/sodipodi-0.dtd"
   xmlns:inkscape="http://www.inkscape.org/namespaces/inkscape"
   width="62mm"
   height="88mm"
   viewBox="0 0 219.68504 311.81102"
   id="svg2"
   version="1.1"
   inkscape:version="0.92.2 (5c3e80d, 2017-08-06)"
   sodipodi:docname="a_trees.svg">
  <defs
     id="defs4">
    <inkscape:perspective
       sodipodi:type="inkscape:persp3d"
       inkscape:vp_x="0 : 155.90551 : 1"
       inkscape:vp_y="0 : 1000 : 0"
       inkscape:vp_z="219.68504 : 155.90551 : 1"
       inkscape:persp3d-origin="109.84252 : 103.93701 : 1"
       id="perspective6315" />
    <clipPath
       clipPathUnits="userSpaceOnUse"
       id="clipPath8648">
      <path
         style="fill:#ff0000;fill-opacity:1;fill-rule:evenodd;stroke:none;stroke-width:1px;stroke-linecap:butt;stroke-linejoin:miter;stroke-opacity:1"
         d="m 48.7971,144.54832 -4.54568,-1.2627 -4.04062,0.50508 -4.79822,3.40927 -5.93465,4.29314 -2.0203,2.90419 0.12627,2.65165 2.65165,2.14658 -1.01015,1.76776 -3.283,1.26269 -3.40926,8.08123 6.31345,9.34391 10.35406,-0.75762 46.21448,3.91434 25.50635,-7.19733 9.47018,-5.05077 0.12627,-10.10152 -2.65165,-1.13642 0.88389,-15.15229 10.35406,-6.9448 3.28299,-3.91434 6.566,-7.82868 0.50507,-4.54569 -4.54568,-1.89404 -2.14658,1.01016 -4.16688,1.13642 -5.93464,-2.90419 -2.77792,-1.76777 -5.80838,2.39911 -2.90419,3.03046 -3.40926,4.9245 -7.07107,0.3788 -8.96511,5.80838 -2.90418,2.14657 -3.66181,0.12627 -5.55584,-0.3788 -17.29886,2.65165 z"
         id="path8650"
         inkscape:connector-curvature="0" />
    </clipPath>
    <mask
       maskUnits="userSpaceOnUse"
       id="mask8666">
      <rect
         rx="1.7260212"
         ry="2.8714814"
         y="98.924339"
         x="22.885082"
         height="109.83415"
         width="100.10923"
         id="rect8668"
         style="opacity:1;fill:#ffffff;fill-opacity:1;stroke:none;stroke-width:2.01114893;stroke-linecap:round;stroke-linejoin:bevel;stroke-miterlimit:4;stroke-dasharray:none;stroke-dashoffset:0;stroke-opacity:1" />
    </mask>
    <clipPath
       clipPathUnits="userSpaceOnUse"
       id="clipPath9647">
      <path
         style="fill:#ff0000;fill-opacity:1;fill-rule:evenodd;stroke:none;stroke-width:1px;stroke-linecap:butt;stroke-linejoin:miter;stroke-opacity:1"
         d="m 24.29467,289.85466 12.14286,-9.28572 41.42857,-15.71428 40,-5 20,5 2.85715,7.14285 9.28571,6.42858 10,1.42857 -3.57143,13.57143 -15.71428,10 -27.85715,5.71428 -74.28571,1.42857 z"
         id="path9649"
         inkscape:connector-curvature="0" />
    </clipPath>
    <inkscape:path-effect
       pattern-nodetypes="sssss"
       fuse_tolerance="0"
       vertical_pattern="false"
       prop_units="false"
       tang_offset="0"
       normal_offset="0"
       spacing="0"
       scale_y_rel="false"
       prop_scale="1"
       copytype="single_stretched"
       pattern="M 0,5 C 0,2.24 2.24,0 5,0 7.76,0 7,0.24 7,3 7,5.76 7.76,5.75 5,5.75 2.24,5.75 0,7.76 0,5 Z"
       is_visible="true"
       id="path-effect20326"
       effect="skeletal" />
  </defs>
  <sodipodi:namedview
     id="base"
     pagecolor="#ffffff"
     bordercolor="#666666"
     borderopacity="1.0"
     inkscape:pageopacity="0.0"
     inkscape:pageshadow="2"
     inkscape:zoom="1.4"
     inkscape:cx="247.44615"
     inkscape:cy="158.20016"
     inkscape:document-units="px"
     inkscape:current-layer="layer1"
     showgrid="false"
     inkscape:window-width="1920"
     inkscape:window-height="1007"
     inkscape:window-x="0"
     inkscape:window-y="36"
     inkscape:window-maximized="1" />
  <metadata
     id="metadata7">
    <rdf:RDF>
      <cc:Work
         rdf:about="">
        <dc:format>image/svg+xml</dc:format>
        <dc:type
           rdf:resource="http://purl.org/dc/dcmitype/StillImage" />
        <dc:title />
      </cc:Work>
    </rdf:RDF>
  </metadata>
  <g
     inkscape:label="Layer 1"
     inkscape:groupmode="layer"
     id="layer1"
     transform="translate(0,-740.55118)">
    <text
       xml:space="preserve"
       style="font-style:normal;font-weight:normal;line-height:0%;font-family:sans-serif;letter-spacing:0px;word-spacing:0px;fill:#000000;fill-opacity:1;stroke:none;stroke-width:1px;stroke-linecap:butt;stroke-linejoin:miter;stroke-opacity:1"
       x="137.96159"
       y="766.04486"
       id="text6305"><tspan
         sodipodi:role="line"
         id="tspan6307"
         x="137.96159"
         y="766.04486"
         style="font-style:normal;font-variant:normal;font-weight:normal;font-stretch:normal;font-size:15px;line-height:1.25;font-family:'Ubuntu Condensed';-inkscape-font-specification:'Ubuntu Condensed, '">• A D L T</tspan></text>
    <text
       xml:space="preserve"
       style="font-style:normal;font-weight:normal;line-height:0%;font-family:sans-serif;letter-spacing:0px;word-spacing:0px;fill:#000000;fill-opacity:1;stroke:none;stroke-width:1px;stroke-linecap:butt;stroke-linejoin:miter;stroke-opacity:1"
       x="11.082771"
       y="1025.4789"
       id="text6309"><tspan
         sodipodi:role="line"
         id="tspan6311"
         x="11.082771"
         y="1025.4789"
         style="font-style:normal;font-variant:normal;font-weight:500;font-stretch:normal;font-size:16.61363792px;line-height:1.25;font-family:Essays1743;-inkscape-font-specification:'Essays1743 Medium'">Creep bent and ghostly trees</tspan></text>
    <text
       xml:space="preserve"
       style="font-style:normal;font-weight:normal;line-height:0%;font-family:sans-serif;letter-spacing:0px;word-spacing:0px;fill:#000000;fill-opacity:1;stroke:none;stroke-width:1px;stroke-linecap:butt;stroke-linejoin:miter;stroke-opacity:1"
       x="14.324148"
       y="763.8302"
       id="text6317"><tspan
         sodipodi:role="line"
         id="tspan6319"
         x="14.324148"
         y="763.8302"
         style="font-style:normal;font-variant:normal;font-weight:500;font-stretch:normal;font-size:19.57834816px;line-height:1.25;font-family:Essays1743;-inkscape-font-specification:'Essays1743 Medium'">A</tspan></text>
    <g
       transform="matrix(0.44272918,0,0,0.44272918,-189.51357,629.83928)"
       id="layer1-54">
      <path
         d="m 703.06,819.68 c -3.2542,-1.3639 -8.1383,-2.7428 -10.853,-3.0644 -3.0041,-0.3558 -5.9966,-1.4766 -7.6445,-2.8633 -3.7783,-3.1793 -10.17,-2.3137 -15.328,2.0755 -3.8708,3.2943 -9.5443,5.5061 -14.124,5.5061 -3.3255,0 -3.3297,-1.0344 -0.0158,-3.9158 2.2469,-1.9537 2.4192,-2.4754 1.215,-3.6796 -1.4829,-1.4829 -5.4379,-0.74279 -15.333,2.8693 -5.5668,2.0321 -10.91,2.7188 -12.586,1.6175 -1.5829,-1.0404 -0.72323,-1.9193 4.9487,-5.0592 2.9976,-1.6594 7.1372,-8.2664 7.1372,-11.391 0,-0.90129 0.63053,-3.0567 1.4012,-4.7898 3.2841,-7.3855 3.5833,-9.5848 2.1725,-15.966 -0.75211,-3.4018 -1.401,-6.8602 -1.4421,-7.6852 -0.27771,-5.585 -2.8285,-19.948 -3.7474,-21.1 -2.985,-3.7446 -3.1568,-13.465 -0.33573,-18.995 2.2853,-4.4796 2.5086,-7.754 0.57914,-8.4944 -1.0666,-0.40929 -0.72951,-1.7136 1.5128,-5.8535 1.5868,-2.9298 2.6467,-5.9412 2.3552,-6.692 -0.6505,-1.6755 -7.7928,-5.8651 -9.9988,-5.8651 -0.97355,0 -2.5327,-2.0693 -3.9558,-5.25 -1.2919,-2.8875 -3.3222,-5.835 -4.5116,-6.5501 -1.8514,-1.1129 -2.1171,-2.0487 -1.846,-6.5 l 0.31666,-5.1999 -3.25,-0.31336 c -3.9673,-0.38252 -4.2469,-1.9264 -0.5,-2.7614 1.5125,-0.33708 4.168,-1.2456 5.9011,-2.019 4.3803,-1.9547 8.0889,-1.7559 11.076,0.59382 2.7433,2.1579 5.7802,2.6062 6.7729,1 1.0639,-1.7214 3.6716,-1.1313 3.3144,0.75 -0.23818,1.2544 -1.5852,1.8916 -4.7568,2.25 -3.8573,0.4359 -4.5228,0.87014 -5.1913,3.3874 -1.2352,4.651 2.2235,10.294 7.7658,12.669 6.2919,2.697 8.2056,2.5239 8.918,-0.80663 0.32354,-1.5125 1.0778,-3.875 1.6761,-5.25 1.5399,-3.5389 2.8306,-11.273 3.3238,-19.918 l 0.42324,-7.4175 -4.0288,-3.8325 c -2.839,-2.7007 -4.9169,-3.8324 -7.0363,-3.8324 -1.6542,0 -4.2759,-0.65587 -5.826,-1.4575 -1.5734,-0.81362 -4.9695,-1.3652 -7.6876,-1.2485 -4.1828,0.17958 -5.0484,0.58312 -6.1411,2.8629 -0.69957,1.4596 -2.6272,3.1263 -4.2836,3.7037 -1.6564,0.57741 -3.7897,2.4165 -4.7408,4.0868 -1.5042,2.6418 -2.1372,2.9612 -4.8647,2.455 -1.8117,-0.33631 -3.4198,-0.12194 -3.809,0.50776 -0.37044,0.5994 -3.0669,1.0898 -5.9921,1.0898 -3.3422,0 -5.7509,0.52093 -6.482,1.4019 -1.5215,1.8333 -6.1178,2.9618 -7.2897,1.7898 -1.1188,-1.1188 4.6174,-4.6834 9.1325,-5.675 1.7441,-0.38307 3.7079,-1.556 4.364,-2.6066 0.65608,-1.0505 2.1196,-1.9101 3.2523,-1.9101 2.7842,0 4.4594,-1.868 4.4594,-4.9726 0,-1.8899 -0.88455,-3.049 -3.3334,-4.3677 -4.8763,-2.626 -10.663,-3.7318 -12.996,-2.4833 -2.5573,1.3686 -6.5984,5.9788 -6.6388,7.5736 -0.0174,0.6875 -0.5941,1.2787 -1.2816,1.3138 -8.7753,0.44814 -14.149,2.8036 -16.854,7.3871 -1.735,2.9405 -2.6674,3.549 -5.4385,3.549 -2.2682,0 -3.8198,0.6785 -4.8213,2.1084 -2.0101,2.8698 -3.3341,1.7403 -2.8474,-2.4291 0.30219,-2.5885 0.81214,-3.3443 2.0563,-3.0477 2.1823,0.52023 4.5938,-1.1117 3.7235,-2.5198 -1.0113,-1.6363 -5.5392,-1.3532 -6.2075,0.3882 -0.31659,0.825 -1.3428,1.5 -2.2806,1.5 -2.5435,0 -6.0811,5.4156 -6.0811,9.3095 0,2.1802 -1.0709,4.8688 -3,7.5318 -3.3686,4.6502 -3.7215,6.1587 -1.441,6.1587 0.85746,0 1.2764,0.45734 0.9309,1.0163 -0.34546,0.55897 -1.0651,0.74625 -1.5992,0.41618 -0.53407,-0.33008 -1.8856,0.56258 -3.0035,1.9837 -1.1178,1.4211 -2.497,2.5838 -3.0648,2.5838 -0.56781,0 -3.0327,1.35 -5.4776,3 -2.4448,1.65 -4.8726,3 -5.395,3 -1.5552,0 -1.077,-5.6496 0.59564,-7.0378 0.85003,-0.70546 1.2923,-1.9426 0.98275,-2.7492 -0.30952,-0.8066 -0.0138,-2.128 0.65725,-2.9366 0.98197,-1.1832 0.88778,-1.656 -0.48275,-2.423 -2.6092,-1.4602 -2.028,-2.8535 1.1902,-2.8535 1.5912,0 3.1322,-0.62334 3.4246,-1.3852 0.81986,-2.1365 -2.1554,-5.6148 -4.8028,-5.6148 -2.3232,0 -5.5147,2.3103 -5.5147,3.992 0,0.46702 -1.3033,1.1354 -2.8963,1.4853 -1.593,0.34987 -3.7095,1.5347 -4.7034,2.633 -1.4358,1.5866 -2.5663,1.8686 -5.5018,1.3726 -3.5388,-0.59788 -3.9732,-0.33739 -10.297,6.1753 -3.631,3.7398 -6.6019,6.2834 -6.6019,5.6525 0,-0.63089 -0.27315,-1.8589 -0.60699,-2.7289 -0.38724,-1.0091 -0.0639,-1.5818 0.89301,-1.5818 2.0335,0 2.9361,-2.7164 1.6815,-5.0606 -1.1672,-2.181 -5.8566,-3.7094 -6.8249,-2.2244 -0.64998,0.99685 -4.5346,3.285 -5.5769,3.285 -0.31116,0 -0.56574,-0.675 -0.56574,-1.5 0,-0.825 0.45,-1.5 1,-1.5 0.55,0 1,-1.125 1,-2.5 0,-3.6975 -3.8956,-3.2646 -9,1 -2.3041,1.925 -4.7735,3.5 -5.4876,3.5 -0.71411,0 -1.5574,0.675 -1.874,1.5 -0.31658,0.825 -1.6747,1.5 -3.0181,1.5 -1.4862,0 -3.4308,1.1745 -4.9668,3 -2.8063,3.3351 -4.156,3.7388 -5.0151,1.5 -0.31658,-0.825 -1.2647,-1.5 -2.107,-1.5 -0.84226,0 -1.5314,-0.45 -1.5314,-1 0,-0.55 1.3977,-1 3.1061,-1 1.9837,0 4.561,-1.1523 7.1323,-3.1888 4.8954,-3.8772 9.0563,-6.9357 13.969,-10.268 4.3067,-2.9212 5.5691,-4.9391 6.0992,-9.7501 0.2111,-1.9156 0.70511,-4.0028 1.0978,-4.6382 1.1075,-1.792 3.596,-1.3614 3.596,0.62224 0,2.8124 2.907,6.2223 5.3067,6.2248 1.7179,0.002 2.2146,0.61631 2.2914,2.8351 0.0969,2.7978 3.9952,9.1626 5.6119,9.1626 0.45864,0 3.749,-1.3218 7.3119,-2.9373 6.0035,-2.7221 8.361,-5.0627 5.0994,-5.0627 -0.75827,0 -1.9489,-1.3766 -2.6458,-3.0592 -1.244,-3.0033 -1.1507,-3.1759 5.1098,-9.4494 l 6.377,-6.3902 1.3758,3.4494 c 1.088,2.7279 1.9343,3.4493 4.0463,3.4493 1.4688,0 3.6968,-0.7188 4.9511,-1.5973 2.1615,-1.514 2.1867,-1.6659 0.48249,-2.9121 -1.6689,-1.2203 -1.5833,-1.406 1.192,-2.5859 5.0737,-2.157 11.468,-9.5666 11.64,-13.489 0.0825,-1.8787 0.195,-3.9722 0.25,-4.6522 0.28758,-3.5554 -10.448,-0.35769 -19.926,5.935 -8.0467,5.3425 -9.7492,6.2492 -10.668,5.6813 -1.7739,-1.0963 -0.60576,-3.2466 3.1942,-5.88 4.4956,-3.1154 5.0612,-5.6433 1.7775,-7.9433 -3.1801,-2.2274 -5.0982,-1.9562 -10.748,1.5202 -3.4048,2.095 -5.8828,4.6476 -7.765,7.999 -3.3123,5.8975 -6.0663,6.4638 -9.414,1.9358 -2.7405,-3.7067 -7.2418,-4.7306 -11.359,-2.5838 -1.6453,0.85791 -3.5173,1.5626 -4.1599,1.566 -0.64264,0.003 -2.1798,1.6937 -3.416,3.7562 -1.2361,2.0625 -3.5228,4.7951 -5.0816,6.0725 -1.5587,1.2774 -2.834,3.1648 -2.834,4.1942 0,1.0295 -1.0663,3.1114 -2.3695,4.6264 -2.3569,2.7401 -2.3732,2.743 -3.0674,0.55577 -0.3918,-1.2345 -1.5197,-2.1989 -2.5715,-2.1989 -2.5262,0 -3.1014,-1.2014 -2.357,-4.9234 0.47792,-2.3896 1.0364,-2.9984 2.3638,-2.5771 1.1492,0.36474 2.3088,-0.31945 3.4227,-2.0195 0.92656,-1.4141 2.7742,-3.0675 4.1058,-3.6743 2.0131,-0.91722 2.3791,-1.7315 2.1715,-4.8316 -0.13732,-2.0507 -0.85132,-4.4534 -1.5867,-5.3395 -2.0129,-2.4254 0.9404,-3.1762 4.7483,-1.207 4.0847,2.1123 5.7398,1.9817 7.5448,-0.5953 1.4635,-2.0895 1.7631,-2.1222 8.3067,-0.90716 7.5102,1.3945 10.071,0.84844 15.607,-3.3281 1.7499,-1.3202 4.8692,-3.0967 6.9317,-3.9478 3.7893,-1.5635 4.5226,-3.2293 2.823,-6.4129 -0.50985,-0.95504 -1.1707,-2.5239 -1.4686,-3.4864 -0.29788,-0.9625 -1.4823,-1.75 -2.632,-1.75 -1.1497,0 -1.8123,-0.45 -1.4724,-1 0.33992,-0.55 1.6899,-1 3,-1 1.3101,0 2.6601,0.45 3,1 1.0266,1.661 3.2341,1.1248 3.7676,-0.91528 0.27627,-1.0565 1.5617,-2.0654 2.8666,-2.25 1.875,-0.26528 2.375,-0.9571 2.4104,-3.3347 0.0245,-1.65 -0.53795,-3.9967 -1.25,-5.2148 -0.71206,-1.2182 -1.2946,-2.9359 -1.2946,-3.8172 0,-0.88128 -1.6519,-3.1602 -3.6708,-5.0644 -2.5942,-2.4467 -3.3588,-3.7741 -2.6069,-4.526 0.75189,-0.75189 1.8156,-0.57141 3.6268,0.61538 1.4096,0.92361 2.9586,1.4348 3.4421,1.1359 1.1441,-0.70709 4.2088,5.7365 4.2088,8.8491 0,1.3257 1.0543,3.636 2.343,5.1342 1.9959,2.3203 3.0451,2.6973 7.0826,2.5446 2.6446,-0.10003 5.3978,-0.83737 6.2285,-1.6681 1.653,-1.653 3.3459,-1.9623 3.3459,-0.61124 0,0.48265 -0.65198,1.4186 -1.4488,2.08 -0.79686,0.66134 -1.9568,2.7414 -2.5776,4.6224 -1.0105,3.0619 -3.9736,4.8903 -3.9736,2.452 0,-0.53242 -2.5055,-0.90211 -5.5678,-0.82154 -4.6381,0.12203 -5.8934,0.56037 -7.5176,2.6252 -1.7198,2.1863 -1.7842,2.7256 -0.54611,4.5715 0.93158,1.3889 2.5351,2.1223 4.7676,2.1804 5.4173,0.14112 5.8639,0.31561 5.8639,2.291 0,3.2216 4.8797,4.4615 13.203,3.3548 4.0134,-0.53362 8.7786,-0.75058 10.589,-0.48214 4.7068,0.69778 11.927,-2.3084 13.679,-5.695 1.4002,-2.7076 1.3242,-2.8518 -3.8618,-7.3291 -2.9096,-2.5119 -6.9632,-5.2662 -9.008,-6.1206 -2.0449,-0.8544 -4.8873,-2.4733 -6.3166,-3.5976 -1.6893,-1.3288 -3.3311,-1.8196 -4.6916,-1.4024 -2.0371,0.62464 -2.0324,0.57624 0.17547,-1.8164 2.1544,-2.3348 2.1929,-2.6389 0.76515,-6.0558 -0.82675,-1.9787 -1.96,-3.88 -2.5183,-4.225 -0.55833,-0.34506 -1.0152,-1.0508 -1.0152,-1.5684 0,-1.9783 2.3698,-0.79306 5.8655,2.9335 1.999,2.131 6.1095,5.4478 9.1345,7.3706 3.025,1.9229 6.8217,4.9044 8.4371,6.6255 1.6154,1.7212 3.7024,3.1294 4.6377,3.1294 2.7942,0 14.925,-6.0844 14.925,-7.4858 0,-0.71353 -1.095,-1.5722 -2.4334,-1.9081 -1.3383,-0.3359 -2.7187,-1.5097 -3.0674,-2.6084 -0.39795,-1.2539 -1.5132,-1.9977 -2.9952,-1.9977 -2.6335,0 -5.504,-2.3842 -5.504,-4.5714 0,-1.8925 1.0016,-1.8086 2.4757,0.20736 0.84743,1.1589 2.8386,1.6597 6.829,1.7174 5.3122,0.0768 5.7008,0.254 6.8282,3.1141 2.2446,5.6942 7.2009,12.532 10.491,14.473 2.5744,1.5189 3.63,3.1237 4.8776,7.4153 0.87568,3.0123 2.3175,6.077 3.204,6.8106 0.88652,0.73357 2.3457,2.9705 3.2426,4.971 1.8011,4.017 6.3116,8.2505 10.478,9.8346 2.9937,1.1382 11.692,1.2134 15.569,0.13459 1.3799,-0.38395 2.6344,-1.5683 2.8072,-2.6503 0.43586,-2.7292 3.4787,-8.4562 4.4929,-8.4562 0.46199,0 0.50752,1.0125 0.10118,2.25 -1.7198,5.2374 -0.0782,8.1915 5.3912,9.7017 4.1503,1.146 8.4824,-0.39741 9.0251,-3.2153 0.40498,-2.1029 -4.1061,-9.7773 -8.4622,-14.396 -2.2757,-2.4131 -4.0242,-3.3401 -6.2997,-3.3401 -3.4714,0 -8.8266,2.4198 -10.852,4.9037 -1.1277,1.3828 -1.2175,1.262 -0.67178,-0.90368 0.625,-2.4802 4.9622,-7.2279 7.6,-8.3192 1.7269,-0.71448 -6.5955,-8.4583 -9.5528,-8.8887 -2.0164,-0.29345 -3.2952,-2.3097 -5.5766,-8.7921 -1.2501,-3.5521 -1.5606,-5.6021 -1.8408,-12.152 -0.13446,-3.1433 -0.67855,-3.9216 -3.9062,-5.5881 -2.0625,-1.0648 -5.2644,-3.9215 -7.1152,-6.348 -5.9949,-7.8595 -14.093,-9.0375 -22.728,-3.3061 -5.112,3.3932 -5.7118,3.5535 -10.169,2.7185 -4.3051,-0.8064 -4.7128,-1.1228 -4.4706,-3.4697 0.33274,-3.2242 -0.94598,-4.2898 -8.8784,-7.3985 l -6.3316,-2.4813 -6.1117,2.6625 c -6.4091,2.7921 -10.445,7.1123 -10.445,11.181 0,3.1663 -13.009,11.484 -16.146,10.323 -1.9389,-0.71725 -1.3093,-1.3024 5.3663,-4.9874 7.9162,-4.3698 10.78,-7.433 10.78,-11.532 0,-1.3464 1.575,-4.8394 3.5,-7.7624 1.925,-2.923 3.5,-5.6464 3.5,-6.0521 0,-1.0744 -3.2801,-2.6618 -9.7798,-4.7332 -8.7987,-2.804 -14.043,-3.4667 -15.813,-1.9982 -2.061,1.7105 -4.4076,7.5408 -4.4076,10.951 0,2.5171 -3.2554,7.3707 -8.3823,12.498 -0.88976,0.88976 -1.6177,2.6246 -1.6177,3.8552 0,1.2306 -0.66069,3.111 -1.4682,4.1786 -0.80751,1.0676 -1.4825,2.9648 -1.5,4.2159 -0.0206,1.4756 -0.89065,2.6013 -2.4763,3.2042 -3.4568,1.3143 -9.4962,8.1039 -9.5284,10.712 -0.0149,1.205 -0.47706,2.4691 -1.0271,2.809 -0.55,0.33992 -1,1.478 -1,2.5291 0,1.0511 -1.3304,2.8947 -2.9565,4.0969 -1.6261,1.2022 -3.4027,3.4657 -3.948,5.0299 -0.63675,1.8266 -1.6958,2.8441 -2.9601,2.8441 -3.0672,0 -3.0441,-2.0668 0.0826,-7.3697 4.1274,-7.0001 3.9396,-7.4225 -5.1558,-11.595 -4.8543,-2.2267 -7.6146,-2.5689 -8.5474,-1.0595 -0.33182,0.53689 -0.87295,3.2529 -1.2025,6.0355 -0.60826,5.1358 -2.508,6.4057 -3.1398,2.0988 -0.41002,-2.7949 -2.6,-3.6924 -5.6352,-2.3094 -2.1753,0.99115 -9.359,-0.33681 -12.575,-2.3247 -1.3268,-0.82001 4.2292,-6.3253 5.7882,-5.7354 1.9983,0.75611 1.4439,2.259 -0.83333,2.259 -1.2318,0 -1.9057,0.51089 -1.6486,1.25 0.9913,2.8505 16.885,-0.59942 18.168,-3.9436 0.93523,-2.4372 -2.2638,-5.3876 -5.0763,-4.6818 -2.64,0.66259 -3.1282,-0.74184 -0.90061,-2.5906 2.2434,-1.8618 6.9245,-0.33474 10.946,3.5709 3.1534,3.0626 4.0148,3.407 7.082,2.8316 2.699,-0.50634 3.6321,-0.28969 4.1094,0.95423 1.47,3.8308 10.404,-0.0751 10.404,-4.5486 0,-0.84096 2.1375,-3.3352 4.75,-5.5427 4.1582,-3.5137 5.0516,-4.997 7.1708,-11.907 1.3314,-4.341 3.2239,-8.8005 4.2054,-9.9098 0.98153,-1.1093 1.7659,-2.9093 1.743,-4 -0.0229,-1.0907 0.26941,-2.9755 0.64958,-4.1885 0.58226,-1.8578 -0.0719,-2.6894 -4.1506,-5.2761 -2.663,-1.6888 -6.5268,-3.34 -8.5861,-3.6693 -2.0593,-0.3293 -4.2578,-1.2176 -4.8856,-1.9739 -1.4297,-1.7227 -5.2149,-1.8305 -4.6488,-0.13241 0.22784,0.68353 3.2354,2.874 6.6835,4.8677 l 6.2693,3.6249 -2.2888,2.1323 c -2.848,2.6533 -4.0872,2.6822 -5.6796,0.13231 -0.68696,-1.1 -1.9202,-2 -2.7405,-2 -0.82486,0 -1.4915,0.89394 -1.4915,2 0,1.2932 0.66667,2 1.8865,2 1.4488,0 2.04,0.98588 2.5484,4.25 0.75088,4.8208 3.524,8.75 6.1754,8.75 2.7242,0 0.28002,1.9608 -2.6545,2.1295 -1.3507,0.0776 -3.1308,-0.1327 -3.9558,-0.46741 -1.0357,-0.42019 -2.3544,0.80033 -4.2604,3.9433 -1.5182,2.5035 -2.5037,4.9673 -2.1898,5.4751 0.80593,1.304 -4.5561,3.1515 -7.5087,2.5871 -1.458,-0.27871 -2.8913,0.113 -3.5101,0.95923 -0.57523,0.78667 -2.3925,1.53 -4.0384,1.6518 -2.4491,0.18125 -2.9601,-0.14172 -2.8138,-1.7785 0.0983,-1.1 0.96753,-2.45 1.9315,-3 0.96401,-0.55 3.0059,-2.2375 4.5375,-3.75 1.6692,-1.6484 3.8783,-2.75 5.5147,-2.75 3.4714,0 10.337,-4.702 10.337,-7.0793 0,-5.1848 -11.211,-6.5977 -20.221,-2.5485 -2.9032,1.3047 -5.8937,3.408 -6.6457,4.674 l -1.3672,2.3018 -1.408,-3.3486 c -0.77439,-1.8417 -1.2707,-3.7605 -1.1029,-4.2638 0.1678,-0.50338 3.4416,-2.0234 7.2751,-3.3779 6.1267,-2.1647 7.4199,-2.3173 10.688,-1.2608 2.9499,0.95369 4.034,0.93926 5.25,-0.0699 2.1155,-1.7557 1.8622,-6.051 -0.52584,-8.9186 l -1.9917,-2.3917 -6.5562,1.7747 c -5.8097,1.5726 -6.726,1.6049 -8.047,0.28393 -1.0721,-1.0721 -1.2989,-2.5136 -0.80746,-5.133 0.37581,-2.0033 1.0511,-3.6423 1.5006,-3.6423 1.0928,0 3.9601,2.9151 3.9601,4.0261 0,0.48579 1.6142,1.1861 3.587,1.5562 3.1634,0.59346 3.9243,0.30357 6.4436,-2.4547 1.6265,-1.7808 3.8539,-3.1276 5.1724,-3.1276 1.2737,0 2.8779,-0.9 3.5648,-2 1.7318,-2.773 3.2535,-2.5295 9.372,1.5 2.923,1.925 5.8615,3.5 6.5301,3.5 0.6686,0 2.8265,0.95041 4.7952,2.112 3.0564,1.8033 3.9956,1.9397 6.4259,0.93306 1.5654,-0.64843 4.2726,-2.6506 6.016,-4.4493 l 3.1697,-3.2703 -4.4337,-4.0868 c -5.0002,-4.6091 -9.5958,-6.225 -17.726,-6.2331 -3.0708,-0.003 -5.8573,-0.27955 -6.1922,-0.61441 -0.33486,-0.33486 0.57864,-2.4032 2.03,-4.5964 2.523,-3.8125 2.8146,-3.9594 6.6426,-3.3473 2.202,0.35212 4.4761,1.0118 5.0534,1.466 2.2562,1.7752 8.7301,3.306 9.7343,2.3018 1.4913,-1.4913 -0.85008,-5.2153 -3.2789,-5.2153 -1.1131,0 -1.7457,-0.45 -1.4058,-1 0.33992,-0.55 2.1761,-1 4.0805,-1 2.8535,0 3.6488,0.4836 4.5225,2.75 2.5588,6.6379 6.5707,13.61 8.6109,14.963 2.2998,1.5262 3.2486,1.2834 9.7862,-2.5043 1.1,-0.63731 3.6875,-1.8221 5.75,-2.6329 2.0625,-0.81081 3.75,-2.1223 3.75,-2.9144 0,-2.4857 -3.3371,-5.3209 -7.6952,-6.5378 -4.061,-1.134 -7.2751,-4.5943 -11.364,-12.235 -1.3256,-2.4769 0.0205,-1.976 3.7801,1.4066 1.8826,1.6938 2.4651,1.7951 3.8262,0.66554 1.7532,-1.455 2.0268,-1.2247 4.9548,4.1718 1.6516,3.044 5.658,4.3873 8.5188,2.8562 4.4399,-2.3762 0.47692,-12.989 -4.8503,-12.989 -2.4912,0 -3.7032,-1.5353 -5.332,-6.754 -0.83503,-2.6755 -1.9175,-4.246 -2.9267,-4.246 -1.7171,0 -4.9115,3.0189 -4.9115,4.6416 0,1.924 -5.6487,6.3578 -8.0547,6.3224 l -2.4453,-0.036 2.75,-2.2516 c 3.6971,-3.027 3.4715,-4.2677 -1.2102,-6.6562 -7.4017,-3.776 -16.04,-1.64 -16.04,3.9664 0,2.6379 -3.1606,7.0133 -5.0661,7.0133 -1.5662,0 -2.7913,-2.6117 -1.892,-4.0335 0.51012,-0.80655 0.93437,-2.062 0.9428,-2.7898 0.0301,-2.6041 -2.8852,-0.59245 -6.1565,4.248 -4.2977,6.3593 -6.2423,7.5898 -8.4714,5.3607 -1.5743,-1.5743 -1.5156,-1.7559 0.92623,-2.8685 3.5151,-1.6016 4.1646,-3.7974 1.8702,-6.3224 -1.0468,-1.152 -2.4013,-3.0621 -3.01,-4.2447 -1.0833,-2.1047 -0.95388,-2.1497 6.125,-2.1314 8.9551,0.0232 15.499,-1.0196 18.423,-2.936 2.6553,-1.7398 12.112,-1.332 16.943,0.73058 3.0376,1.297 3.301,1.1978 8.5,-3.2011 2.9509,-2.4968 6.3777,-5.0667 7.6152,-5.7109 3.3806,-1.76 2.7481,-3.5826 -2.4347,-7.0155 -4.815,-3.1894 -7.209,-3.297 -10.315,-0.46401 -6.9756,6.3618 -16.686,11.884 -18.399,10.463 -0.77739,-0.64517 -3.8176,-0.85467 -7.6933,-0.53012 -3.5244,0.29513 -8.2482,0.67002 -10.497,0.83307 -2.2492,0.16306 -4.6047,0.61497 -5.2346,1.0042 -0.68296,0.42209 -1.9487,-0.61355 -3.136,-2.5658 -1.7297,-2.8443 -1.7934,-3.384 -0.48547,-4.1159 0.88574,-0.49569 3.448,-0.27509 6.2254,0.53596 3.7392,1.092 17.418,1.6224 22.536,0.87389 0.44903,-0.0657 0.67403,-1.3569 0.5,-2.8694 -0.6336,-5.5066 -16.511,-10.689 -17.844,-5.8241 -0.83773,3.058 -2.9724,3.114 -2.9724,0.078 0,-2.4123 -0.27028,-2.6034 -2.8732,-2.0317 -1.9707,0.43283 -3.0378,0.20209 -3.3972,-0.73455 -0.40369,-1.052 -1.8681,-1.2076 -6.3768,-0.67734 -4.9556,0.58277 -6.0827,0.41137 -7.3528,-1.1182 -0.825,-0.99355 -2.8462,-1.9495 -4.4914,-2.1243 -3.672,-0.39011 -4.5216,-3.2053 -1.4615,-4.843 1.5676,-0.83898 2.4701,-0.85766 3.2603,-0.0675 1.5811,1.5811 3.8528,1.3095 6.5787,-0.78651 1.5792,-1.2142 2.0019,-2.0721 1.25,-2.5368 -1.4184,-0.87661 -1.4876,-2.584 -0.10465,-2.584 0.56727,0 1.2858,0.7875 1.5967,1.75 0.3109,0.9625 1.2748,3.1673 2.1419,4.8996 1.4023,2.8012 1.834,3.0323 3.9034,2.0895 1.2797,-0.58305 2.3952,-1.5504 2.479,-2.1496 0.35904,-2.5681 0.50509,-3.2051 1.2243,-5.3395 1.1258,-3.3412 3.4444,-2.7795 3.81,0.92299 0.17235,1.7451 0.9441,3.3804 1.715,3.6339 1.0406,0.34217 1.242,-0.14941 0.78205,-1.9084 -0.46092,-1.7626 0.10855,-3.1414 2.2236,-5.3839 2.2211,-2.355 2.9641,-4.2726 3.3957,-8.7645 l 0.55249,-5.75 -2.9294,0 c -2.3697,0 -3.6158,0.95537 -6.5216,5 -3.9106,5.4432 -4.7943,5.8992 -6.2994,3.25 -0.83403,-1.468 -1.319,-1.5512 -3.0102,-0.51621 -1.1088,0.67858 -2.6422,0.99348 -3.4076,0.69977 -0.79914,-0.30666 -2.1217,0.58022 -3.1064,2.0831 -1.2857,1.9622 -2.0368,2.3499 -3.0015,1.5493 -0.7713,-0.64012 -3.1478,-0.81275 -5.9331,-0.43099 -5.2818,0.72395 -5.9726,-0.46327 -2.6147,-4.4938 1.5285,-1.8347 2.5554,-2.2106 4.6219,-1.692 1.5613,0.39187 2.9362,0.21459 3.3346,-0.42994 0.48032,-0.77717 1.474,-0.79403 3.4103,-0.0579 3.4195,1.3001 6.0292,0.0462 8.0542,-3.8698 0.81035,-1.567 2.165,-3.1146 3.0104,-3.439 1.9367,-0.74318 1.9816,-3.0387 0.0902,-4.6084 -1.1799,-0.97921 -7.0194,-1.8041 -14.232,-2.0104 -1.2852,-0.0368 -4.3308,-2.7633 -4.3061,-3.8551 0.008,-0.37321 0.44065,-1.3514 0.96051,-2.1737 0.82649,-1.3073 1.1072,-1.2838 2.2347,0.18709 0.70922,0.92522 2.9382,1.9784 4.9534,2.3403 3.0506,0.5479 3.8457,0.31837 4.75,-1.3714 1.6539,-3.0903 1.3281,-4.9771 -1.4996,-8.6844 -2.6547,-3.4804 -2.5369,-6.6531 0.16374,-4.4117 0.76998,0.63902 1.1674,1.5382 0.88317,1.9981 -0.28424,0.45991 0.86817,1.8602 2.5609,3.1116 2.7307,2.0189 3.0091,2.6817 2.4689,5.8791 -0.63362,3.7504 1.3032,6.8097 3.4652,5.4735 1.5271,-0.94381 1.2738,-6.2464 -0.42209,-8.8347 -0.80624,-1.2305 -1.213,-3.2043 -0.90389,-4.3864 0.47062,-1.7996 1.0939,-2.0628 3.8327,-1.6184 4.34,0.70428 6.7609,-2.4356 5.9222,-7.6808 -0.7969,-4.9835 1.6339,-7.153 3.9884,-3.5595 0.89456,1.3653 1.6265,3.343 1.6265,4.395 0,2.4293 2.5135,4.5583 4.4873,3.8009 0.832,-0.31927 1.5127,-1.2808 1.5127,-2.1366 0,-1.8143 4.2951,-3.7144 6.4913,-2.8716 1.8321,0.70303 1.9625,2.0362 0.25868,2.6447 -0.6875,0.24554 -0.88172,0.83881 -0.43161,1.3184 0.45266,0.48229 1.5699,-0.0605 2.5,-1.2146 2.5672,-3.1853 9.7692,-5.6747 12.378,-4.2784 1.9117,1.0231 11.717,2.8105 17.706,3.2276 3.7895,0.26388 4.9154,-4.3756 2.0413,-8.4118 -1.9813,-2.7824 -2.5922,-3.042 -5.8285,-2.4762 -9.6357,1.6846 -10.938,1.6984 -13.936,0.14798 -4.22,-2.1822 -4.6192,-2.0934 -9.2028,2.0476 -2.2161,2.0021 -4.3038,3.3657 -4.6393,3.0302 -0.3355,-0.33551 -0.72911,-2.9861 -0.87467,-5.8902 -0.14557,-2.9041 -0.58232,-6.0677 -0.97055,-7.0302 -1.2137,-3.009 1.3584,-1.9402 3.0081,1.25 1.8876,3.6502 6.3084,4.0824 10.227,1 3.329,-2.6186 4.2729,-2.523 4.2729,0.43261 0,3.0796 1.3808,3.4471 12,3.194 l 8.5,-0.20263 0.60787,-4.962 c 0.33433,-2.7291 0.3919,-5.3454 0.12792,-5.814 -0.80545,-1.4298 -6.9918,-3.6479 -10.174,-3.6479 -1.7255,0 -4.8232,-1.2814 -7.2821,-3.0122 -2.3536,-1.6567 -6.3042,-3.3674 -8.7792,-3.8014 -4.2968,-0.7535 -4.3962,-0.84605 -2.2005,-2.0494 l 2.2995,-1.2603 -3.0495,-3.4731 c -1.6772,-1.9102 -3.0495,-3.9075 -3.0495,-4.4384 0,-2.1024 4.5842,-0.79128 7.6614,2.1912 2.7319,2.6479 3.5041,2.9511 4.7924,1.8818 1.2078,-1.0023 1.3953,-2.4776 0.87782,-6.9064 -0.60447,-5.1737 -0.5227,-5.5202 1.0052,-4.2594 0.91473,0.75485 1.6632,2.4798 1.6632,3.8333 0,3.7865 2.3087,2.2455 3.8603,-2.5768 1.1989,-3.726 1.1692,-4.4389 -0.25,-6.0071 -0.88569,-0.97867 -1.6103,-2.2799 -1.6103,-2.8916 0,-2.2161 2.1971,-2.3958 4.1155,-0.33663 1.0793,1.1585 2.6357,2.1064 3.4586,2.1064 1.2575,0 1.2956,0.35893 0.23881,2.25 -1.8281,3.2712 -3.7749,11.13 -2.9654,11.971 0.38161,0.39636 3.3845,1.5398 6.6732,2.541 6.4013,1.9488 7.2142,3.0636 3.5622,4.8843 -1.8404,0.91755 -3.1245,0.78824 -6.4408,-0.6486 -2.2781,-0.98704 -5.6046,-2.101 -7.3921,-2.4755 -2.8338,-0.59365 -3.25,-0.41749 -3.25,1.3756 0,2.8388 4.2091,5.3316 9.269,5.4895 5.4663,0.17063 10.2,4.4574 9.3851,8.499 -0.28988,1.4377 -0.0348,4.3002 0.56689,6.3612 0.89566,3.068 0.81369,4.065 -0.45223,5.5 -0.85039,0.96401 -1.8494,3.1804 -2.2199,4.9252 -0.54861,2.5833 -0.10339,3.9598 2.3973,7.412 2.6222,3.6198 3.0386,5.0147 2.8491,9.5436 -0.18687,4.4658 0.24877,5.9812 2.7563,9.588 1.638,2.3562 4.4243,4.959 6.1917,5.784 1.7674,0.825 3.2232,2.0467 3.2351,2.7148 0.0119,0.66815 0.91698,1.694 2.0113,2.2796 1.0943,0.58566 2.6809,2.4015 3.5257,4.0352 1.8694,3.6151 3.7203,3.7347 7.8403,0.50688 6.1272,-4.8004 6.8206,-5.6418 6.0686,-7.3638 -0.40173,-0.91997 -0.62528,-4.1477 -0.49679,-7.1727 0.63783,-15.015 0.67952,-21.014 0.15172,-21.833 -0.31853,-0.49403 -2.4916,-1.8678 -4.8292,-3.0529 -2.3375,-1.1851 -4.25,-2.8205 -4.25,-3.6343 0,-0.81383 -0.80391,-2.2836 -1.7865,-3.2662 -0.98257,-0.98257 -2.8228,-3.4633 -4.0894,-5.5126 -2.5721,-4.1617 -4.8377,-5.7009 -8.3917,-5.7009 -1.3195,0 -2.6921,-0.29301 -3.0502,-0.65112 -0.86949,-0.86949 2.3853,-3.277 4.4845,-3.3171 2.1316,-0.0407 2.6878,-1.6553 2.0781,-6.0318 -0.59692,-4.2844 -2.5863,-6 -6.9573,-6 -2.5819,0 -3.5863,-0.56181 -4.4694,-2.5 -0.6265,-1.375 -1.4988,-2.5 -1.9384,-2.5 -0.43964,0 -1.345,-1.9125 -2.012,-4.25 -0.66697,-2.3375 -1.911,-5.0719 -2.7644,-6.0765 -1.4246,-1.6769 -1.349,-1.988 0.92252,-3.7977 2.4292,-1.9352 2.4378,-1.993 0.47426,-3.1735 -3.5143,-2.1127 -12.577,-11.77 -11.968,-12.754 0.92269,-1.493 2.0862,-1.1412 5.373,1.6245 2.0838,1.7534 3.7029,2.3686 5.0816,1.931 2.3585,-0.74856 2.5554,-0.36661 4.3522,8.4418 0.72225,3.5408 1.7893,6.5965 2.3713,6.7904 1.9147,0.63823 3.8938,-2.4158 5.2624,-8.1204 1.3774,-5.7418 2.3364,-6.8605 3.4324,-4.0043 0.4373,1.1396 1.4941,1.4833 3.607,1.1732 1.6437,-0.24124 2.9885,-0.0956 2.9885,0.32364 0,0.41923 -3.1461,4.0538 -6.9913,8.0768 -3.8452,4.023 -6.9952,8.0337 -7,8.9127 -0.005,0.90878 1.7646,2.3978 4.1023,3.4519 l 4.111,1.8538 2.639,-3.0546 c 1.4515,-1.68 5.9178,-4.5834 9.9253,-6.4519 5.8584,-2.7316 7.3987,-3.9218 7.8603,-6.0737 0.35691,-1.664 1.0707,-2.4857 1.8871,-2.1724 2.019,0.77479 3.3881,-2.8161 2.7858,-7.3067 -0.43611,-3.2514 -0.19804,-4.1771 1.2136,-4.7188 1.0034,-0.38502 2.4444,-0.0564 3.3616,0.76654 0.88296,0.79224 2.9554,1.5968 4.6054,1.7878 l 3,0.34738 -3.25,1.762 c -2.6883,1.4575 -3.25,2.3522 -3.25,5.1773 0,4.1024 0.40686,4.3914 5.3181,3.7766 l 3.8181,-0.47795 -0.65597,-3.8826 c -0.38556,-2.2821 -0.25798,-3.8826 0.30949,-3.8826 1.902,0 3.2589,2.8361 3.6339,7.5954 0.3383,4.2936 0.70257,4.9433 3.2289,5.759 3.804,1.2282 3.7631,1.1656 3.5419,5.4228 -0.24722,4.7569 0.9901,6.791 3.4548,5.6795 1.018,-0.4591 3.8759,-1.3216 6.3509,-1.9167 3.9003,-0.93777 4.4808,-1.4124 4.356,-3.561 -0.35895,-6.1779 -5.0402,-13.979 -8.3885,-13.979 -2.6467,0 -4.2964,-2.5169 -3.1066,-4.74 0.54979,-1.0273 0.63617,-2.4559 0.19196,-3.1746 -0.44421,-0.71875 -0.60043,-2.0993 -0.34715,-3.0678 0.60168,-2.3008 -5.4419,-8.0068 -8.487,-8.013 -2.5066,-0.005 -2.4756,0.0592 -4.0794,-8.4636 -1.2247,-6.5083 -0.0179,-9.9822 1.8035,-5.1916 0.5594,1.4713 2.1425,3.1879 3.5179,3.8146 1.3755,0.6267 2.752,1.9309 3.0591,2.8982 0.30702,0.96733 1.7053,2.5104 3.1074,3.429 1.9474,1.276 2.4092,2.2278 1.9562,4.0326 -0.47337,1.886 -0.0375,2.6308 2.1619,3.6936 2.3861,1.153 2.7548,1.919 2.7548,5.7228 0,7.9287 3.6455,6.2612 6.9431,-3.1759 2.3319,-6.6735 2.0176,-9.7645 -0.99279,-9.7645 -0.96219,0 -1.4503,-1.0673 -1.4503,-3.1713 0,-1.7442 -0.72958,-3.9774 -1.6213,-4.9628 -1.8524,-2.0469 -1.2015,-4.866 1.1236,-4.866 0.8608,0 2.8848,-1.35 4.4977,-3 3.5203,-3.6012 4.3575,-3.7055 5.7211,-0.71286 0.82126,1.8025 0.65869,2.7606 -0.76718,4.5215 -1.0601,1.3092 -2.0707,1.8114 -2.4406,1.2129 -0.34722,-0.56183 -1.5048,-1.0215 -2.5723,-1.0215 -1.3963,0 -1.941,0.69165 -1.941,2.4648 0,3.0836 3.4354,5.2486 5.5474,3.4959 1.9573,-1.6244 3.5494,2.668 2.7703,7.469 -0.68692,4.233 0.38712,4.5339 5.3143,1.4887 2.3718,-1.4659 3.368,-2.8215 3.368,-4.5833 0,-3.6778 2.3998,-2.346 3,1.6649 0.275,1.8376 1.032,3.5166 1.6823,3.7313 1.6239,0.53604 3.455,-3.1774 2.6669,-5.4088 -0.43439,-1.23 -0.31259,-1.4974 0.37468,-0.82244 0.56006,0.55 1.277,3.3368 1.5933,6.1928 l 0.57501,5.1928 -3.6961,0.31179 c -2.0329,0.17148 -4.6373,-0.0675 -5.7876,-0.53114 -1.5691,-0.63238 -3.3512,-0.0678 -7.1349,2.2603 -5.1194,3.15 -6.6708,5.5603 -7.8082,12.131 -0.55452,3.2034 -0.20315,3.9698 3.533,7.706 4.7462,4.7462 7.461,5.9303 9.5747,4.176 1.2983,-1.0775 1.2828,-1.4409 -0.12835,-3.0002 -1.6641,-1.8388 -1.6622,-6.4391 0.003,-6.4391 0.52112,0 2.7356,2.61 4.921,5.7999 3.3211,4.8476 4.397,5.7507 6.5525,5.5 2.0782,-0.24168 2.6381,-0.90734 2.8833,-3.4279 0.25334,-2.6045 -0.10468,-3.2306 -2.1394,-3.7413 -1.55,-0.38903 -2.6877,-1.5855 -3.1109,-3.2718 -0.54966,-2.19 -0.005,-3.3363 3.0881,-6.5044 4.2386,-4.3407 6.5693,-5.3952 8.9634,-4.0554 1.4041,0.78577 1.2788,1.0132 -0.85323,1.5483 -1.5078,0.37844 -2.994,1.8222 -3.747,3.6399 -1.5553,3.7549 -0.32087,7.1715 4.5806,12.678 2.8109,3.1579 4.0754,3.8347 7.1638,3.8347 3.3945,0 3.7817,0.27484 4.0809,2.8963 l 0.33054,2.8963 -3.373,-1.9901 c -3.1305,-1.8471 -3.545,-1.8755 -5.7669,-0.39629 -1.3594,0.90506 -5.446,1.8099 -9.4566,2.0938 l -7.0627,0.5 -0.20271,5 c -0.37127,9.1579 4.7118,24.513 9.5608,28.882 1.9777,1.7819 2.2256,1.792 4.668,0.19173 2.8705,-1.8808 4.3918,-4.7669 2.7936,-5.2996 -0.57095,-0.19032 -1.7973,-0.90115 -2.7251,-1.5796 -1.5528,-1.1354 -1.5623,-1.5105 -0.11992,-4.7139 0.86191,-1.9142 3.1244,-5.5054 5.0276,-7.9804 1.9033,-2.475 4.4184,-6.2674 5.589,-8.4275 1.698,-3.1331 2.3035,-3.6148 2.9939,-2.3811 0.47597,0.85052 2.2495,2.1197 3.9412,2.8204 2.2275,0.92267 2.8923,1.7173 2.4102,2.8811 -0.36608,0.88389 -0.89203,2.3946 -1.1688,3.3571 -0.75063,2.6106 2.8546,2.235 6.2083,-0.64681 2.5669,-2.2057 2.6989,-2.6561 1.6555,-5.6492 -1.5344,-4.4017 -1.4343,-5.6534 0.6162,-7.704 0.9625,-0.9625 1.75,-2.65 1.75,-3.75 0,-1.4384 0.77214,-2.0888 2.75,-2.3164 1.5128,-0.17407 2.75,-0.93484 2.75,-1.691 0,-1.9842 -1.7169,-2.7504 -3.6894,-1.6465 -2.5902,1.4496 -6.0949,-0.33683 -11.005,-5.6094 -4.1035,-4.4065 -5.0992,-7.1963 -2.8056,-7.8606 0.55,-0.15931 2.7712,1.9533 4.936,4.6948 4.4407,5.6235 7.8497,7.0932 10.399,4.4831 1.558,-1.5954 1.4558,-1.8824 -1.5846,-4.4525 -1.7875,-1.5109 -3.25,-3.0432 -3.25,-3.4052 0,-0.36192 2.0332,-0.37935 4.5183,-0.0387 3.6031,0.49387 4.9384,0.23908 6.5926,-1.2579 2.5257,-2.2858 4.0481,-5.0117 4.8127,-8.6177 0.6814,-3.2135 2.6004,-2.5262 3.5539,1.2727 0.50774,2.023 -0.16424,3.4439 -3.3294,7.0397 -4.9291,5.5998 -6.4049,12.339 -3.6297,16.574 1.6663,2.5431 1.6637,2.7251 -0.0563,3.9828 -1.1411,0.83437 -3.1542,1.1018 -5.4866,0.7288 l -3.6842,-0.58913 -0.58281,4.3452 c -0.40929,3.0514 -0.15491,4.8181 0.85431,5.9332 1.6471,1.82 1.9231,6.5121 0.43713,7.4305 -0.55,0.33992 -1,1.4433 -1,2.452 0,2.2531 -1.757,3.0082 -5.3855,2.3146 -1.5173,-0.29005 -3.7388,-0.0375 -4.9366,0.56127 -1.1978,0.59875 -4.0142,1.5542 -6.2586,2.1233 l -4.0807,1.0347 0.15326,5.757 c 0.32717,12.29 0.29613,12.167 3.2582,12.89 1.5125,0.36935 3.8232,1.5029 5.1349,2.519 3.4905,2.704 5.1151,2.343 5.1151,-1.1367 0,-1.89 1.0742,-4.1817 2.9295,-6.25 l 2.9295,-3.2658 3.4541,1.8448 c 2.8407,1.5172 4.4005,1.6942 8.783,0.99657 4.3885,-0.69854 5.7029,-1.4032 7.4485,-3.9935 3.2829,-4.8715 2.9752,-9.9492 -1.1117,-18.347 l -3.5418,-7.2777 2.3658,-2.6116 c 3.7281,-4.1154 4.7925,-7.4044 3.307,-10.219 -1.0786,-2.0435 -0.96381,-2.9445 0.78645,-6.1709 1.8256,-3.3652 1.9184,-4.2682 0.84961,-8.2644 -0.66031,-2.4675 -1.2003,-5.1548 -1.2003,-5.972 0,-1.9384 2.8934,-1.927 3.6384,0.0143 0.31659,0.825 1.4009,1.5 2.4096,1.5 2.5171,0 3.5842,2.0641 1.7585,3.4017 -2.7994,2.051 -4.4036,6.8894 -3.8426,11.589 0.59804,5.0097 2.6365,6.2657 5.5082,3.3941 1.6197,-1.6197 1.5848,-1.7848 -0.62862,-2.9776 -2.1374,-1.1518 -2.1836,-1.3248 -0.52618,-1.968 0.99947,-0.3878 2.327,-0.19534 2.95,0.42769 1.5372,1.5372 4.2435,1.4273 5.6174,-0.22819 0.84917,-1.0232 0.75126,-2.2662 -0.3945,-5.0084 -0.85559,-2.0477 -1.2497,-4.7402 -0.89865,-6.139 0.47233,-1.8819 0.23178,-2.4916 -0.98306,-2.4916 -1.8372,0 -2.0395,-1.7361 -0.63316,-5.4349 1.2743,-3.3516 2.6433,-3.2407 4.8531,0.39301 1.7658,2.9036 1.8298,2.922 3.4755,1 2.5535,-2.9823 3.9658,-2.4622 3.1687,1.1668 -0.47414,2.1588 -0.26683,3.3907 0.67055,3.9847 1.082,0.68558 1.0299,0.86287 -0.25725,0.87508 -1.6241,0.0154 -4.9132,7.0455 -4.6857,10.015 0.37894,4.9475 -0.20755,5.6875 -6.444,8.1316 -4.0112,1.572 -6.3688,3.0957 -6.5933,4.2613 -0.30768,1.5976 0.13514,1.7325 3.7072,1.129 7.9852,-1.3491 7.5209,1.5077 -0.99886,6.1447 -3.9477,2.1486 -4.8712,3.1568 -4.8712,5.318 0,1.5466 1.0428,3.6464 2.4825,4.999 1.907,1.7915 2.4596,3.2809 2.3835,6.4243 -0.14527,6.0057 -0.007,6.5921 1.5488,6.5921 2.186,0 8.5852,-9.369 8.5852,-12.57 0,-1.5409 -0.97677,-3.8413 -2.1706,-5.1121 -2.8284,-3.0106 -1.5216,-4.3174 1.489,-1.489 1.2708,1.1938 2.7948,2.1706 3.3867,2.1706 1.6294,0 2.1347,-6.8881 0.59885,-8.1628 -1.664,-1.381 -1.6774,-2.8372 -0.0261,-2.8372 1.5959,0 4.298,3.0881 5.2064,5.95 0.4146,1.3063 1.3464,2.0341 2.3513,1.8365 1.3817,-0.27164 1.6065,-1.3641 1.3227,-6.429 -0.37099,-6.6223 1.6706,-12.358 4.3989,-12.358 2.2836,0 2.5815,1.9161 1.4018,9.0177 -0.59223,3.5653 -1.3225,8.1698 -1.6229,10.232 -0.59776,4.1048 -0.67599,4.1736 -3.2056,2.8198 -2.1586,-1.1553 -3.2546,-0.40306 -4.9979,3.4302 -2.0009,4.3998 -2.3572,5.0105 -5.4778,9.3897 -3.021,4.2394 -2.8523,5.7044 0.81761,7.0997 1.5706,0.59712 2.4921,2.0072 2.9673,4.5405 0.37913,2.0209 0.41372,3.95 0.0769,4.2868 -1.1478,1.1478 -4.0173,-1.5931 -3.7934,-3.6234 0.17238,-1.563 -0.73811,-2.3508 -4,-3.461 -2.4962,-0.84957 -5.041,-1.1175 -6.2232,-0.65515 -1.1,0.43019 -3.2893,0.8138 -4.8651,0.85245 -1.9415,0.0476 -3.8986,1.1986 -6.071,3.5703 -2.949,3.2196 -3.6648,3.5 -8.9345,3.5 -8.005,0 -11.629,2.0338 -11.629,6.5257 0,3.8496 0.90807,4.2359 4.4706,1.9017 1.3201,-0.86496 3.6668,-1.4006 5.2148,-1.1904 2.5298,0.3436 2.6122,0.467 0.81464,1.2192 -2.872,1.2019 -7.5,5.6832 -7.5,7.2623 0,2.3841 2.7833,2.5016 5.8338,0.2463 5.7916,-4.2819 5.7075,-1.4444 -0.12462,4.2043 -4.8932,4.7393 -5.7091,6.0514 -5.7091,9.1803 0,2.0079 -0.41786,3.6507 -0.92857,3.6507 -2.0689,0 -4.0612,3.1927 -3.4677,5.5573 0.48804,1.9445 0.11198,2.6003 -1.9383,3.3798 -3.7159,1.4128 -5.3168,4.8401 -3.2339,6.923 1.2436,1.2436 3.5044,1.6111 9.5976,1.5602 6.8905,-0.0576 7.9708,0.16599 7.9708,1.6495 0,1.8235 2.5687,3.3147 4.0902,2.3743 1.711,-1.0574 0.97774,-7.0727 -1.0902,-8.9442 -2.6667,-2.4134 -2.6242,-7.0956 0.0776,-8.5415 1.1613,-0.62152 1.8421,-1.7254 1.5437,-2.5032 -0.72724,-1.8952 0.77957,-2.6438 3.797,-1.8865 2.8056,0.70415 4.3682,4.0448 2.6812,5.7318 -2.787,2.787 -0.20174,7.9528 3.1507,6.2953 6.2996,-3.1146 7.2497,-4.2416 7.5566,-8.9647 0.27742,-4.2697 -0.0347,-5.0594 -3.2839,-8.3086 -3.2991,-3.2991 -3.4602,-3.7216 -1.9849,-5.2066 0.88305,-0.88885 2.4667,-3.0786 3.5192,-4.8661 1.135,-1.9276 2.7191,-3.25 3.8932,-3.25 2.1682,0 4.0499,-2.7297 4.0499,-5.8752 0,-2.8956 1.7236,-3.5359 4.544,-1.6879 2.5896,1.6968 3.3991,3.8622 1.1162,2.9862 -1.8456,-0.70822 -4.0053,2.1492 -3.3933,4.4895 0.34428,1.3166 -0.56482,2.8685 -2.882,4.92 -3.9615,3.5072 -4.7423,8.6018 -1.4773,9.6381 1.0492,0.333 2.1601,1.2633 2.4686,2.0674 0.6794,1.7705 2.8931,1.8556 7.2534,0.27891 2.5208,-0.91155 3.8696,-0.91058 5.8774,0.004 3.1196,1.4214 2.542,2.7136 -2.0754,4.6429 -2.9628,1.2379 -3.4316,1.9023 -3.4316,4.8624 0,1.8857 0.68516,3.9972 1.5226,4.6922 0.84146,0.69835 1.2706,2.0575 0.95932,3.0383 -0.66679,2.1009 0.70107,3.1937 2.9279,2.3392 1.9119,-0.73366 2.034,-2.6967 0.34024,-5.4707 -1.067,-1.7476 -0.95722,-2.2645 0.75,-3.531 1.1,-0.81602 2.98,-1.2382 4.1777,-0.93819 1.2688,0.31781 2.8165,-0.0933 3.7081,-0.98497 1.8836,-1.8836 5.7417,-1.0929 8.2634,1.6936 1.7577,1.9422 1.7364,1.97 -0.98833,1.2861 -1.8428,-0.4625 -4.1463,-0.085 -6.8096,1.116 -3.5871,1.6175 -3.9647,2.116 -3.4713,4.5828 0.50504,2.5252 -0.0353,3.1465 -6.1632,7.087 -3.6942,2.3755 -7.6168,4.8025 -8.7168,5.3933 -2.3758,1.276 -3.1365,4.898 -1.4543,6.9249 0.65957,0.79473 2.4941,1.445 4.0768,1.445 1.5827,0 2.8776,0.25458 2.8776,0.56574 0,1.5909 -2.99,5.6802 -9.1589,12.526 -3.7626,4.1757 -6.8411,8.0644 -6.8411,8.6416 0,0.57717 -1.1364,1.3346 -2.5252,1.6832 -2.4728,0.62063 -2.5118,0.77348 -1.8789,7.3584 0.50004,5.2026 1.1744,7.2335 2.9796,8.9727 3.1409,3.0263 4.192,8.7464 2.0434,11.121 -0.89033,0.98382 -1.6188,2.2893 -1.6188,2.901 0,1.6267 -2.0884,2.6523 -5.4856,2.6938 -2.1822,0.0267 -3.0829,0.57464 -3.3473,2.0365 -0.19892,1.1 -1.3819,3.125 -2.6288,4.5 -2.7424,3.0241 -3.7477,6.611 -2.1852,7.7967 1.4599,1.1078 17.855,-0.13921 23.205,-1.7649 2.2318,-0.67822 5.1281,-2.0405 6.4363,-3.0272 2.3242,-1.7532 2.3484,-1.9278 1.0574,-7.6493 -1.4044,-6.2241 -1.989,-21.515 -0.95036,-24.855 0.34209,-1.1 1.1117,-3.5062 1.7103,-5.3472 0.90084,-2.7706 0.76744,-3.9459 -0.77438,-6.8226 -1.8503,-3.4523 -1.8464,-3.5122 0.5842,-9.0082 1.3458,-3.0431 3.1066,-6.1925 3.9129,-6.9988 0.80628,-0.80628 1.466,-2.277 1.466,-3.2684 0,-1.7873 10.318,-14.204 12.411,-14.935 2.4392,-0.85186 4.5895,-3.5689 4.5895,-5.7992 0,-1.6076 0.80403,-2.6755 2.5,-3.3203 2.8683,-1.0905 3.3449,-4.4755 1.0642,-7.5589 -0.92971,-1.257 -1.263,-3.3509 -0.94547,-5.9411 0.75856,-6.189 -1.9259,-9.6144 -9.2554,-11.81 -6.6199,-1.983 -8.8073,-2.1924 -12.113,-1.1596 -1.6606,0.51875 -2.25,0.30123 -2.25,-0.83045 0,-0.84331 0.5625,-1.7637 1.25,-2.0453 0.80976,-0.33171 0.10219,-1.5057 -2.009,-3.3333 -3.9454,-3.4152 -4.0687,-4.321 -0.58824,-4.321 l 2.6528,0 -0.64702,-10.75 c -0.35586,-5.9125 -0.92709,-11.762 -1.2694,-13 -0.45277,-1.6368 -0.19785,-2.25 0.93538,-2.25 1.0296,0 1.8375,1.4146 2.3828,4.1721 0.93177,4.7117 2.0126,5.4844 4.8102,3.4387 1.538,-1.1246 2.0687,-3.1347 2.5779,-9.7635 0.38618,-5.0279 0.24714,-8.8444 -0.34962,-9.5973 -0.70448,-0.88881 -0.54163,-1.25 0.56359,-1.25 0.85489,0 2.5156,-1.35 3.6905,-3 1.1749,-1.65 2.6106,-3 3.1905,-3 0.65846,0 0.59089,0.55844 -0.17997,1.4873 -0.67888,0.81799 -0.95116,2.2252 -0.60507,3.127 0.35853,0.93434 -0.0195,2.1229 -0.87883,2.7627 -1.1197,0.83377 -1.2988,1.8955 -0.69545,4.1229 0.99999,3.6917 3.3315,4.3285 4.6706,1.2755 0.54897,-1.2516 2.0106,-2.4193 3.2481,-2.5951 3.9935,-0.56717 2.5888,3.0207 -3.3284,8.5012 -6.2983,5.8334 -6.9345,8.7935 -1.9032,8.8545 3.3821,0.041 3.8188,1.4766 0.90165,2.9638 -1.0788,0.55 -3.3559,2.0013 -5.0602,3.2251 -1.7043,1.2238 -4.2754,2.6725 -5.7136,3.2193 l -2.615,0.99421 2.071,3.5101 c 2.0626,3.4958 10.845,11.551 12.594,11.551 0.5054,0 0.91891,-2.1466 0.91891,-4.7702 0,-2.6236 0.69321,-6.1111 1.5405,-7.75 0.84725,-1.6389 2.225,-4.5548 3.0616,-6.4798 3.0435,-7.0027 3.7898,-8.5303 4.9659,-10.164 0.95431,-1.3256 0.83408,-2.4708 -0.59126,-5.6317 -1.4481,-3.2114 -1.5642,-4.3881 -0.6088,-6.1732 1.3906,-2.5984 0.49474,-11.14 -1.5969,-15.224 -0.92259,-1.8018 -1.0348,-2.906 -0.33895,-3.3361 1.5893,-0.98225 4.153,1.6547 3.6137,3.717 -0.28968,1.1078 0.33012,2.3933 1.5739,3.2645 1.9113,1.3387 1.9698,1.8004 0.85488,6.7425 -2.0256,8.9783 -2.0002,9.0963 2.1723,10.103 2.0692,0.49902 4.4317,0.65042 5.25,0.33644 2.3091,-0.88611 1.8106,-7.2002 -1.0124,-12.821 -2.4931,-4.9637 -3.292,-9.8131 -1.6166,-9.8131 0.4858,0 1.134,0.95845 1.4403,2.1299 0.411,1.5717 1.0313,1.9454 2.3667,1.4259 0.9953,-0.38719 2.2399,-0.78313 2.7657,-0.87988 1.6734,-0.30786 2.3835,8.5451 1.0288,12.824 -2.0099,6.3486 -1.5879,11.633 0.777,9.7281 0.6809,-0.54844 2.6486,-1.2984 4.3724,-1.6667 2.9828,-0.63716 3.1535,-0.50462 3.5326,2.7427 l 0.3984,3.4122 -3.2505,-1.3582 c -1.7878,-0.74698 -4.2144,-1.3582 -5.3924,-1.3582 -2.6658,0 -13.922,11.437 -13.922,14.145 0,2.7302 2.7225,3.4159 5.0825,1.2801 1.4527,-1.3146 3.7797,-1.8581 8.4137,-1.9648 5.689,-0.13107 6.4392,0.0752 6.7048,1.8438 0.4489,2.9895 3.3441,4.4608 5.782,2.9384 2.9947,-1.8702 4.017,-1.5179 4.017,1.3845 0,2.5508 -0.1458,2.6132 -5.0101,2.1458 -2.7949,-0.26856 -5.8745,-1.2636 -6.965,-2.2505 -1.4214,-1.2864 -2.7147,-1.5698 -4.7398,-1.0385 -1.5318,0.4018 -5.3497,0.94609 -8.4842,1.2095 -6.608,0.55536 -8.5272,2.0808 -6.7638,5.3758 0.70101,1.3099 0.91923,3.8023 0.54033,6.1717 l -0.63555,3.9746 3.779,-0.5401 c 2.0784,-0.29705 6.5725,-1.1993 9.9868,-2.005 5.5762,-1.3159 6.5681,-1.3016 9.75,0.14064 3.0137,1.366 3.5422,2.0967 3.5422,4.8972 0,3.5559 -1.0268,4.1692 -3,1.7916 -1.2797,-1.542 -7,-2.123 -7,-0.71096 0,0.43397 -2.743,0.77147 -6.0957,0.75 -3.3526,-0.0215 -6.5526,0.24339 -7.111,0.58858 -0.63121,0.39019 0.0408,3.0382 1.7764,7 3.419,7.8041 4.2048,8.8961 5.9267,8.2354 0.7427,-0.28497 1.8506,0.41678 2.4621,1.5594 0.6115,1.1427 2.0448,2.0776 3.1851,2.0776 1.6982,0 1.9625,0.44114 1.4612,2.4387 -0.3367,1.3413 -0.1605,2.7179 0.3916,3.059 1.6922,1.0459 1.1158,3.2397 -0.9964,3.792 -2.3147,0.60532 -2.7332,3.7102 -0.5,3.7102 2.4838,0 1.7079,2.0678 -2.1362,5.6932 -3.2575,3.0722 -3.5101,3.6648 -2.4264,5.6898 0.6654,1.2433 2.6069,3.3532 4.3145,4.6887 3.1642,2.4748 4.8336,4.1988 9.0112,9.3064 1.8102,2.2132 2.8607,2.7174 4.5466,2.1823 3.0165,-0.95741 4.3874,-3.937 4.5806,-9.9562 0.09,-2.8073 0.5363,-5.7 0.9916,-6.4282 0.5279,-0.84458 0.066,-2.1353 -1.2771,-3.5644 -1.1576,-1.2322 -2.1048,-3.1688 -2.1048,-4.3035 0,-1.1347 -0.6631,-2.6135 -1.4736,-3.2861 -1.2976,-1.0768 -1.2945,-1.5696 0.026,-4.1224 2.064,-3.9915 2.8203,-3.6297 2.0807,0.99551 -1.0297,6.4395 3.3299,6.5035 8.6948,0.12762 3.0516,-3.6266 3.6489,-3.6794 5.9435,-0.52515 1.7628,2.4233 1.7562,2.4384 -1.4251,3.2627 -1.7578,0.45549 -4.1035,2.0436 -5.2126,3.5292 l -2.0166,2.701 2.1916,2.9644 c 1.2054,1.6304 2.1916,3.4584 2.1916,4.0623 0,0.67186 1.6303,0.97865 4.2007,0.79049 5.8892,-0.43111 8.3334,-4.6208 8.042,-13.785 -0.4485,-14.103 -0.3759,-20.718 0.2774,-25.272 0.7413,-5.1681 -0.4164,-6.0807 -4.4881,-3.5378 -1.0676,0.66667 -2.2952,0.85792 -2.7281,0.42499 -0.433,-0.43293 0,-1.2258 0.9545,-1.7618 0.9579,-0.53608 1.7416,-1.8006 1.7416,-2.81 0,-1.0094 1.125,-2.5724 2.5,-3.4734 2.4298,-1.592 2.5,-1.5699 2.5,0.78716 0,1.7956 0.7789,2.6967 3,3.471 3.2578,1.1357 3.6952,2.6493 1.574,5.4463 -0.7493,0.98806 -1.1325,2.6756 -0.8516,3.75 0.3846,1.4706 0,1.9535 -1.5467,1.9535 -2.6472,0 -3.0474,0.77801 -2.4431,4.75 0.6154,4.0449 2.4475,4.1501 6.0315,0.3464 3.2578,-3.4574 7.7484,-4.8094 8.6003,-2.5893 0.3151,0.82108 1.262,1.4929 2.1043,1.4929 0.8422,0 1.5313,0.65254 1.5313,1.4501 0,1.0627 -1.5271,1.5302 -5.7167,1.75 -5.0678,0.26586 -5.8907,0.61488 -7.25,3.075 -1.3607,2.4628 -1.3645,2.8831 -0.033,3.7347 0.825,0.52777 3.075,0.99294 5,1.0337 3.1326,0.0663 3.2974,0.19917 1.5698,1.2653 -1.0616,0.65515 -3.5203,2.6042 -5.4637,4.3312 -2.8879,2.5662 -3.3128,3.4061 -2.325,4.5962 1.87,2.2532 7.3994,1.4278 10.656,-1.5907 3.2345,-2.9976 5.5625,-2.1798 5.5625,1.9539 0,3.7707 -4.0582,5.7832 -10.057,4.9874 -7.0931,-0.94094 -10.496,1.5339 -11.428,8.3105 -0.8545,6.2133 1.4812,11.599 4.669,10.765 1.1174,-0.2922 3.1044,-0.12339 4.4156,0.37512 3.5764,1.3598 5.4013,0.19794 5.4013,-3.4387 0,-1.9314 1.3747,-5.3369 3.4888,-8.643 1.9188,-3.0007 4.03,-6.6603 4.6916,-8.1325 1.4115,-3.1411 5.6038,-5.4391 7.133,-3.9098 0.6789,0.67886 1.935,0.46221 3.8381,-0.66194 2.213,-1.3073 3.0923,-1.4077 4.0387,-0.46127 0.941,0.94096 0.9431,1.4765 0.01,2.4098 -1.6685,1.6685 -1.5003,3.8 0.3,3.8 0.9128,0 1.5,-0.93088 1.5,-2.3779 0,-3.5904 2.8293,-9.6221 4.5134,-9.6221 0.8199,0 1.4866,0.89691 1.4866,2 0,1.1 -0.45,2 -1,2 -0.55,0 -1,1.6556 -1,3.679 0,3.4728 -1.3361,8.9856 -2.9861,12.321 -0.4082,0.825 -2.0408,1.5 -3.628,1.5 -2.5131,0 -2.8515,0.33764 -2.6194,2.6139 0.1466,1.4376 -0.4159,3.1802 -1.25,3.8724 -0.8845,0.7341 -1.5165,2.8962 -1.5165,5.1882 0,3.4551 -0.3573,4.0541 -2.9591,4.9611 -3.4022,1.186 -4.9053,4.4783 -2.8937,6.3381 0.9515,0.8797 3.1979,1.059 7.5726,0.60456 4.9999,-0.51944 6.8152,-1.2167 9.2561,-3.5552 1.8116,-1.7356 2.8303,-3.5584 2.5254,-4.5189 -1.1923,-3.7565 5.6292,-13.861 8.8611,-13.125 0.4743,0.10792 1.3861,-0.52013 2.0264,-1.3957 1.8493,-2.5291 4.3389,-0.85979 4.2033,2.8183 -0.1494,4.0494 -2.0149,7.3807 -4.591,8.1983 -1.1006,0.34931 -2.0011,1.4566 -2.0011,2.4607 0,1.0041 -0.675,2.0846 -1.5,2.4012 -1.8146,0.69634 -1.994,5.2001 -0.252,6.3294 0.6863,0.44496 2.9605,1.259 5.0535,1.809 2.0931,0.55 3.7365,1.45 3.6521,2 -0.084,0.55 -0.6635,0.85252 -1.2868,0.67227 -0.6233,-0.18026 -4.1147,-0.57769 -7.7587,-0.88319 -8.1752,-0.68538 -9.1247,0.38704 -4.9781,5.6226 1.6885,2.1319 3.07,4.3624 3.07,4.9566 0,0.59423 1.35,1.7785 3,2.6318 3.4704,1.7946 3.8159,3.1063 1.0494,3.9843 -2.8306,0.89839 -7.1323,-3.3589 -10.019,-9.9155 -2.3017,-5.2277 -2.6448,-5.5384 -6.8051,-6.1623 -2.4096,-0.36135 -6.4369,-0.37523 -8.9496,-0.0308 -2.9045,0.39811 -5.0826,0.19942 -5.9802,-0.54549 -1.1915,-0.98884 -1.3637,-0.32579 -1.1036,4.2491 l 0.308,5.4207 5,0 c 3.8076,0 6.1605,0.71545 9.8659,3 2.6762,1.65 5.6012,3.4501 6.5,4.0003 4.3519,2.6638 4.3022,2.5918 2.9327,4.2514 -1.0278,1.2454 -1.0379,1.6613 -0.049,1.9943 2.0143,0.67797 1.4366,3.06 -0.9238,3.8092 -1.4804,0.46985 -2.5629,0.15779 -3.3936,-0.97821 -1.4893,-2.0367 -7.895,-3.2559 -8.8645,-1.6872 -0.3774,0.61061 -1.7322,1.1102 -3.0108,1.1102 -1.4468,0 -3.7024,1.5251 -5.9735,4.0389 -3.6329,4.0212 -5.5838,4.4092 -5.5838,1.1103 0,-2.3824 7.8779,-9.7554 11.272,-10.55 2.3947,-0.56037 2.6281,-0.91755 1.7148,-2.6241 -0.5814,-1.0865 -1.6038,-1.9579 -2.272,-1.9366 -3.2923,0.1053 -16.962,4.8238 -18.95,6.5412 -5.3508,4.6217 -9.1939,6.595 -14.553,7.4729 -3.1411,0.51449 -6.0045,0.93804 -6.3632,0.94123 -0.3587,0.003 -1.1397,1.2433 -1.7355,2.7558 -0.5959,1.5125 -1.5075,3.425 -2.0257,4.25 -0.5183,0.825 -1.2047,2.175 -1.5255,3 -0.3207,0.825 -1.4453,2.85 -2.499,4.5 -1.0538,1.65 -1.9488,3.9428 -1.989,5.095 -0.04,1.1523 -1.0148,2.9472 -2.1657,3.9888 -3.874,3.5059 -4.1491,5.078 -1.69,9.6586 1.2554,2.3386 2.7326,4.5839 3.2826,4.9895 1.6644,1.2275 7.0374,0.85936 10.878,-0.74531 3.1892,-1.3326 3.641,-1.96 3.7805,-5.25 0.087,-2.0551 0.073,-4.6325 -0.031,-5.7274 -0.1041,-1.095 0.4822,-2.4818 1.3029,-3.0819 0.8407,-0.61475 1.3999,-2.3622 1.2808,-4.0026 -0.1714,-2.3629 0.3805,-3.2086 2.9294,-4.4878 2.506,-1.2577 2.9495,-1.9179 2.1946,-3.2667 -1.3181,-2.3553 1.5846,-3.3276 5.5106,-1.8457 2.6316,0.99333 3.3416,0.87839 5.1669,-0.83642 3.4318,-3.224 4.8367,-2.593 3.9235,1.762 -0.4324,2.0625 -0.82,5.1 -0.8612,6.75 -0.069,2.7607 0.2241,3.0248 3.675,3.3104 2.5585,0.21175 3.7722,-0.10596 3.8199,-1 0.039,-0.72071 0.1004,-4.1127 0.1377,-7.5378 l 0.068,-6.2275 4.178,-2.0225 c 4.943,-2.3928 9.8115,-2.6132 11.547,-0.52253 1.8767,2.2614 5.7433,1.8537 7.1145,-0.75 1.5097,-2.8669 2.8093,-3.7156 5.7188,-3.7347 3.2853,-0.0216 2.2795,2.0782 -2.1481,4.4847 -4.1388,2.2495 -4.6232,3.8972 -1.6852,5.7321 1.1,0.68696 2,1.5908 2,2.0085 0,1.2986 -4.4007,0.77096 -6.4412,-0.77235 -1.0676,-0.80751 -3.5071,-1.4682 -5.4212,-1.4682 -1.9141,0 -4.3437,-0.78153 -5.3992,-1.7367 -1.827,-1.6534 -1.9881,-1.6424 -3.3576,0.23065 -2.5243,3.4521 -1.3679,5.002 3.4712,4.6526 4.1415,-0.29903 10.148,1.3433 10.148,2.7748 0,0.37327 -0.5095,1.1882 -1.1322,1.8109 -0.843,0.84294 -0.5236,1.9017 1.25,4.1439 2.7096,3.4257 7.4794,5.3966 13.06,5.3966 2.102,0 3.8218,0.37089 3.8218,0.82421 0,0.83353 -0.4916,1.3137 -5,4.8831 -1.9965,1.5807 -2.2225,2.1623 -1.1219,2.8878 1.6133,1.0636 0.6552,3.1321 -1.4507,3.1321 -0.8,0 -2.35,0.55922 -3.4444,1.2427 -2.6762,1.6713 -5.1505,0.05 -6.2194,-4.0751 -0.4514,-1.7422 -1.4328,-3.1676 -2.1809,-3.1676 -1.8489,0 -3.0517,6.73 -1.5303,8.5631 0.6979,0.84097 0.8461,2.1239 0.3667,3.1742 -0.4426,0.9695 -0.8362,2.2936 -0.8747,2.9425 -0.038,0.64888 -1.2173,2.2239 -2.6196,3.5 -1.4024,1.2761 -3.2972,3.5236 -4.2106,4.9944 -2.1577,3.474 -5.3324,4.4813 -7.6146,2.416 -2.3938,-2.1663 -2.6108,-2.0837 -4.9531,1.8862 -1.8373,3.1141 -1.8923,3.635 -0.5273,5 1.7585,1.7585 3.3601,1.9014 6.5838,0.58737 1.2634,-0.51498 3.9855,-1.2106 6.0493,-1.5457 3.0873,-0.50142 4.475,-1.5878 7.8312,-6.1309 2.2434,-3.0368 3.8315,-6.1662 3.5291,-6.9543 -0.3024,-0.78804 -0.067,-1.4328 0.5238,-1.4328 0.6959,0 0.8508,1.4956 0.4403,4.25 -1.4441,9.6887 -1.3509,10.169 2.1733,11.207 4.2421,1.2489 4.1666,2.2486 -0.1319,1.7468 -1.86,-0.21715 -3.6866,0.0982 -4.059,0.7008 -0.3724,0.60259 -2.1395,1.0956 -3.927,1.0956 -1.7874,0 -4.1233,0.66069 -5.1909,1.4682 -1.9061,1.4417 -1.9033,1.4688 0.1538,1.5 2.778,0.0422 5.1595,2.8306 5.5714,6.5232 0.2177,1.9518 0.9754,3.1132 2.1802,3.3419 1.4705,0.27909 1.7113,-0.0756 1.1826,-1.7414 -0.5448,-1.7166 -0.2432,-2.0919 1.6812,-2.0919 1.2898,0 3.1157,-0.9 4.0576,-2 1.1761,-1.3736 2.9499,-2 5.6632,-2 4.2828,0 5.8812,1.3162 4.1426,3.4111 -1.5978,1.9252 1.177,3.8848 5.7247,4.0427 3.4725,0.12059 3.8115,0.47933 3.3515,3.5461 -0.2793,1.8624 -4.0984,1.0132 -8.9956,-2 -5.842,-3.5946 -6.2294,-3.6274 -8.8728,-0.75 -2.5656,2.7926 -1.4889,7.268 1.5189,6.3133 2.3651,-0.75064 7.7162,4.6478 6.8485,6.909 -0.418,1.0893 0.1723,1.8895 1.8701,2.535 4.3882,1.6684 2.5941,4.9927 -2.6945,4.9927 -1.1468,0 -2.2289,0.8302 -2.5167,1.9308 -0.2777,1.062 -1.1356,2.1728 -1.9064,2.4686 -0.7708,0.29578 -1.4015,1.7268 -1.4015,3.18 l 0,2.6422 -1.8892,-2.3331 c -1.5893,-1.9628 -2.7003,-2.2978 -7,-2.1107 -4.458,0.19397 -5.1108,-0.024 -5.1108,-1.7063 0,-1.0608 -0.6737,-2.6024 -1.4971,-3.4258 -1.8376,-1.8376 -1.1031,-4.0224 2.0459,-6.0857 2.8225,-1.8494 4.3477,-2.0565 2.6512,-0.35999 -2.0701,2.0701 -1.3574,3.8019 1.55,3.7667 2.6932,-0.0326 7.25,-2.9504 7.25,-4.6423 0,-0.93516 -8.8449,-4.3244 -11.285,-4.3244 -1.3771,0 -5.0751,4.9367 -6.8878,9.1948 -0.3968,0.93215 -2.3324,1.997 -4.3012,2.3664 -1.9689,0.36936 -4.0334,1.5192 -4.5879,2.5552 -0.5544,1.036 -1.4422,1.8836 -1.9729,1.8836 -1.5643,0 -1.1016,-4.0103 0.5352,-4.6384 2.1453,-0.82323 1.8515,-2.661 -0.6779,-4.2407 l -2.1779,-1.3601 2.4279,-1.2985 c 1.8492,-0.98898 2.4536,-2.1695 2.5355,-4.9522 0.1278,-4.3428 2.8962,-7.9669 3.9627,-5.1876 0.354,0.92265 1.5653,1.6775 2.6917,1.6775 1.9207,0 1.9452,0.11365 0.393,1.8287 -2.2625,2.5001 -2.0837,3.1713 0.845,3.1713 3.7999,0 3.1768,-3.3232 -1.5,-8 -4.3528,-4.3529 -7.3528,-5.0002 -11.846,-2.5561 -1.4598,0.79415 -5.5383,1.9092 -9.0631,2.478 -5.4298,0.87613 -6.9129,1.5844 -9.7081,4.636 -2.622,2.8626 -3.3452,4.5604 -3.5233,8.272 -0.2728,5.6852 -2.9838,9.7259 -7.5327,11.227 -1.8299,0.60392 -3.3271,1.7223 -3.3271,2.4853 0,3.7228 -9.1982,4.1536 -15.116,0.70793 -1.7823,-1.0377 -3.7558,-1.3093 -6.1925,-0.85221 -3.1451,0.59001 -3.9043,1.3605 -6.2927,6.3864 -1.4939,3.1435 -2.6287,6.1011 -2.5218,6.5724 0.1068,0.47133 -0.7218,2.4096 -1.8414,4.3072 -3.2586,5.5229 -2.7223,7.7434 2.6276,10.879 l 4.6633,2.7329 2.5867,-3.1468 c 3.6487,-4.4388 4.824,-3.971 5.3285,2.1212 0.6059,7.316 -1.6005,11.25 -6.3096,11.25 -3.077,0 -3.4001,0.25868 -3.122,2.5 0.3335,2.6877 3.5357,6 5.8006,6 1.5332,0 1.881,1.578 0.5316,2.412 -1.6601,1.026 -7.3185,-1.3469 -10.403,-4.3625 -3.9813,-3.8924 -5.476,-3.8465 -6.5233,0.20047 -0.80428,3.108 -1.0682,3.2578 -6.0393,3.4297 -4.9099,0.16969 -5.2876,0.003 -6.8082,-3 -0.88544,-1.7488 -2.3032,-3.9703 -3.1505,-4.9366 -0.84735,-0.96628 -2.0419,-2.7623 -2.6545,-3.9911 -1.4849,-2.9784 -3.9612,-3.315 -6.2572,-0.85051 -1.7854,1.9164 -2.09,1.9387 -6.341,0.46376 -5.9936,-2.0795 -12.92,-1.3106 -14.95,1.6596 -2.7434,4.0145 -15.145,14.975 -16.944,14.975 -0.926,0 -13.697,8.4117 -16.322,10.751 -0.9625,0.85761 -1.75,2.4119 -1.75,3.454 0,1.0421 -0.68228,3.214 -1.5162,4.8266 -0.8339,1.6126 -1.7822,5.9777 -2.1074,9.7003 -0.3252,3.7226 -1.2367,7.4996 -2.0255,8.3932 -0.78885,0.89366 -1.3071,2.0187 -1.1517,2.5 0.15539,0.48134 -0.54782,3.0382 -1.5627,5.682 -1.5632,4.0722 -1.6723,5.4937 -0.71349,9.3013 0.62244,2.472 0.91709,4.8418 0.65476,5.2662 -0.26233,0.42445 -0.0312,3.8889 0.51362,7.6987 0.54482,3.8098 1.1595,12.25 1.366,18.755 l 0.37543,11.829 6.2282,5.6715 c 3.4255,3.1193 7.0773,6.1449 8.115,6.7234 1.0377,0.57858 1.5727,1.3661 1.1888,1.75 -1.4448,1.4448 -9.0767,0.43491 -14.782,-1.956 z m 18.354,-128.6 c 3.7718,-3.4375 9.4342,-8.05 12.583,-10.25 3.1489,-2.2 7.2507,-5.4531 9.1151,-7.2292 3.093,-2.9465 3.7842,-3.1751 7.8956,-2.6116 3.5337,0.48436 4.9333,0.23069 6.4875,-1.1758 2.1729,-1.9665 2.6342,-6.4309 0.84893,-8.2162 -1.452,-1.452 -0.39558,-4.2672 1.6014,-4.2672 1.0861,0 1.5314,1.0269 1.5314,3.5314 0,2.2907 0.55314,3.7436 1.5744,4.1355 1.8886,0.72471 1.0794,5.3753 -1.154,6.6328 -3.4037,1.9164 -1.1725,2.8386 5.8165,2.4041 6.684,-0.41555 7.3704,-0.66967 8.9852,-3.3268 4.0333,-6.637 4.6129,-9.4391 2.3423,-11.324 -0.78965,-0.65535 -1.7338,-2.623 -2.0982,-4.3724 -0.36434,-1.7495 -1.3053,-4.1959 -2.091,-5.4365 -1.2841,-2.0275 -1.9632,-2.1928 -6.7149,-1.6343 -4.2611,0.50081 -6.0983,0.20706 -9.4733,-1.5147 -4.9218,-2.5109 -5.3004,-3.9227 -1.2681,-4.7292 2.0809,-0.41619 3.1088,-1.3404 3.5804,-3.2193 0.36381,-1.4495 2.0878,-3.8573 3.8311,-5.3506 l 3.1696,-2.7151 -2.691,-0.0406 c -1.48,-0.0224 -2.9401,0.36251 -3.2447,0.85524 -0.30453,0.49274 -3.3686,2.3596 -6.809,4.1485 -5.6022,2.913 -8.6963,4.801 -15.255,9.3088 -4.9036,3.3701 -19.268,12.34 -21.885,13.667 -5.1662,2.6186 -5.9779,5.0346 -6.1632,18.344 -0.0929,6.6748 -0.50613,12.925 -0.91821,13.888 -1.0617,2.483 0.21826,6.7478 2.0251,6.7478 0.8363,0 4.6066,-2.8125 8.3784,-6.25 z m 44.063,-29.781 c 0,-1.2889 2.8491,-2.4529 3.7642,-1.5378 0.37285,0.37286 0.0159,1.0966 -0.79313,1.6082 -1.9358,1.2242 -2.971,1.1997 -2.971,-0.0704 z m 27.729,32.781 c 3.0162,-2.0238 3.2934,-2.6018 2.7586,-5.75 -1.3274,-7.8122 -2.9175,-8.8098 -7.8532,-4.9274 -2.8309,2.2268 -3.4005,5.7834 -1.6596,10.362 1.1973,3.1491 2.4439,3.2073 6.7542,0.3151 z m 13.021,-5.5 c 0.6122,-1.8387 -2.4306,-1.526 -3.1399,0.32265 -0.4209,1.0967 -0.1,1.475 1.0601,1.25 0.915,-0.17746 1.8509,-0.88515 2.0798,-1.5726 z m -270.75,-1.309 c 0,-0.51754 -0.45,-0.94098 -1,-0.94098 -0.55,0 -1,0.70156 -1,1.559 0,0.85746 0.45,1.2809 1,0.94098 0.55,-0.33992 1,-1.0415 1,-1.559 z m -2,-11.5 c 0,-0.24254 -0.45,-0.44098 -1,-0.44098 -0.55,0 -1,0.47656 -1,1.059 0,0.58246 0.45,0.7809 1,0.44098 0.55,-0.33992 1,-0.81648 1,-1.059 z m -15.001,-6.324 c 4.0809,-3.9604 5.0316,-6.117 2.6966,-6.117 -2.2545,0 -8.9719,6.8372 -8.3387,8.4873 0.81654,2.1279 1.1524,1.9868 5.6421,-2.3703 z m 38.001,-13.545 c 9.3486,-2.9007 10.68,-2.9686 13.574,-0.69219 2.571,2.0223 2.7661,2.0345 5.713,0.35706 1.6781,-0.95523 5.8448,-4.3243 9.2594,-7.4868 4.115,-3.8113 7.0512,-5.75 8.7084,-5.75 4.7795,0 4.8269,-1.9701 0.25263,-10.5 -3.1137,-5.8063 -5.2611,-8.5576 -7.8311,-10.034 -1.9475,-1.1185 -4.4064,-2.8169 -5.4641,-3.7741 -2.4768,-2.2415 -4.1273,-1.5375 -7.2051,3.0734 -4.2184,6.3198 -11.117,13.115 -14.421,14.206 -3.9052,1.2888 -11.246,8.9548 -13.27,13.858 -0.83346,2.0188 -2.1897,4.4298 -3.0138,5.3576 -3.702,4.168 2.6563,4.8108 13.698,1.3849 z m 265.87,-9.37 c 3.2715,-1.6541 6.079,-6.891 6.1188,-11.414 0.01,-0.94139 2.0174,-3.7719 4.4647,-6.2899 4.0197,-4.136 4.6493,-4.4537 6.5168,-3.2884 1.7933,1.119 2.7939,0.89703 7.5504,-1.675 3.0157,-1.6307 5.4832,-3.5274 5.4832,-4.2148 0,-0.68744 0.9,-1.7316 2,-2.3203 3.175,-1.6992 2.3651,-4.4918 -2.858,-9.8542 -2.6719,-2.7431 -4.5844,-5.4103 -4.25,-5.9271 0.9042,-1.3975 6.1518,-3.8796 9.9171,-4.6907 3.0349,-0.65381 3.2562,-0.95383 2.6706,-3.6204 -0.5888,-2.6807 -0.4157,-2.9076 2.2186,-2.9076 1.6897,0 3.6124,0.88205 4.7055,2.1586 l 1.8482,2.1586 1.624,-2.1408 c 1.3214,-1.742 2.2989,-2.0305 5.2468,-1.5484 4.1605,0.68033 6.2331,-1.1633 3.5299,-3.14 -0.909,-0.66469 -1.6527,-2.3849 -1.6527,-3.8226 0,-1.8698 -0.8212,-3.0387 -2.8843,-4.1056 -1.5863,-0.82031 -3.7674,-3.1944 -4.8468,-5.2757 -2.0712,-3.9934 -4.9307,-5.3891 -6.4181,-3.1326 -0.7216,1.0946 -1.1413,1.019 -2.2301,-0.40161 -1.5376,-2.0062 -3.9958,-2.3712 -3.3681,-0.5 0.2306,0.6875 -0.6319,3.2295 -1.9167,5.6489 -1.2848,2.4194 -2.3359,4.9965 -2.3359,5.727 0,0.7304 -1.125,2.0651 -2.5,2.9661 -2.759,1.8077 -3.3489,4.408 -1,4.408 0.825,0 1.5,0.61612 1.5,1.3692 0,3.3493 -22.708,2.8832 -32,-0.65679 -12.958,-4.9368 -37,-0.10116 -42.963,8.641 -1.4118,2.0701 -6.2213,7.3257 -12.523,13.684 -3.9154,3.951 -2.6015,7.1607 1.4357,3.5071 1.2918,-1.169 2.8658,-1.2775 8.0035,-0.55126 6.0485,0.85495 6.6165,0.75579 10.471,-1.8276 2.3238,-1.5576 4.2126,-3.6844 4.3948,-4.9487 0.21044,-1.4601 1.0157,-2.2172 2.3584,-2.2172 1.6802,0 1.9275,0.44368 1.4059,2.522 -0.44366,1.7677 -0.17701,2.6969 0.8916,3.107 1.9199,0.73674 1.9723,3.3023 0.0972,4.7608 -0.78506,0.61063 -1.5726,2.143 -1.75,3.4052 -0.27619,1.9647 0.54074,2.6475 5.6774,4.7454 7.7565,3.1678 11.927,3.1806 14.833,0.0456 3.3511,-3.616 5.2655,-7.5888 4.048,-8.401 -2.1086,-1.4067 -2.1763,-4.0911 -0.2038,-8.0779 2.2851,-4.6188 3.823,-5.2981 3.823,-1.6889 0,3.6282 1.0174,5.5818 2.9069,5.5818 2.2074,0 4.0931,-1.935 4.0931,-4.2 0,-2.2723 1.0881,-2.2892 3.2274,-0.05 2.1593,2.26 3.8425,3.9412 6.0579,6.0503 1.708,1.626 1.6863,1.7235 -0.5,2.2491 -1.2569,0.30215 -4.3103,0.23593 -6.7853,-0.14716 -4.9728,-0.76972 -7.4611,0.58764 -9.1432,4.9876 -1.2141,3.1755 1.575,6.4519 4.944,5.8079 2.6617,-0.50881 4.1441,1.7574 2.3337,3.5677 -0.8413,0.8413 -2.4317,0.66324 -6.2093,-0.6952 -3.8457,-1.3829 -5.606,-1.5717 -7.2519,-0.77792 -4.8344,2.3317 -9.5847,2.2076 -13.352,-0.34884 -4.2064,-2.8546 -4.872,-2.9264 -8.6858,-0.93729 -1.5754,0.82161 -3.6587,1.4938 -4.6295,1.4938 -2.2291,0 -9.4434,8.6117 -7.9747,9.5194 0.58088,0.359 1.7061,0.11331 2.5005,-0.54598 1.1596,-0.96243 1.5823,-0.83156 2.1442,0.66391 0.38492,1.0244 1.3304,2.336 2.1012,2.9145 0.77071,0.57855 1.2486,1.9286 1.062,3 -0.43217,2.4811 3.7782,3.1795 6.6238,1.0987 1.6816,-1.2296 1.7681,-1.667 0.60659,-3.0666 -1.9294,-2.3248 -0.90906,-2.8012 3.5483,-1.6565 2.1351,0.54828 6.2349,1.5829 9.1108,2.2992 2.8758,0.71628 6.0097,2.0833 6.9642,3.0378 2.1557,2.1556 4.8219,2.1375 9.1731,-0.0625 z M 799.539,617.9 c -0.9494,-1.1439 -0.7737,-1.6514 0.8776,-2.5352 1.8337,-0.98139 2.0646,-0.82148 2.0646,1.4303 0,2.8295 -1.1519,3.2621 -2.9422,1.1049 z m 7.255,-1.5288 c -2.7185,-2.474 -2.9723,-3.0787 -1.7258,-4.1132 0.8037,-0.66703 1.5644,-1.0362 1.6905,-0.82027 0.1261,0.21587 1.2402,1.8368 2.4758,3.602 3.6898,5.2712 2.5638,5.8855 -2.4405,1.3314 z m 39.437,0.26971 c -0.9625,-0.25152 -1.75,-1.0993 -1.75,-1.884 0,-1.8471 5.3514,-1.913 6.8688,-0.0847 1.9061,2.2967 -0.4283,3.1944 -5.1188,1.9687 z m -49.75,-11.311 c 0,-0.55 0.7015,-1 1.559,-1 0.8574,0 1.2809,0.45 0.941,1 -0.34,0.55 -1.0415,1 -1.5591,1 -0.5175,0 -0.9409,-0.45 -0.9409,-1 z m 4.3567,-2.5127 c -0.682,-1.7772 1.2903,-4.4873 3.2657,-4.4873 1.6403,0 1.7597,1.4175 0.3424,4.0657 -1.2402,2.3172 -2.8103,2.5007 -3.6081,0.42153 z m 28.643,0.85885 c 0,-1.7702 2.6707,-4.6879 3.3237,-3.6313 0.346,0.55982 -0.2603,1.8227 -1.3473,2.8065 -1.0871,0.98375 -1.9764,1.3549 -1.9764,0.82478 z m 26,-22.229 c 0,-2.3199 3.5163,-3.4043 5.0493,-1.5572 1.5372,1.8522 0.3331,3.4406 -2.6084,3.4406 -1.7239,0 -2.4409,-0.55325 -2.4409,-1.8834 z m -155.54,51.383 c 3.3207,-3.575 6.5694,-6.5 7.2193,-6.5 0.64989,0 1.4794,-0.93813 1.8433,-2.0847 0.5125,-1.6148 1.206,-1.9481 3.076,-1.4788 1.3777,0.34578 3.6988,-0.0582 5.4057,-0.94093 3.1014,-1.6038 3.6532,-3.5878 3.1278,-11.246 -0.15517,-2.2616 0.21381,-3.25 1.2133,-3.25 1.7282,0 2.6503,2.1268 2.6503,6.1132 0,1.7401 0.6348,3.1932 1.5481,3.5437 3.2658,1.2532 13.357,-8.4141 14.01,-13.421 0.19607,-1.5049 0.62326,-4.648 0.9493,-6.9848 0.53892,-3.8626 0.35878,-4.3553 -1.9821,-5.4219 -2.3148,-1.0547 -2.9111,-0.84732 -5.9031,2.0526 -3.1446,3.0479 -3.6259,3.1919 -8.725,2.6115 -9.6905,-1.1031 -9.7459,-1.132 -10.087,-5.2474 -0.28322,-3.421 -0.60693,-3.7894 -3.7306,-4.246 -4.7802,-0.69875 -5.0072,-2.6658 -0.3746,-3.2459 4.2894,-0.53711 7.2951,0.60875 7.2951,2.7811 0,0.80565 0.71713,1.4648 1.5936,1.4648 0.87649,0 1.8352,0.92361 2.1304,2.0525 0.3598,1.3759 1.2097,1.9528 2.578,1.75 2.9854,-0.44235 3.181,-2.4644 0.30818,-3.1854 -3.0404,-0.7631 -4.0087,-3.4388 -2.5924,-7.1639 l 1.0687,-2.811 2.1786,2.1786 c 1.1983,1.1983 2.1913,3.1518 2.2067,4.3412 0.0371,2.8612 2.5114,3.6176 3.2015,0.97878 0.29771,-1.1385 2.1138,-2.9977 4.0357,-4.1317 2.8933,-1.7071 3.3898,-2.4788 2.8861,-4.4857 -0.53494,-2.1314 -0.049,-2.6714 4.0253,-4.4737 2.5485,-1.1273 5.1144,-2.0497 5.7019,-2.0497 0.58749,0 2.3571,-1.2348 3.9324,-2.7441 2.8128,-2.6948 9.1468,-4.8415 17.245,-5.8446 2.2,-0.2725 5.125,-1.3829 6.5,-2.4675 1.375,-1.0846 3.4779,-2.4721 4.6731,-3.0834 1.1952,-0.61121 2.4413,-2.1798 2.769,-3.4858 0.32779,-1.306 1.0374,-2.3745 1.5769,-2.3745 1.558,0 1.1371,-2.7261 -0.51905,-3.3616 -0.825,-0.31658 -1.5,-1.6705 -1.5,-3.0088 0,-1.656 -1.0381,-3.0911 -3.25,-4.4929 -4.1819,-2.6503 -5.5746,-1.4134 -6.4169,5.6988 -0.5662,4.7807 -0.98453,5.4624 -5.0255,8.1896 -2.4243,1.6362 -4.7656,2.9748 -5.2027,2.9748 -0.43719,0 -1.643,0.93716 -2.6796,2.0826 -1.5133,1.6722 -2.5784,1.9521 -5.405,1.4204 -5.8017,-1.0913 -10.619,-0.80785 -13.141,0.77324 -1.3086,0.82049 -5.8144,1.7303 -10.013,2.0219 -4.1984,0.29153 -9.0136,1.2437 -10.7,2.116 -1.6868,0.87226 -3.9492,1.5859 -5.0276,1.5859 -2.424,0 -6.1507,4.32 -9.2141,10.681 -1.2764,2.6504 -2.9066,5.4136 -3.6226,6.1404 -0.71602,0.72678 -1.3018,2.6393 -1.3018,4.25 0,1.6107 -0.9,3.8286 -2,4.9286 -1.1,1.1 -2,2.8842 -2,3.9648 0,1.0806 -0.86952,2.4302 -1.9323,2.9989 -1.0628,0.56877 -2.2294,2.0471 -2.5926,3.2852 -0.36316,1.2381 -1.5712,4.1892 -2.6845,6.558 -2.948,6.2726 -2.8734,24.979 0.11404,28.578 2.2963,2.7669 4.3224,1.8295 10.56,-4.8852 z m -1.9516,-15.479 c -0.97416,-1.5762 -0.35194,-2.0101 3.8634,-2.6942 2.9242,-0.47453 3.6239,-0.27319 3.6239,1.0428 0,0.89696 -0.5625,1.637 -1.25,1.6445 -0.6875,0.008 -2.2117,0.27172 -3.3871,0.58712 -1.1754,0.31541 -2.458,0.0543 -2.8501,-0.58018 z m 19.716,-44.208 c 0.61807,-1.8542 2.7708,-2.1618 2.7708,-0.39583 0,0.87083 -0.7125,1.5833 -1.5833,1.5833 -0.87084,0 -1.4052,-0.53438 -1.1875,-1.1875 z m 4.7708,-3.572 c 0,-0.4177 0.87914,-1.3085 1.9536,-1.9795 2.0386,-1.2731 3.7047,-0.13525 2.5464,1.739 -0.71855,1.1626 -4.5,1.3648 -4.5,0.24055 z m -198.46,64.826 c -0.36254,-0.58659 -1.1377,-1.0665 -1.7226,-1.0665 -0.6631,0 -0.58723,0.57378 0.20152,1.5242 1.3715,1.6526 2.5973,1.2838 1.5211,-0.45764 z m 353.46,-14.412 c 0,-0.73976 -0.9,-2.1595 -2,-3.155 -1.1,-0.99549 -2,-2.4152 -2,-3.155 0,-1.7165 -2.0976,-1.7254 -4.4315,-0.0188 -2.5884,1.8927 -1.2559,5.0345 2.6834,6.3269 4.6456,1.5241 5.7481,1.5245 5.7481,0.002 z m -222.2,-2.855 c 2.2326,-2.2326 1.352,-7.5475 -2.05,-12.372 -3.6002,-5.1054 -15.787,-17.751 -19.368,-20.098 -2.9851,-1.9559 -4.0533,-1.1793 -4.6954,3.4133 -0.2888,2.066 -0.82303,4.9113 -1.1872,6.323 -0.51956,2.0142 0.27338,3.9514 3.6839,9 3.8749,5.736 5.2519,6.8939 12.704,10.683 9.325,4.742 9.2442,4.7194 10.914,3.05 z m 105.88,-25.55 c 0.34067,-0.9625 1.789,-2.875 3.2186,-4.25 1.4296,-1.375 3.2742,-3.5082 4.0992,-4.7406 1.1723,-1.751 3.1926,-2.5212 9.2471,-3.5252 4.2609,-0.70658 8.6535,-2.0608 9.7614,-3.0094 1.3701,-1.1731 3.748,-1.7248 7.4348,-1.7248 4.7821,0 5.6461,-0.32387 7.3364,-2.75 3.0767,-4.4161 10.22,-19.314 10.22,-21.314 0,-1.9927 3.5862,-6.2507 6.0113,-7.1373 2.1655,-0.79167 6.0143,-8.9844 5.3729,-11.437 -0.688,-2.631 -9.0496,-9.6863 -10.452,-8.8194 -0.5804,0.35873 -1.4664,1.7335 -1.9689,3.0551 -1.1367,2.9898 -4.2545,3.1322 -8.7372,0.39912 -1.8008,-1.0979 -3.9383,-1.9963 -4.75,-1.9963 -0.8117,0 -1.4758,-0.39383 -1.4758,-0.87518 0,-0.48135 2.7587,-1.4872 6.1305,-2.2352 3.3719,-0.74804 6.8594,-1.8974 7.75,-2.5541 1.4849,-1.0949 1.4676,-1.4784 -0.2087,-4.6175 -1.4869,-2.7843 -1.6456,-4.1511 -0.8499,-7.3207 2.2647,-9.0214 2.3072,-12.268 0.1882,-14.387 -2.0759,-2.0759 -5.0101,-2.7125 -5.0101,-1.0869 0,1.877 -5.2421,7.0767 -7.1344,7.0767 -1.9834,0 -6.2198,-3.5623 -6.9922,-5.8797 -0.33179,-0.99537 -1.3789,-0.93288 -4.8977,0.29226 -2.4616,0.85706 -5.0382,1.5648 -5.7257,1.5728 -2.4956,0.0291 -1.1667,-2.837 2.25,-4.853 1.925,-1.1358 3.5,-2.7856 3.5,-3.6662 0,-1.2014 0.56167,-1.4261 2.25,-0.9002 4.8081,1.4978 6.3803,2.2835 7.6635,3.8297 1.7528,2.112 2.1281,2.0481 5.3121,-0.9042 2.8255,-2.62 2.7972,-4.943 -0.087,-7.1047 -0.8168,-0.6122 -2.0648,-3.0767 -2.7734,-5.4766 -1.168,-3.9558 -1.1096,-4.5539 0.6253,-6.4006 2.687,-2.8602 5.0042,-8.8125 4.372,-11.23 -0.2928,-1.1196 -1.5948,-2.5197 -2.8932,-3.1113 -2.1369,-0.97362 -2.7571,-0.60234 -6.5381,3.9136 -3.9256,4.6886 -4.078,5.0989 -2.5303,6.8092 2.424,2.6785 0.81908,5.7962 -2.6853,5.2162 -1.4596,-0.24158 -12.959,6.3831 -13.497,7.7754 -0.29381,0.76035 -0.0132,2.2168 0.62362,3.2364 1.4779,2.3666 1.467,4.4132 -0.0366,6.8208 -0.84453,1.3523 -0.91776,3.0306 -0.25,5.7294 0.75167,3.0379 1.5,3.9204 3.6668,4.3239 1.9302,0.35945 2.4848,0.88728 1.9058,1.8139 -0.46065,0.73723 -0.17381,3.2594 0.65804,5.7862 1.8207,5.5306 0.94098,6.6708 -2.382,3.0871 -2.786,-3.0047 -4.4043,-2.7552 -4.4043,0.67879 0,1.2325 -0.40259,2.6685 -0.89465,3.191 -0.49205,0.5225 -1.2096,2.4435 -1.5946,4.2689 -0.60426,2.8652 -0.40346,3.3964 1.4689,3.886 1.664,0.43513 2.0371,1.092 1.603,2.8216 -0.42322,1.6863 0.0891,2.6836 2.0326,3.957 1.8996,1.2447 2.3008,2.0003 1.4916,2.8095 -0.60879,0.60879 -1.1069,2.1419 -1.1069,3.4069 0,1.8479 0.54591,2.3 2.7775,2.3 4.2567,0 6.8437,-2.4386 8.1685,-7.6998 1.0738,-4.2645 1.0084,-4.9231 -0.62361,-6.2821 -3.2654,-2.7191 -5.3456,-6.7811 -4.5601,-8.9046 0.69442,-1.8772 1.0358,-2.1136 3.0525,-2.1136 0.99569,0 4.1852,-6.5036 4.1852,-8.5339 0,-1.6319 3.5401,-2.0193 4.4847,-0.49071 0.3316,0.53644 -0.76687,3.4371 -2.441,6.4459 -3.496,6.2834 -3.8293,9.7455 -1.1832,12.29 1.3399,1.2883 1.7755,2.9084 1.5565,5.789 -0.50468,6.6398 -1.0385,10.078 -1.741,11.215 -0.36693,0.5937 -0.39611,2.4346 -0.0648,4.0909 0.49099,2.455 1.2293,3.1291 3.9956,3.648 2.0417,0.38303 3.3932,1.2258 3.3932,2.116 0,0.81369 1.2375,1.9552 2.75,2.5367 l 2.75,1.0573 -3,1.6896 c -10.464,5.8934 -12.007,7.8233 -8.954,11.197 1.5877,1.7544 1.5944,1.9581 0.0824,2.5383 -0.90411,0.34694 -2.7867,-0.11805 -4.1836,-1.0333 -4.2866,-2.8087 -16.472,-0.14738 -25.019,5.4642 -2.2407,1.4712 -5.2782,2.9771 -6.75,3.3465 -2.7137,0.6811 -3.5762,2.9591 -1.5861,4.189 0.6369,0.39363 0.84156,1.9968 0.49247,3.8576 -0.38807,2.0686 -0.0804,3.8677 0.87839,5.1355 0.81165,1.0733 1.49,2.7389 1.5075,3.7014 0.0175,0.9625 0.72092,1.75 1.5632,1.75 0.84227,0 1.8101,-0.7875 2.1508,-1.75 z m 33.423,-55.623 c -1.3288,-1.6011 -0.45167,-4.6268 1.3412,-4.6268 1.0213,0 3.5536,3.9529 3.5536,5.547 0,1.0604 -3.8521,0.33616 -4.8948,-0.9203 z m -110.28,46.769 c 1.7552,-1.9825 3.472,-4.795 3.8153,-6.25 0.34327,-1.455 1.69,-4.078 2.9928,-5.8288 1.3028,-1.7508 2.3687,-4.2869 2.3687,-5.6357 0,-1.3488 0.67223,-3.7414 1.4938,-5.3167 0.82161,-1.5754 1.4966,-3.6663 1.5,-4.6464 0.007,-1.9441 1.9683,-6.5109 4.8186,-11.218 0.99913,-1.65 4.7054,-5.25 8.2362,-8 3.5308,-2.75 8.18,-6.7003 10.332,-8.7784 l 3.9119,-3.7784 -0.62625,-8.121 c -0.34444,-4.4666 -1.2328,-8.8413 -1.9742,-9.7216 -2.5975,-3.0843 -5.6916,-9.2344 -5.6916,-11.313 0,-2.7984 -4.3881,-8.4194 -8.0517,-10.314 -1.6216,-0.83855 -2.9466,-1.8506 -2.9446,-2.249 0.003,-0.67508 2.4284,-4.6081 5.1389,-8.3351 0.94912,-1.305 0.64459,-2.3016 -1.6043,-5.25 -1.5267,-2.0016 -3.2363,-3.6392 -3.7993,-3.6392 -0.56292,0 -3.4327,-2.0582 -6.3773,-4.5739 l -5.3538,-4.5739 -7.754,0.82388 -7.754,0.82387 0.32008,3.2956 c 0.42492,4.3751 2.7639,9.8308 4.5005,10.497 1.9161,0.73528 2.8468,6.137 1.6153,9.3758 -0.69432,1.8262 -0.67974,3.6274 0.0462,5.71 0.94274,2.7044 0.68682,3.6019 -2.3044,8.0818 -8.1308,12.177 -9.702,15.029 -9.0927,16.5 1.1174,2.6992 0.95507,4.5474 -0.37551,4.2757 -1.9889,-0.40611 -5.2095,1.6582 -5.2095,3.3392 0,1.5771 -2.9357,6.1817 -6.646,10.424 -6.1242,7.0027 -9.5857,19.206 -5.854,20.638 0.91175,0.34987 1.5,1.8628 1.5,3.8578 0,1.8052 0.82167,4.297 1.8259,5.5372 l 1.8259,2.255 4.9241,-2.8134 c 7.8603,-4.491 8.4241,-5.2101 8.4241,-10.745 0,-4.3914 -0.4013,-5.3277 -3.5,-8.166 -4.169,-3.8186 -4.2593,-4.5019 -1,-7.5639 1.375,-1.2918 2.503,-3.0577 2.5066,-3.9243 0.004,-0.86663 0.94743,-2.9257 2.0973,-4.5757 1.941,-2.7852 2.0399,-2.821 1.3803,-0.5 -0.87057,3.0636 -0.89393,6.2316 -0.0701,9.5139 0.52662,2.0982 1.2061,2.4826 4.3549,2.4639 2.0811,-0.0124 4.8076,-0.84977 6.1657,-1.8936 2.2738,-1.7477 2.3342,-2.0271 0.91421,-4.2278 -2.585,-4.006 -4.0115,-11.406 -2.7377,-14.201 1.237,-2.7149 5.2468,-5.9994 8.6384,-7.0758 1.3194,-0.41876 3.0012,-2.4882 4.1707,-5.1322 1.472,-3.3277 2.3666,-4.2744 3.5942,-3.8034 2.0437,0.78422 1.2152,4.915 -1.5886,7.9205 -1.0593,1.1354 -1.9259,2.7678 -1.9259,3.6276 0,2.5944 -2.7156,4.2889 -4.5,2.808 -3.674,-3.0491 -6.3411,5.0239 -2.7373,8.2853 1.2229,1.1067 4.0386,1.6617 9.1945,1.8122 l 7.4318,0.217 3.3055,-3.8239 c 1.818,-2.1031 3.3055,-4.8473 3.3055,-6.0982 0,-1.2509 0.51853,-2.5948 1.1523,-2.9865 1.6612,-1.0267 0.1615,7.5899 -1.674,9.6181 -0.78457,0.86694 -1.8068,3.3537 -2.2718,5.5261 -0.82273,3.8446 -0.9496,3.9433 -4.7602,3.7026 -2.1532,-0.13598 -5.272,-0.88878 -6.9306,-1.6729 -1.6586,-0.7841 -4.3024,-1.7465 -5.875,-2.1386 -2.7946,-0.69683 -2.8432,-0.63968 -2.1479,2.5258 0.84428,3.844 -1.6012,9.1648 -4.8726,10.602 -1.9401,0.85213 -2.122,1.725 -2.1419,10.275 l -0.0217,9.3433 -7.4783,3.6878 c -6.3132,3.1132 -7.5282,4.1167 -7.798,6.4404 -0.23098,1.9888 0.47404,3.5063 2.5408,5.4689 1.5733,1.494 3.4017,4.5587 4.0632,6.8106 1.1016,3.7503 3.6583,6.1397 6.7817,6.338 0.5863,0.0372 2.502,-1.5543 4.2572,-3.5368 z m -9.8232,-8.3955 c 0,-0.55 0.70156,-1 1.559,-1 0.85746,0 1.2809,0.45 0.94098,1 -0.33992,0.55 -1.0415,1 -1.559,1 -0.51754,0 -0.94098,-0.45 -0.94098,-1 z m 170,2 c 0,-0.55 -0.45,-1 -1,-1 -0.55,0 -1,0.45 -1,1 0,0.55 0.45,1 1,1 0.55,0 1,-0.45 1,-1 z m 34,-2.6317 c 0,-1.7027 0.7933,-2.7194 2.6826,-3.4377 l 2.6826,-1.0199 -2.4957,-2.4957 c -1.5435,-1.5435 -3.1126,-2.2589 -4.1127,-1.8752 -3.0169,1.1577 -5.0841,10.831 -2.5068,11.73 2.211,0.77125 3.75,-0.41933 3.75,-2.9011 z m -33,-2.4273 c 0,-0.51754 -0.675,-0.94098 -1.5,-0.94098 -1.5465,0 -1.9867,1.18 -0.8606,2.3062 0.799,0.79893 2.3606,-0.10419 2.3606,-1.3652 z m -212.6,-12.07 c -0.13513,-4.7599 -4.5452,-10.507 -9.8261,-12.806 -7.1966,-3.1328 -18.959,-6.3231 -22.903,-6.2117 -6.912,0.19526 -12.661,-4.2951 -10.313,-8.0552 1.8236,-2.9201 -1.0958,-7.2231 -5.169,-7.6187 -2.6126,-0.25374 -4.2508,0.52089 -8.3372,3.9422 l -5.0858,4.258 0.65989,6.5578 c 0.97243,9.6637 2.2932,13.665 5.8466,17.712 l 3.1855,3.6281 11.743,-0.59044 c 6.4588,-0.32475 12.652,-1.077 13.763,-1.6716 1.5313,-0.81954 2.7362,-0.71085 4.9795,0.44922 1.6276,0.84169 4.2192,1.5649 5.759,1.6072 1.5398,0.0423 4.5997,0.67969 6.7997,1.4165 2.2,0.7368 5.125,1.2647 6.5,1.1731 2.1972,-0.14632 2.4875,-0.60542 2.3971,-3.7903 z m -61.893,0.11701 c 0.34224,-0.55376 -0.34126,-2.36 -1.5189,-4.0138 -1.17764,-1.6538 -2.5099,-5.5882 -2.9606,-8.7432 -1.2176,-8.5239 -2.7024,-11.059 -7.2795,-12.431 -3.0792,-0.92255 -4.6064,-0.90084 -7.0853,0.10072 -1.738,0.70223 -4.7723,1.7212 -6.7429,2.2645 -4.9303,1.3591 -9.4209,5.0738 -8.6289,7.1378 0.34366,0.89557 2.1069,2.3085 3.9184,3.1398 1.8114,0.83132 3.9685,1.942 4.7935,2.4682 0.825,0.52618 2.85,1.6084 4.5,2.4049 1.65,0.79649 6.15,3.0736 10,5.0603 7.2038,3.7173 9.9221,4.3624 11.004,2.6115 z m 36.959,-23.933 c 0.31957,-0.51707 -0.77888,-2.489 -2.441,-4.382 -1.66212,-1.893 -3.022,-4.4016 -3.022,-5.5746 0,-1.2913 -1.1681,-2.843 -2.9607,-3.9332 -3.9231,-2.3858 -6.4255,-5.6927 -9.9546,-13.155 -1.6067,-3.3974 -3.5205,-6.9281 -4.253,-7.846 -1.7353,-2.1749 -3.671,-5.5624 -6.513,-11.398 -3.2031,-6.5771 -5.7908,-7.0668 -12.592,-2.383 -2.8844,1.9866 -5.7468,3.612 -6.3608,3.612 -0.61399,0 -1.3885,-1.3606 -1.7211,-3.0236 -0.3326,-1.663 -1.2969,-3.2892 -2.143,-3.6139 -2.5602,-0.98245 -7.4835,1.7173 -10.095,5.5355 l -2.4632,3.6019 2.3972,2 c 1.3184,1.1 2.5685,2.5355 2.7778,3.1899 0.20934,0.65446 1.9389,2.2361 3.8434,3.5148 1.9046,1.2787 4.8019,4.2301 6.4385,6.5587 l 2.9756,4.2338 -2.7808,2.9026 c -3.4416,3.5923 -3.0959,6.3087 0.90995,7.1484 1.6467,0.34517 4.504,2.0506 6.3497,3.7898 3.5153,3.3125 4.7392,3.7047 7.0312,2.2532 1.3477,-0.85347 1.2199,-3.5762 -0.34169,-7.2795 -0.60306,-1.4302 -0.0852,-1.6798 3.3854,-1.6319 2.2535,0.0311 4.3184,0.41425 4.5886,0.85145 0.2702,0.43721 2.2948,1.0996 4.4991,1.472 4.3911,0.74186 5.4431,2.0345 6.5234,8.0153 0.39553,2.1899 1.1656,4.5441 1.7112,5.2316 1.1686,1.4724 13.328,1.7376 14.21,0.30987 z m -31.713,-28.225 c -3.0689,-3.4447 -3.448,-4.8354 -1.3181,-4.8354 1.5084,0 5.5681,5.034 5.5681,6.9044 0,1.8344 -1.364,1.1704 -4.25,-2.069 z m 68.038,15.33 c 3.4612,-5.0722 4.1097,-8.1653 1.7118,-8.1653 -2.3154,0 -1.7731,-1.8203 0.64967,-2.1804 1.1823,-0.17575 3.0633,-1.5478 4.18,-3.049 1.7745,-2.3857 1.8649,-3.0385 0.71745,-5.1825 -0.72205,-1.3492 -1.01,-3.2422 -0.63983,-4.2068 0.84322,-2.1974 -3.2631,-10.197 -5.6195,-10.947 -0.94172,-0.29983 -2.6513,-0.0426 -3.799,0.57165 -1.5435,0.82606 -2.9959,0.81675 -5.579,-0.0358 -4.7383,-1.5638 -6.4986,-0.74306 -5.8804,2.7417 0.62399,3.5175 -1.8758,6.5872 -6.6463,8.1616 -2.5231,0.83269 -4.1462,2.3145 -5.6773,5.183 -2.1297,3.9898 -2.1314,4.0453 -0.25302,8.2302 1.0401,2.3173 2.5929,5.8388 3.4507,7.8255 2.3812,5.5152 4.0155,6.4996 8.2486,4.9689 3.1889,-1.1531 3.702,-1.0782 5.4475,0.79541 2.6219,2.8143 5.5123,1.4088 9.6886,-4.7112 z m 198.26,5.309 c 3.2509,-1.6811 3.885,-4.8139 1.6054,-7.9313 -1.304,-1.7834 -1.4424,-1.7816 -4.5574,0.0584 l -3.2126,1.8977 -1.9203,-2.4996 c -1.0561,-1.3748 -1.9303,-2.837 -1.9425,-3.2496 -0.033,-1.0967 1.757,-0.91617 2.4778,0.25 0.8606,1.3925 8.8443,1.2556 10.276,-0.17621 0.9016,-0.9016 0.8988,-1.5436 -0.012,-2.75 -0.6534,-0.86558 0.2835,-0.22697 2.0821,1.4192 2.9038,2.6577 3.2355,3.4978 2.9618,7.5 -0.3021,4.4163 -0.2437,4.5133 2.8999,4.8173 5.5124,0.53307 6.7014,-2.0095 6.7501,-14.435 0.05,-12.663 -0.2381,-13.029 -10.848,-13.794 -3.7712,-0.27205 -7.1383,-0.77614 -7.4823,-1.1202 -0.3441,-0.34405 -0.4723,-3.2868 -0.2849,-6.5395 0.2636,-4.5769 -10e-4,-6.045 -1.1704,-6.4938 -2.2352,-0.85775 -6.3749,2.2702 -8.8627,6.6968 -1.2035,2.1413 -3.228,4.5746 -4.499,5.4074 -1.271,0.83276 -2.3108,2.1558 -2.3108,2.9402 0,0.78433 -1.6258,2.6661 -3.6128,4.1816 l -3.6127,2.7556 3.3627,2.8308 c 5.9923,5.0444 6.8622,6.0766 6.8982,8.1848 0.072,4.193 6.27,11.53 9.7642,11.557 1.2648,0.01 3.6273,-0.66849 5.25,-1.5076 z m -228.06,-18.05 c 0,-0.24254 -0.70156,-0.44098 -1.559,-0.44098 -0.85746,0 -1.2764,0.45734 -0.9309,1.0163 0.57081,0.92358 2.4899,0.48015 2.4899,-0.57533 z m -3.4863,-4.4632 c 0.34746,-0.5622 3.0053,-2.7756 5.9064,-4.9188 7.5895,-5.6067 8.5799,-6.8183 8.5799,-10.496 0,-3.8082 -2.8991,-7.9428 -7.0883,-10.109 -3.9128,-2.0234 -3.6678,-3.6041 1.036,-6.6837 4.0831,-2.6733 5.6819,-2.0166 3.8315,1.5737 -0.70268,1.3634 -0.45483,2.4064 0.95051,4 1.0456,1.1856 2.6838,3.4149 3.6404,4.9539 1.619,2.6048 2.1331,2.7776 7.4346,2.5 5.6699,-0.29694 5.694,-0.31164 5.4031,-3.2983 -0.16072,-1.65 -1.0016,-3.45 -1.8686,-4 -5.4608,-3.4642 -5.6998,-3.902 -3.9633,-7.26 2.3245,-4.4951 2.0582,-5.6866 -1.8691,-8.3611 -1.9212,-1.3084 -3.4819,-3.0539 -3.4682,-3.8789 0.0202,-1.2126 0.27949,-1.1647 1.3534,0.25 1.6666,2.1954 6.1875,2.288 7.0104,0.14354 0.40587,-1.0577 -0.58241,-2.7046 -2.893,-4.821 -2.9175,-2.6724 -3.4962,-3.8773 -3.4305,-7.1435 0.0434,-2.161 0.32186,-3.254 0.61876,-2.429 0.2969,0.825 2.4422,3.525 4.7674,6 6.0426,6.4319 7.2745,10.033 5.0893,14.879 -2.504,5.5529 -1.761,9.1606 2.4455,11.874 1.925,1.2419 5.3,4.9548 7.5,8.2508 5.3723,8.0489 7.5888,8.1129 11.036,0.31876 1.7116,-3.8703 2.185,-6.0024 1.4874,-6.7 -0.56274,-0.56274 -1.0232,-1.8511 -1.0232,-2.863 0,-2.5598 -3.3514,-8.866 -5.9706,-11.235 -3.4241,-3.0968 -6.8699,-11.472 -7.3208,-17.793 -0.22629,-3.1725 -0.59079,-5.9277 -0.81001,-6.1228 -0.9941,-0.88475 -6.9049,-3.6091 -7.8304,-3.6091 -0.56713,0 -3.0518,-1.4625 -5.5216,-3.25 -3.4738,-2.5142 -4.3568,-3.7028 -3.9004,-5.25 0.32455,-1.1 0.55504,-3.2375 0.51219,-4.75 -0.0428,-1.5125 0.35399,-2.75 0.88185,-2.75 0.52786,0 0.95974,0.87344 0.95974,1.941 0,3.3361 2.19,3.5558 4.688,0.47033 1.6039,-1.9811 2.1755,-3.6638 1.789,-5.2666 -0.3124,-1.2954 -0.2781,-4.2885 0.0762,-6.6513 0.63306,-4.2216 0.67713,-4.263 2.5455,-2.3947 1.0457,1.0457 2.3209,1.9013 2.8339,1.9013 1.5472,0 2.3158,3.9958 1.0597,5.5093 -0.89925,1.0835 -0.88118,2.2973 0.0774,5.202 1.4515,4.3982 1.2845,4.7887 -2.048,4.7887 -1.4152,0 -2.5951,0.64345 -2.7507,1.5 -0.35656,1.9635 8.1518,7.482 12.912,8.3748 2.9548,0.55417 4.0426,1.426 5.5,4.408 1.4805,3.0293 2.4339,3.7764 5.1521,4.0369 3.7414,0.35864 12.242,-2.2822 16.415,-5.0992 3.6616,-2.4722 3.8478,-6.7205 0.29441,-6.7205 -2.764,0 -10.089,-4.5453 -8.7043,-5.4012 0.49235,-0.30428 3.9452,-0.18605 7.673,0.26274 7.6641,0.92266 9.7389,2.6282 8.8153,7.2463 -0.42387,2.1194 -0.13424,3.0295 1.1169,3.5096 2.6844,1.0301 4.0426,-1.2929 4.2109,-7.2018 0.0859,-3.0165 0.66169,-6.0936 1.2796,-6.8381 1.7915,-2.1587 -0.68599,-6.3399 -4.5031,-7.5997 -1.8,-0.59404 -3.8061,-1.7228 -4.4581,-2.5085 -0.652,-0.78562 -3.3877,-1.7205 -6.0793,-2.0776 -3.1865,-0.42271 -6.9512,-1.986 -10.791,-4.4811 -6.9562,-4.5201 -10.103,-8.192 -10.108,-11.795 -0.006,-3.9261 -3.4796,-8.8529 -7.6468,-10.844 -4.6378,-2.2165 -5.5041,-4.2707 -1.8011,-4.2707 2.604,0 2.6924,-0.16869 2.1617,-4.1251 -0.30431,-2.2688 -1.5734,-6.2737 -2.8202,-8.8997 -1.8857,-3.9718 -2.8169,-4.8639 -5.5379,-5.3055 -4.2377,-0.68768 -9.5746,0.81382 -11.857,3.3359 -2.3486,2.5952 -6.5341,2.538 -9.9333,-0.13581 -2.2948,-1.805 -2.6588,-2.759 -2.3849,-6.25 0.31377,-3.999 0.22741,-4.129 -2.9446,-4.4345 -2.1887,-0.21077 -3.9503,-1.2377 -5.3343,-3.1096 -1.8407,-2.4896 -2.7125,-2.8041 -7.9821,-2.8788 -6.4021,-0.0908 -7.3293,0.83079 -3.4157,3.395 1.375,0.90093 2.5,1.9834 2.5,2.4056 0,0.42213 -3.372,1.0835 -7.4933,1.4697 -4.1213,0.3862 -7.7479,1.1141 -8.059,1.6175 -0.31113,0.50342 -1.9503,0.91531 -3.6426,0.91531 -3.0465,0 -3.071,0.042 -2.4821,4.25 0.48925,3.4961 2.2491,9.7606 5.2049,18.528 0.30673,0.90979 1.6212,0.4901 4.5636,-1.457 3.9324,-2.6023 4.1971,-2.6468 5.4609,-0.91854 1.6234,2.2202 0.26035,4.9064 -3.3166,6.5362 -1.6607,0.75665 -2.2767,1.7528 -2.0539,3.3212 0.28298,1.9918 0.83132,2.2148 4.9437,2.0104 l 4.6254,-0.22996 0.66179,4.1386 c 0.36399,2.2762 1.2905,5.3047 2.0588,6.73 2.04,3.7841 2.8098,7.9076 2.5836,13.841 -0.19241,5.0494 -0.0999,5.25 2.4221,5.25 7.6286,0 11.436,-6.442 5.5937,-9.4634 -2.8316,-1.4642 -4.8981,-5.0428 -3.6392,-6.3017 0.33787,-0.33787 1.2804,0.33661 2.0944,1.4988 1.3472,1.9234 8.0843,4.9891 8.9849,4.0886 0.33129,-0.3313 -0.3252,-5.0348 -2.1464,-15.378 -0.36743,-2.0868 -0.0349,-3.4731 1.0487,-4.3724 2.3664,-1.9639 1.985,-3.0392 -2.4133,-6.804 -2.2,-1.8831 -4,-3.8529 -4,-4.3773 0,-1.7824 2.9138,-2.0802 5.8795,-0.60071 2.1879,1.0915 3.248,1.1826 4.0799,0.35068 1.8572,-1.8572 3.0085,1.2287 3.0254,8.1093 0.0167,6.8258 0.7638,7.4367 6.4502,5.2748 2.1637,-0.82262 2.5651,-1.6015 2.5651,-4.977 0,-3.1782 0.52092,-4.343 2.5312,-5.6602 2.8337,-1.8567 4.4046,-1.2201 2.5383,1.0286 -0.6685,0.8055 -1.1308,2.2789 -1.0274,3.2742 0.5201,5.0033 -0.0909,6.3031 -3.6643,7.7962 -1.9922,0.83238 -5.1167,1.5134 -6.9433,1.5134 -2.2984,0 -3.8006,0.68444 -4.8779,2.2225 -2.2394,3.1973 -1.958,4.5237 1.6614,7.8296 l 3.2182,2.9393 -1.884,3.2543 c -1.6301,2.8158 -4.6653,5.9451 -12.92,13.321 -1.0274,0.91805 -3.0524,1.9826 -4.5,2.3658 -1.6725,0.44264 -3.4802,2.2236 -4.9588,4.8854 -1.2798,2.3039 -4.5669,6.6398 -7.3047,9.6354 -4.6055,5.0391 -4.9267,5.7191 -4.2942,9.0907 0.37601,2.0043 0.20403,5.2893 -0.38218,7.3 -0.5862,2.0107 -1.5726,5.9058 -2.1921,8.6558 -0.61945,2.75 -1.605,6.6424 -2.1901,8.6497 -0.86639,2.9724 -0.763,4.0792 0.55707,5.9638 0.89148,1.2728 1.9112,4.503 2.2661,7.1782 0.57092,4.3038 1.1187,5.1718 4.7561,7.5362 2.261,1.4696 4.2731,3.0465 4.4715,3.5041 0.40459,0.93334 6.259,4.6585 7.3303,4.6643 0.38004,0.002 0.97527,-0.45624 1.3227,-1.0184 z m -2.971,-26.909 c -0.31644,-0.512 -0.19609,-1.1653 0.26744,-1.4518 1.18,-0.72926 5.1898,0.42916 5.1898,1.4993 0,1.1783 -4.7251,1.1372 -5.4573,-0.0475 z m -3.143,-7.8344 c -3.1067,-2.0744 -3.3139,-4.8265 -0.77616,-10.312 1.3799,-2.9826 3.4262,-6.4021 4.5474,-7.5989 1.1212,-1.1968 1.7456,-2.65 1.3876,-3.2293 -0.73697,-1.1924 1.0671,-5.0947 2.3553,-5.0947 0.46393,0 1.3915,1.3231 2.0614,2.9402 1.0939,2.6408 0.94817,3.2937 -1.4311,6.4131 -1.4569,1.9101 -3.3004,3.7229 -4.0965,4.0285 -1.5995,0.61378 -2.0181,4.6182 -0.48275,4.6182 0.53065,0 1.4465,-0.9 2.0352,-2 0.5887,-1.1 1.5045,-2 2.0352,-2 1.9293,0 0.89454,3.8134 -2.0352,7.5 -1.65,2.0763 -3,4.1631 -3,4.6375 0,1.0478 -1.1143,1.0894 -2.6003,0.0972 z m 60.267,-46.901 c -0.36667,-0.36666 -0.66667,-1.1317 -0.66667,-1.7 0,-0.6266 0.46577,-0.56756 1.1833,0.15 0.65084,0.65084 0.95084,1.4158 0.66667,1.7 -0.28417,0.28417 -0.81667,0.21667 -1.1833,-0.15 z m 11.187,-1.3184 c -2.0096,-1.6853 -2.1346,-2.1214 -0.85416,-2.9793 2.755,-1.8459 5,-1.2149 5,1.4054 0,3.379 -1.3724,3.9 -4.1458,1.574 z m -15.854,-5.015 c 0,-0.55 0.19844,-1 0.44098,-1 0.24254,0 0.7191,0.45 1.059,1 0.33992,0.55 0.14148,1 -0.44098,1 -0.58246,0 -1.059,-0.45 -1.059,-1 z m -63,-45.559 c 0,-1.4514 0.43284,-2.2915 1,-1.941 0.55,0.33992 1,1.4915 1,2.559 0,1.0675 -0.45,1.941 -1,1.941 -0.55,0 -1,-1.1516 -1,-2.559 z m -2.5,-8.441 c -0.33992,-0.55 0.0835,-1 0.94098,-1 0.85746,0 1.559,0.45 1.559,1 0,0.55 -0.42344,1 -0.94098,1 -0.51754,0 -1.2191,-0.45 -1.559,-1 z m 275.57,134.96 c 1.0638,-0.56935 1.9343,-1.6392 1.9343,-2.3776 0,-0.7383 0.675,-1.9026 1.5,-2.5873 1.9622,-1.6285 1.9421,-6.6164 -0.03,-7.373 -1.8998,-0.72899 -9.1422,2.0755 -9.8023,3.7957 -0.5134,1.3378 2.7978,9.5773 3.8488,9.5773 0.3381,0 1.4851,-0.46583 2.5489,-1.0352 z m -134.65,-6.0416 c 1.4239,-1.6922 2.5889,-3.633 2.5889,-4.3129 0,-0.67991 1.35,-2.5296 3,-4.1104 3.615,-3.4634 3.8394,-6.7361 0.8916,-13.007 -2.4618,-5.2373 -1.9722,-7.4928 1.6267,-7.4928 3.0731,0 8.121,-2.4414 8.7441,-4.229 0.77669,-2.2283 -0.40274,-3.771 -2.8829,-3.771 -1.3236,0 -3.3279,0.5625 -4.4539,1.25 -1.735,1.0593 -2.2591,0.96457 -3.4353,-0.62124 -1.7508,-2.3604 -6.0755,-1.5107 -6.9909,1.3736 -0.34872,1.0987 -1.0234,1.9977 -1.4993,1.9977 -0.47587,0 -1.1445,0.88003 -1.4859,1.9556 -0.34138,1.0756 -2.4185,4.1131 -4.6157,6.75 -2.7647,3.3178 -3.8675,5.4947 -3.5808,7.0682 0.22783,1.2506 0.0811,2.4797 -0.32603,2.7314 -1.1162,0.68984 0.70632,9.0832 2.6554,12.229 3.7535,6.059 6.0704,6.5783 9.7641,2.1885 z m -164.22,-11.55 c 4.3797,-0.74373 6.5314,-2.8306 7.4008,-7.1777 0.83336,-4.1668 -1.0659,-4.8896 -8.2924,-3.156 -6.7532,1.6201 -8.8176,0.66734 -8.8176,-4.0694 0,-1.8192 0.5625,-3.4952 1.25,-3.7244 0.77992,-0.25997 1.25,0.53264 1.25,2.1076 0,3.5496 1.0507,3.8669 8.3514,2.5217 6.3128,-1.1632 6.4478,-1.2545 7.0147,-4.748 0.44068,-2.7155 0.10942,-4.0608 -1.394,-5.6611 -1.1056,-1.1769 -1.9721,-3.4904 -1.9721,-5.2657 0,-2.4265 -0.52584,-3.3169 -2.25,-3.8099 -1.2375,-0.35388 -4.9827,-3.85 -8.3226,-7.769 -6.3199,-7.4158 -8.0358,-8.6218 -15.284,-10.742 -5.8116,-1.6999 -9.364,0.10682 -10.189,5.1819 -0.82654,5.085 -1.587,5.8614 -5.2227,5.3322 -1.7774,-0.25873 -3.8598,-0.0495 -4.6274,0.46492 -1.8917,1.2677 -0.63954,4.1372 1.8053,4.1372 3.0493,0 3.3356,1.495 1.5231,7.9546 -0.92142,3.2839 -1.4103,6.6613 -1.0864,7.5053 0.76124,1.9838 9.0107,6.0008 10.863,5.2899 0.78206,-0.3001 2.0219,-3.0465 2.7551,-6.1031 1.1841,-4.9359 1.5402,-5.4467 3.1842,-4.5669 2.2377,1.1976 2.3646,4.4468 0.36092,9.2422 -0.81954,1.9614 -1.2204,4.3789 -0.8908,5.3721 0.3296,0.99325 3.3626,4.4003 6.7401,7.5712 5.3044,4.98 6.5494,5.6956 9.1408,5.2537 1.65,-0.28139 4.6692,-0.79506 6.7092,-1.1415 z m 306.89,-0.0739 c 0.9296,-0.92882 0.3927,-1.5801 -2.4009,-2.9123 -3.8177,-1.8205 -5.649,-1.2132 -7.6573,2.5392 -0.7272,1.3589 -0.1347,1.5931 4.0036,1.5822 2.6714,-0.007 5.396,-0.55114 6.0546,-1.2092 z m -160.3,-0.55917 c 1.9126,-2.3046 2.5705,-6.7444 0.99931,-6.7444 -1.7954,0 -6.0929,5.7113 -5.2832,7.0214 0.84267,1.3635 3.0404,1.2214 4.2839,-0.27701 z m -186.34,-6.8225 c 2.5085,-1.693 4.3404,-3.4348 4.0709,-3.8708 -0.26947,-0.436 -1.9189,-1.0785 -3.6654,-1.4278 -1.7465,-0.3493 -3.7809,-1.1375 -4.5208,-1.7516 -1.571,-1.3038 -1.7971,-5.4744 -0.34531,-6.3716 1.3902,-0.8592 1.2589,-5.5 -0.15561,-5.5 -0.63558,0 -2.6306,1.125 -4.4333,2.5 -1.8027,1.375 -3.9276,2.5 -4.7219,2.5 -0.79436,0 -1.9708,0.63439 -2.6143,1.4098 -1.5985,1.926 2.3926,10.437 5.437,11.595 1.2184,0.46326 2.4876,1.5518 2.8204,2.4189 0.89494,2.3322 3.0332,1.9372 8.1284,-1.5015 z m 183.32,-5.4786 c 1.4407,-1.0091 2.2225,-2.5921 2.2225,-4.5 0,-2.4046 -0.42096,-2.9433 -2.3,-2.9433 -3.0288,0 -4.7,1.7897 -4.7,5.0333 0,4.2338 1.2636,4.8712 4.7775,2.41 z m -204.27,-0.45 c 0.34231,-0.55389 -0.10054,-1.2845 -0.98412,-1.6235 -1.9146,-0.73472 -2.9817,0.0749 -2.0614,1.5641 0.83038,1.3436 2.2349,1.371 3.0455,0.0595 z m 1.5308,-10.535 c 2.1603,-2.603 -0.37592,-4.1196 -3.4838,-2.0832 -1.4032,0.91944 -2.5514,2.1113 -2.5514,2.6486 0,1.5614 4.63,1.1277 6.0352,-0.56543 z m 240.21,-8.9515 c 0.67535,-3.2504 0.51023,-4.2154 -0.89746,-5.2447 -3.0611,-2.2384 -6.1574,-1.5206 -7.8895,1.8288 -1.8744,3.6246 -1.3113,5.9097 1.4563,5.9097 1.0848,0 2.2659,0.47492 2.6246,1.0554 1.389,2.2475 3.8942,0.35812 4.7061,-3.5492 z m -228.36,1.5892 c 1.9916,-1.2614 -1.589,-5.8712 -4.8801,-6.2827 -2.237,-0.27971 -2.4655,-0.70711 -2.1718,-4.0626 0.29821,-3.4072 0.10305,-3.75 -2.135,-3.75 -1.5675,0 -3.1012,0.97369 -4.2178,2.6778 -1.7139,2.6157 -1.6991,2.7189 0.63499,4.4484 1.3142,0.97386 3.264,2.5814 4.3328,3.5722 1.9775,1.8333 5.6501,4.2143 6.5568,4.2508 0.275,0.0111 1.121,-0.37322 1.8801,-0.85398 z m 4.9151,-18.345 c 1.7264,-3.6133 3.2048,-3.498 3.2048,0.25 0,3.9788 1.3004,3.7858 6.7373,-1 4.4676,-3.9325 6.7494,-4.6382 13.513,-4.1791 3.4961,0.23734 3.5664,-1.5674 0.26478,-6.7975 -1.3669,-2.1653 -2.2464,-4.5592 -1.9545,-5.3199 0.78324,-2.0411 -2.1653,-4.0121 -5.1488,-3.4418 -1.43,0.27335 -4.8447,-0.32345 -7.5882,-1.3262 -5.7425,-2.099 -7.669,-1.6421 -12.658,3.002 -3.0351,2.8254 -3.274,3.4612 -2.6621,7.0833 l 0.6723,3.9793 -3.5198,0 c -2.7382,0 -3.9759,-0.64053 -5.5737,-2.8844 -1.1389,-1.5995 -3.2853,-3.0956 -4.8181,-3.3586 -1.5203,-0.26078 -3.5029,-0.79222 -4.4058,-1.181 -1.4146,-0.60909 -1.6534,0.13123 -1.7269,5.3542 -0.0469,3.3336 0.3644,7.2439 0.91407,8.6896 0.92446,2.4315 1.3128,2.5784 5.1807,1.96 2.2997,-0.36774 5.6052,-1.5486 7.3456,-2.6242 4.2861,-2.649 5.4281,-2.4643 5.4281,0.87774 0,1.5583 0.31898,3.1523 0.70885,3.5422 1.4689,1.4689 4.821,0.0229 6.0864,-2.6255 z m 24.715,272.28 c -0.36266,-1.1426 -0.36509,-3.4174 -0.005,-5.055 0.50973,-2.3226 0.30617,-2.9775 -0.92588,-2.9775 -1.8209,0 -2.051,-2.2504 -0.5222,-5.107 0.96796,-1.8086 1.2528,-1.6077 3.3728,2.3795 1.7762,3.3405 2.1696,5.2529 1.6891,8.2091 -0.70541,4.3398 -2.6132,5.6882 -3.6089,2.5509 z m -14.069,-2.4612 c -2.1068,-1.5505 -1.6325,-1.9308 3.5589,-2.8536 1.375,-0.24443 3.1188,-0.61842 3.875,-0.8311 3.0261,-0.85101 1.9344,1.8338 -1.3903,3.4192 -4.2607,2.0318 -3.6784,2.0062 -6.0436,0.26552 z m -74.691,-1.8708 c -3.2953,-1.3021 -3.6999,-3.1884 -0.5,-2.3309 1.2375,0.33164 3.2625,0.60913 4.5,0.61664 1.3273,0.008 2.25,0.62881 2.25,1.5136 0,1.7095 -2.2487,1.7817 -6.25,0.20058 z m 9.25,-5.1749 c 0,-0.26088 1.3011,-1.1472 2.8914,-1.9695 2.698,-1.3952 2.9258,-1.3635 3.4064,0.47432 0.43793,1.6747 0.005,1.9695 -2.8914,1.9695 -1.8735,0 -3.4064,-0.21344 -3.4064,-0.47432 z m 130.5,-14.526 c 0.33992,-0.55 1.4915,-1 2.559,-1 1.0675,0 1.941,0.45 1.941,1 0,0.55 -1.1516,1 -2.559,1 -1.4514,0 -2.2915,-0.43284 -1.941,-1 z m -140.5,-3.5 c 0,-0.825 0.3949,-1.5 0.87755,-1.5 0.48266,0 1.4378,0.675 2.1224,1.5 1.0401,1.2532 0.89568,1.5 -0.87756,1.5 -1.22,0 -2.1224,-0.63782 -2.1224,-1.5 z m 344,-12.24 c -4.7682,-0.60988 -7,-1.3024 -7,-2.1719 0,-2.4744 4.1941,-1.7714 9.9166,1.6621 0.9213,0.5528 -0.5585,0.81148 -2.9166,0.50986 z m -311,-2.4648 c 0,-2.2066 5.5787,-5.795 9.0092,-5.795 2.5644,0 2.9348,0.2777 2.1768,1.632 -0.50233,0.89763 -2.4372,2.1868 -4.2997,2.8649 -1.8625,0.6781 -4.1738,1.5668 -5.1364,1.975 -1.1931,0.5059 -1.75,0.2905 -1.75,-0.67688 z m -44.778,-11.961 c 0.51655,-1.5496 3.659,-1.8103 4.028,-0.33415 0.1375,0.55 -0.81262,1.1504 -2.1114,1.3342 -1.6189,0.22908 -2.2216,-0.0853 -1.9167,-1 z m 407.78,-15.834 c 0,-0.55 0.1984,-1 0.4409,-1 0.2426,0 0.7191,0.45 1.0591,1 0.3399,0.55 0.1414,1 -0.441,1 -0.5825,0 -1.059,-0.45 -1.059,-1 z m -376.33,-8.7296 c -0.89681,-1.4511 0.71693,-3.1151 4.5905,-4.7336 3.3876,-1.4154 3.9219,-1.3982 6.5684,0.21121 4.0511,2.4636 3.4477,3.42 -2.3261,3.6869 -2.75,0.12714 -5.742,0.56196 -6.6488,0.96628 -0.90687,0.40431 -1.8897,0.34545 -2.184,-0.1308 z m 137.33,-0.91019 c 0,-0.7758 3.2027,-3.284 4.25,-3.3284 1.4365,-0.0609 0.73877,2.7585 -0.83179,3.3612 -2.0473,0.78561 -3.4182,0.77247 -3.4182,-0.0328 z m -25,-48.301 c 0,-0.58246 0.45,-1.059 1,-1.059 0.55,0 1,0.19844 1,0.44098 0,0.24254 -0.45,0.7191 -1,1.059 -0.55,0.33992 -1,0.14148 -1,-0.44098 z m -86,-55.055 c 0,-1.2123 2.8045,-2.5326 3.6288,-1.7084 0.29839,0.29839 -0.39602,1.0448 -1.5431,1.6587 -1.4462,0.77398 -2.0856,0.7892 -2.0856,0.0496 z m 388.22,-38.825 c -1.2503,-0.81702 -0.694,-4.1791 0.6915,-4.1791 1.7554,0 6.0416,2.6059 5.7567,3.5 -0.4139,1.2991 -4.7937,1.7603 -6.4482,0.6791 z m -421.86,-7.4124 c -0.97019,-1.5698 0.3212,-1.9082 3.7845,-0.99166 l 3.3597,0.88909 -3.294,0.50118 c -1.8117,0.27565 -3.5443,0.0963 -3.8501,-0.39861 z m 334.92,-11.371 c 0.3323,-0.33229 1.1948,-0.36781 1.9167,-0.0789 0.7977,0.31922 0.5607,0.55618 -0.6042,0.60416 -1.0542,0.0434 -1.6448,-0.19293 -1.3125,-0.52522 z m 50.12,-0.81921 c -0.7948,-2.0712 1.5642,-4.0214 3.0577,-2.5278 0.6207,0.62067 0.369,1.5621 -0.7049,2.6359 -1.5605,1.5605 -1.7152,1.5534 -2.3528,-0.10806 z m -38.105,-5.9316 c 0.4446,-1.3397 8.0179,-3.6623 9.9638,-3.0558 1.9008,0.59257 2.1205,1.2802 0.9813,3.0708 -0.8462,1.3298 -11.387,1.3154 -10.945,-0.015 z m -1.5362,-14.81 c -3.29,-3.6929 -3.3917,-4.1738 -0.7021,-3.3201 1.1264,0.3575 2.6701,0.13377 3.4303,-0.49718 2.0311,-1.6856 4.0041,2.2122 2.5218,4.982 -1.4072,2.6293 -1.984,2.5013 -5.25,-1.1646 z m -14.75,-3.8354 c 0,-0.55 0.45,-1 1,-1 0.55,0 1,0.45 1,1 0,0.55 -0.45,1 -1,1 -0.55,0 -1,-0.45 -1,-1 z m -229,-11.874 0,-3.8735 3.4019,1.6235 3.4019,1.6235 -2.6519,2.214 c -3.6548,3.0513 -4.1519,2.8612 -4.1519,-1.5876 z m 240,1.9805 c 0,-0.49116 0.7035,-1.163 1.5633,-1.4929 0.8599,-0.32996 1.2568,-1.096 0.8821,-1.7023 -0.3747,-0.60633 -0.1019,-2.1851 0.6063,-3.5084 1.1919,-2.2269 1.4193,-2.287 3.0555,-0.8062 2.6927,2.4369 9.7136,1.0043 10.944,-2.2331 l 0.9274,-2.4393 3.0104,2.2257 c 1.6558,1.2241 3.0105,2.3368 3.0105,2.4726 0,0.13576 -0.4469,1.422 -0.993,2.8584 -0.8754,2.3025 -1.4966,2.5882 -5.25,2.4146 -2.3414,-0.10835 -6.4103,0.54575 -9.042,1.4536 -5.2943,1.8262 -8.715,2.1236 -8.715,0.75753 z m 31,-4.607 c 0,-0.95201 0.958,-1.5 2.6224,-1.5 2.2177,0 2.4303,0.23152 1.3776,1.5 -0.6847,0.825 -1.8648,1.5 -2.6225,1.5 -0.7576,0 -1.3775,-0.675 -1.3775,-1.5 z m -358.43,-16.654 c -2.1065,-4.2226 -1.9873,-5.0443 0.67676,-4.6659 1.8073,0.25668 2.3111,1.0573 2.5604,4.0696 0.37869,4.5755 -1.1148,4.8506 -3.2371,0.59636 z m 81.815,-0.70266 c 1.5623,-1.7429 1.6671,-2.3723 0.6075,-3.6491 -2.3401,-2.8197 -0.10336,-2.8142 3.5978,0.009 3.992,3.0448 3.6604,3.6851 -2.5933,5.0068 l -3.5,0.73971 1.888,-2.1062 z m -61.388,-11.53 c 0,-0.82118 6.1159,-1.235 6.603,-0.44677 0.28324,0.4583 -1.0866,0.83327 -3.044,0.83327 -1.9575,0 -3.559,-0.17393 -3.559,-0.3865 z m 15,-15.554 c 0,-1.568 1.7669,-2.1556 4.454,-1.4812 3.7042,0.92968 3.1163,2.4222 -0.95401,2.4222 -1.925,0 -3.5,-0.42344 -3.5,-0.94098 z m -6,-5.7829 c -2.5325,-0.45736 -7,-3.9359 -7,-5.4505 0,-1.2182 2.1526,-0.99466 5.0666,0.52605 1.4117,0.73667 3.7742,1.6425 5.25,2.0129 1.4758,0.37041 2.6834,1.3399 2.6834,2.1544 0,1.471 -1.2052,1.623 -6,0.75711 z m 255.89,-3.9495 c -0.85782,-1.0047 -2.1447,-3.3044 -2.8597,-5.1105 -0.71502,-1.8062 -2.3596,-4.1173 -3.6546,-5.136 -2.0406,-1.6052 -2.1567,-2.0163 -0.87028,-3.0839 1.213,-1.0067 1.8199,-0.81729 3.3212,1.0367 2.3242,2.8702 7.1744,2.1254 7.1744,-1.1017 0,-3.385 2.8807,-7.9313 5.0257,-7.9313 2.0809,0 2.4285,-1.1761 2.0285,-6.8637 -0.27826,-3.9568 2.035,-4.0054 2.9592,-0.0621 0.35372,1.5092 1.4033,2.5466 2.7776,2.7454 2.6426,0.38229 2.6252,0.23963 0.55734,4.5762 -0.90842,1.905 -2.6221,3.7072 -3.8082,4.0048 -1.2253,0.30753 -3.1193,2.389 -4.386,4.8203 -1.2262,2.3535 -2.6089,4.9541 -3.0726,5.7791 -0.46376,0.825 -1.4708,2.997 -2.238,4.8266 -1.3243,3.1586 -1.4736,3.2344 -2.9544,1.5 z m 34.654,-0.25755 c -0.3165,-0.512 -0.096,-1.2269 0.4888,-1.5886 1.48,-0.91467 4.2321,0.28391 3.4728,1.5124 -0.7816,1.2646 -3.1984,1.3111 -3.9616,0.0762 z m -285.88,-8.7358 c -1.2139,-1.2139 -0.69106,-4.3333 0.72634,-4.3333 1.3103,0 2.607,2.0303 2.607,4.0818 0,1.0605 -2.3473,1.2376 -3.3333,0.25154 z m -2,-6 c -0.9557,-0.95569 -0.82206,-2.3333 0.22634,-2.3333 0.49116,0 1.152,0.675 1.4686,1.5 0.58492,1.5243 -0.4803,2.048 -1.695,0.83333 z m 151.88,-2.2642 c -0.81224,-1.3142 1.0018,-2.2258 7.3802,-3.7085 7.3291,-1.7037 8.5137,-0.22426 1.9909,2.4865 -5.5859,2.3214 -8.46,2.6962 -9.371,1.222 z m 98.091,-0.92142 c -1.7795,-1.9663 -2.0994,-3.7418 -0.81713,-4.5343 0.44908,-0.27755 1.5812,0.78992 2.5159,2.3722 1.9526,3.3055 0.73663,4.8532 -1.6987,2.1621 z m -19.598,0.10232 c 0.13581,-2.8746 7.46,-10.279 10.109,-10.22 0.89806,0.0201 0.76495,0.37445 -0.39436,1.0497 -0.9625,0.5606 -1.75,1.8316 -1.75,2.8246 0,0.99291 -1.4368,2.9956 -3.1928,4.4503 -3.1974,2.6489 -4.8382,3.3005 -4.7718,1.895 z m -16.035,-0.69098 c 0,-0.24254 0.45,-0.7191 1,-1.059 0.55,-0.33992 1,-0.14148 1,0.44098 0,0.58246 -0.45,1.059 -1,1.059 -0.55,0 -1,-0.19844 -1,-0.44098 z m 41.404,-5.9478 c -0.65198,-1.699 0.22422,-3.6113 1.6547,-3.6113 1.2611,0 1.2066,3.7178 -0.0661,4.5044 -0.55389,0.34233 -1.2688,-0.0596 -1.5886,-0.89309 z m -197.41,-10.7 c 0,-0.57731 0.69416,-2.392 1.5426,-4.0327 2.1559,-4.169 3.7777,-2.6571 1.738,1.6202 -1.5928,3.3403 -3.2806,4.5814 -3.2806,2.4125 z m 103,-0.83231 c 0,-0.55 0.45,-1.2781 1,-1.618 0.55,-0.33992 1,-0.16803 1,0.38197 0,0.55 -0.45,1.2781 -1,1.618 -0.55,0.33992 -1,0.16803 -1,-0.38197 z m 59.229,-3.3048 c 0.49828,-1.4948 2.7711,-2.3179 2.7711,-1.0035 0,0.53699 -0.7126,1.2498 -1.5836,1.584 -0.97391,0.37373 -1.4311,0.15024 -1.1875,-0.58051 z m -169.39,-0.30939 c -0.74977,-0.74976 2.3389,-7.5038 3.4316,-7.5038 1.5865,0 0.32156,7.4663 -1.3175,7.7762 -0.85182,0.16109 -1.8032,0.0385 -2.1141,-0.27246 z m -17.182,-3.3325 c -1.9927,-2.2019 -2.1482,-4.1713 -0.3293,-4.1713 1.7165,0 5.9005,4.4404 5.0168,5.3242 -1.1781,1.1781 -2.9787,0.73525 -4.6875,-1.1529 z m 115.53,-1.9213 c 0.21833,-1.1526 1.4383,-1.857 3.5733,-2.0634 3.6207,-0.34998 4.1057,0.43712 1.4918,2.4213 -2.582,1.96 -5.4656,1.7562 -5.0651,-0.35795 z m -11.111,-7.661 c -1.4937,-1.7998 -0.75021,-2.2017 5.6761,-3.0685 4.161,-0.56127 5.25,-0.41904 5.25,0.68567 0,0.76661 -0.54,1.9338 -1.2,2.5938 -1.6546,1.6546 -8.2974,1.5105 -9.7261,-0.21097 z m -5.6984,-8.0529 c -0.67463,-1.7581 2.4652,-6.2632 4.9499,-7.1023 2.7824,-0.93965 3.3297,0.41907 0.86431,2.1459 -1.2043,0.84354 -2.1897,2.36 -2.1897,3.37 0,2.2843 -2.874,3.5422 -3.6245,1.5864 z m 12.027,-1.694 c -0.31614,-0.51153 0.11557,-1.9837 0.95935,-3.2715 1.6875,-2.5755 1.2616,-3.5706 -1.5284,-3.5706 -1.0083,0 -1.8333,-0.45 -1.8333,-1 0,-0.55 0.97707,-1 2.1713,-1 1.19423,0 2.9848,-0.73625 3.9792,-1.6361 1.632,-1.477 1.8666,-1.4831 2.4115,-0.0631 0.3494,0.91053 1.2464,1.3263 2.1299,0.98727 1.2087,-0.46382 1.3924,-1.5952 0.8828,-5.4369 -0.66667,-5.0256 0.13374,-5.9541 3.3685,-3.9074 1.1446,0.72418 1.2123,1.4197 0.32733,3.362 -1.1943,2.6213 -0.12143,4.6943 2.4295,4.6943 0.715,0 1.3,0.675 1.3,1.5 0,0.93725 -0.94719,1.5 -2.5248,1.5 -1.7457,0 -2.8066,0.74142 -3.4383,2.4029 -1.0372,2.7279 -2.1766,3.6037 -6.7983,5.2251 -1.9626,0.68852 -3.4903,0.77379 -3.8362,0.21412 z m -58.652,-0.53143 c -2.0449,-0.53439 -2.3834,-3.3107 -0.40364,-3.3107 1.4726,0 7.6536,2.8858 7.6536,3.5732 0,0.53094 -4.8915,0.35379 -7.25,-0.26257 z m 13.265,-3.2827 c -0.59695,-1.1154 -1.7445,-2.028 -2.5502,-2.028 -0.80565,0 -1.4648,-0.45 -1.4648,-1 0,-1.2576 1.175,-1.2642 4.4349,-0.0247 1.4108,0.53639 2.5651,1.6348 2.5651,2.441 0,2.412 -1.8217,2.7854 -2.985,0.61178 z m 4.235,-5.5086 c -3.9078,-4.0265 -5.2713,-6.5194 -3.5657,-6.5194 1.5788,0 9.3157,4.2559 9.3157,5.1244 0,0.54512 0.8697,0.48053 2.0524,-0.15244 1.1288,-0.60413 2.7038,-0.95746 3.4999,-0.78518 1.187,0.25686 1.0902,0.89813 -0.53771,3.5632 -2.735,4.4775 -5.5354,4.1574 -10.765,-1.2306 z m 17.542,-0.9336 c -1.6159,-2.2242 -1.6116,-2.4388 0.0787,-3.9686 2.3832,-2.1567 3.3993,-2.0425 2.6562,0.29862 -0.33444,1.0537 -0.15941,2.1931 0.38894,2.532 1.0248,0.63335 0.37879,3.577 -0.77264,3.5207 -0.35365,-0.0173 -1.4117,-1.0895 -2.3513,-2.3828 z m 16.659,-0.40177 c -0.52462,-0.37621 -1.5835,-1.9062 -2.353,-3.3999 -1.1702,-2.2716 -1.1803,-2.9796 -0.0614,-4.3278 1.2123,-1.4607 1.5057,-1.3936 3.1285,0.71591 2.7224,3.5389 2.1589,9.0721 -0.71412,7.0118 z"
         id="path3118"
         inkscape:connector-curvature="0" />
    </g>
  </g>
</svg>
